g object
v -40.71513 -2.109467E-05 131.757
v -49.80731 39.41648 97.19236
v -67.68907 -2.259288E-05 109.5232
v -19.5724 46.57698 114.5788
v -34.86107 82.91552 91.26748
v 0 -2.769062E-05 157.8033
v -19.63864 139.8595 90.69188
v 24.7221 176.6448 114.1675
v 0 208.2725 87.50135
v 0 101.0136 111.357
v 52.11786 123.8225 136.4463
v 79.90925 63.32072 155.9323
v 49.73582 -2.584131E-05 160.9485
v 85.60117 -2.860976E-05 138.5056
v 24.2904 57.62492 142.1985
v -81.1135 25.78784 85.25993
v -64.74549 68.86377 75.80534
v -99.7769 55.92824 61.66551
v -130.6615 98.70663 36.11394
v -114.7289 160.4814 23.63546
v -154.2577 140.2628 0
v -86.26512 108.1408 53.31478
v -75.3879 179.9429 46.59229
v -36.81866 196.0863 68.26556
v -52.37093 124.1152 72.37486
v -114.7289 160.4814 23.63546
v -115.4582 161.6887 -23.7857
v -154.2577 140.2628 0
v -94.45561 225.4956 0
v -78.32281 185.7635 -48.40615
v -94.45561 225.4956 0
v -40.10132 213.5688 -74.35194
v 0 266.2104 -55.88572
v 0 232.2997 -97.65762
v -48.68648 259.291 -30.0899
v 0 262.7719 0
v 0 256.2498 53.98407
v -49.44597 262.5027 30.55929
v 0 262.7719 0
v -49.44597 262.5027 30.55929
v 0 262.7719 0
v 44.55684 236.6046 82.61294
v 50.20643 266.8604 31.02928
v 0 262.7719 0
v 90.39391 215.6806 55.8665
v 41.84254 223.5781 -77.58033
v 49.22479 262.2592 -30.42259
v 78.63996 187.1712 -48.60217
v 0 262.7719 0
v 113.4583 158.3542 -23.3737
v 121.2534 169.2596 24.97958
v 144.2546 131.2347 0
v 92.7886 220.8603 0
v 0 262.7719 0
v 76.3207 181.3701 105.4726
v 125.5326 94.41315 34.69636
v 104.1923 130.4141 64.39441
v 118.5294 66.34326 73.2552
v 115.0706 36.67869 120.9528
v 94.38856 100.3018 110.512
v 155.1978 70.42729 0
v 140.5788 35.29057 38.85501
v 133.695 -2.337177E-05 0
v 114.0645 -51.60628 0
v 112.6981 -84.70701 31.14897
v 106.3869 -96.71234 0
v 126.7315 -31.86625 35.02773
v 103.3862 -58.12919 63.89621
v 99.92243 -31.77407 105.0303
v 137.447 -2.834225E-05 84.94693
v 159.6647 120.4415 -44.13024
v 150.1606 37.62054 -41.50338
v 147.4965 82.93027 -91.15788
v 112.0261 35.6069 -117.7527
v 99.86368 -31.83149 -104.9686
v 84.84551 -2.821472E-05 -137.2829
v 120.9589 -2.495187E-05 -74.75669
v 101.9426 -57.31749 -63.00399
v 104.035 -78.15192 -28.75457
v 114.9722 -28.84121 -31.77754
v 27.19509 193.7674 -125.5878
v 67.52148 161.2631 -93.3124
v 56.79473 135.104 -148.6906
v 79.20096 62.67052 -154.5502
v 110.4794 117.5222 -129.3515
v 107.1664 134.4394 -66.23251
v -22.21797 158.4614 -102.6033
v 0 113.2327 -124.4666
v -35.98794 85.47441 -94.21766
v -42.58299 33.78855 -83.09505
v -33.84526 -1.754882E-05 -109.5256
v -67.45466 -2.240114E-05 -109.1439
v -16.97626 40.38465 -99.38073
v 0 -2.251913E-05 -128.1667
v 45.0742 -2.344093E-05 -145.8632
v 23.83544 56.93294 -139.5351
v -51.15127 -40.38239 -99.81492
v -15.90639 -37.88488 -93.1176
v -35.88202 -85.19933 -93.94035
v -16.61232 -119.3128 -76.71627
v 18.10664 -129.3759 -83.61708
v 0 -142.2424 -59.88858
v 0 -88.10849 -97.186
v 40.62499 -96.55499 -106.3576
v 62.92139 -49.95411 -122.7827
v 17.62717 -41.92636 -103.1912
v 30.15675 -160.6067 -55.91369
v 60.34252 -143.1296 -83.3913
v 66.57816 -158.5718 -41.14756
v 98.04865 -137.045 -20.19913
v 93.68705 -117.4081 -57.90178
v 82.90531 -87.98551 -97.06723
v 0 -166.0855 -34.8187
v 30.80046 -164.0349 -19.03573
v 0 -186.7106 0
v 0 -188.7256 39.74096
v 33.2192 -176.7234 61.59179
v 0 -192.9802 81.12894
v 34.41891 -182.9244 21.27205
v 69.21918 -164.673 42.7798
v 0 -186.7106 0
v 99.88829 -139.8157 20.57812
v 69.0432 -163.6233 0
v 0 -186.7106 0
v -27.02112 -143.9746 -50.09992
v -32.83174 -174.853 -20.29113
v -64.99357 -154.6021 -40.16823
v 0 -186.7106 0
v -120.8991 -169.6404 -24.90658
v -134.4166 -187.5928 27.69134
v -150.9637 -137.1742 0
v -134.4166 -187.5928 27.69134
v -81.10304 -192.9993 0
v -86.95197 -206.8389 53.73927
v -81.10304 -192.9993 0
v -38.07346 -202.42 70.59207
v -32.50649 -173.0273 20.09012
v 0 -186.7106 0
v -32.50649 -173.0273 20.09012
v 0 -186.7106 0
v -128.1035 -96.22467 35.40693
v -150.9637 -137.1742 0
v -125.1815 -157.1066 77.36644
v -116.7558 -65.64627 72.15907
v -104.6389 -33.25403 109.9879
v -77.40748 -61.25933 151.0504
v -107.4529 -114.2955 125.808
v -57.78261 -137.6231 151.2768
v -26.17348 -186.8662 120.87
v -80.365 -190.8973 111.0617
v -29.08442 -69.27153 170.2631
v 52.61816 -41.57828 102.6774
v 22.29267 -53.09534 130.5035
v 31.58901 -75.08554 82.70112
v 19.95402 -142.3568 92.14836
v 0 -109.2187 120.5016
v 47.56469 -113.1897 65.73278
v 58.67194 -62.08051 68.69431
v 82.20793 -103.2073 50.80729
v -176.5951 80.32811 0
v -146.9325 36.99166 40.61113
v -179.29 -3.140773E-05 0
v -105.4864 -2.172346E-05 65.1942
v -154.3234 -70.11364 0
v -125.0876 -31.40714 34.57337
v -141.2342 106.1532 -39.03617
v -176.5951 80.32811 0
v -166.9643 41.98264 -46.1478
v -179.29 -3.140773E-05 0
v -111.1493 62.30209 -68.69402
v -154.3234 -70.11364 0
v -161.5503 -121.8043 -44.65141
v -178.7515 -44.90359 -49.4057
v -141.1513 -79.66524 -87.23631
v -105.8827 -33.72487 -111.2953
v -86.48198 27.51291 -90.90284
v -139.0559 -2.860744E-05 -85.94128
v -94.112 118.3208 -58.16442
v -70.76973 75.0266 -82.85864
v -58.07985 137.9397 -80.26438
v -51.89244 -123.5943 -71.71358
v -80.41446 -85.27792 -94.15089
v -105.4727 -132.1215 -65.18571

vn -0.4767276 0.5233184 0.7063064
vn -0.5909248 0.3974502 0.7020265
vn -0.534571 0.383741 0.7529785
vn -0.5322933 0.3978286 0.7472591
vn -0.5445082 0.1944274 0.8159099
vn -0.2841284 0.3198783 0.9038523
vn -0.57728 0.1758373 0.7973888
vn -0.4201644 0.2491488 0.8725748
vn -0.2427627 0.6582979 0.7125378
vn -0.5311477 0.1609538 0.8318509
vn -0.06803375 0.2594317 0.9633622
vn 0.3884515 0.2104809 0.8971082
vn 0.3468655 -0.2294336 0.9094199
vn 0.4966803 -0.3387855 0.7990826
vn -0.4917534 0.3282878 0.8064774
vn -0.4920684 0.45107 0.7445835
vn -0.5148408 0.2464879 0.8210863
vn -0.4960596 0.2781973 0.8225151
vn -0.4135377 0.2455216 0.8767587
vn -0.5906274 0.348185 0.7279604
vn -0.8675895 0.4972652 -0.003975615
vn -0.4882728 0.2254248 0.8430737
vn -0.5941684 0.231603 0.7702752
vn -0.4934136 0.1800689 0.8509514
vn -0.4926087 0.1737961 0.8527201
vn -0.5906274 0.348185 0.7279604
vn -0.6322948 0.4412102 -0.6368179
vn -0.8675895 0.4972652 -0.003975615
vn -0.8210551 0.5695021 -0.03918973
vn -0.6629318 0.3219392 -0.6759263
vn -0.8210551 0.5695021 -0.03918973
vn -0.6530082 0.3171861 -0.6877306
vn -0.08533971 0.8845732 -0.4585274
vn -0.2355579 0.5984983 -0.7657103
vn -0.4990136 0.7763294 -0.3850949
vn -0.3357348 0.9390661 0.07373525
vn 0.03643957 0.5912836 0.80564
vn -0.4152525 0.8157345 0.4026694
vn -0.3357348 0.9390661 0.07373525
vn -0.4152525 0.8157345 0.4026694
vn -0.3357348 0.9390661 0.07373525
vn -0.1870706 0.8171714 0.5451931
vn 0.3645568 0.8897151 0.2747823
vn -0.3357348 0.9390661 0.07373525
vn 0.7701164 0.4602392 0.441702
vn 0.809137 0.383174 -0.4455052
vn 0.6741804 0.6055294 -0.422865
vn 0.7302003 0.5213888 -0.4415443
vn -0.3357348 0.9390661 0.07373525
vn 0.7673517 0.5583138 -0.3153678
vn 0.917818 0.2936054 0.2672194
vn 0.9006854 0.4047627 0.1579015
vn 0.7965895 0.3867628 -0.4646071
vn -0.3357348 0.9390661 0.07373525
vn 0.7312223 0.3161611 0.6044471
vn 0.7996981 0.2211272 0.5581987
vn 0.9073785 0.1342227 0.3983071
vn 0.8769703 0.3712916 0.3050666
vn 0.8378642 0.1951282 0.5098123
vn 0.8782005 0.3174186 0.3577841
vn 0.9135516 -0.03657607 0.4050749
vn 0.9791335 0.08075624 0.1864832
vn 0.9274448 -0.3724557 -0.03351115
vn 0.925281 -0.3518615 -0.1415926
vn 0.9572472 -0.2712803 0.1004229
vn 0.9569468 -0.2808225 -0.0734264
vn 0.9404529 -0.311978 -0.1349744
vn 0.4005578 -0.542807 0.7381829
vn 0.2271283 -0.8014655 0.5532321
vn 0.9665653 -0.09567717 0.237902
vn 0.7153291 0.5818383 -0.3869994
vn 0.8867773 -0.4183246 -0.1965463
vn 0.8580028 -0.02674489 -0.5129482
vn 0.7105156 -0.247511 -0.6587154
vn 0.8695896 -0.268453 -0.4144236
vn 0.6645346 -0.1727059 -0.7270257
vn 0.869439 -0.4156285 -0.2670745
vn 0.9642848 -0.2301304 -0.1311295
vn 0.9757918 -0.2172016 -0.02557069
vn 0.9378358 -0.3254563 -0.1205909
vn -0.1587513 0.3734931 -0.913948
vn 0.7069537 0.5848637 -0.3976819
vn -0.002659237 0.2607442 -0.9654042
vn 0.5293455 -0.0730814 -0.8452529
vn 0.6396687 0.2067284 -0.7403291
vn 0.6454835 0.6784334 -0.3508265
vn -0.605907 0.1317107 -0.7845566
vn -0.5557477 -0.02353931 -0.8310177
vn -0.4755284 -0.1322983 -0.8696952
vn -0.2867775 0.3406654 -0.8953803
vn -0.3092815 0.00332443 -0.9509647
vn -0.1350877 0.3762009 -0.9166374
vn -0.6965175 0.1375394 -0.7042346
vn -0.4590696 -0.263901 -0.8482991
vn -0.1349274 -0.5594202 -0.8178287
vn -0.6291156 0.09255039 -0.7717823
vn 0.3227547 -0.1972145 -0.9257084
vn -0.2138811 -0.4307623 -0.8767546
vn 0.004551148 -0.162691 -0.9866666
vn -0.1741244 -0.6640698 -0.7271121
vn -0.3272765 -0.5957739 -0.7334464
vn -0.2647206 -0.7488092 -0.6076249
vn -0.1898463 0.04870749 -0.9806049
vn -0.1402925 -0.3441093 -0.9283894
vn -0.2062943 -0.314587 -0.9265407
vn -0.2995508 -0.49127 -0.8178772
vn -0.1723494 -0.8134614 -0.5554964
vn 0.2037368 -0.5450978 -0.8132402
vn 0.2442429 -0.9639629 -0.1054559
vn 0.9371699 -0.292472 -0.1901914
vn 0.9039208 -0.2322712 -0.3591341
vn 0.6619709 -0.3193089 -0.6781123
vn -0.2175422 -0.7214526 -0.6574051
vn 0.3139957 -0.9345999 -0.1671219
vn 0.06607615 -0.976077 -0.2071414
vn 0.1061512 -0.9821497 -0.1552864
vn 0.5085747 -0.6772956 0.5316225
vn 0.4354202 -0.8614981 0.2612095
vn 0.01670418 -0.994076 0.1073962
vn 0.6321445 -0.5778902 0.5161748
vn 0.06607615 -0.976077 -0.2071414
vn 0.8940033 -0.3753514 0.2446826
vn 0.2712196 -0.9526071 -0.1377669
vn 0.06607615 -0.976077 -0.2071414
vn -0.07005069 -0.7212262 -0.6891485
vn -0.06481583 -0.7948666 -0.6033126
vn -0.01458092 -0.7489167 -0.6625037
vn 0.06607615 -0.976077 -0.2071414
vn -0.2147489 -0.7779515 -0.5904866
vn -0.7773668 -0.6245791 0.07484557
vn -0.9611087 -0.159452 0.2254886
vn -0.7773668 -0.6245791 0.07484557
vn 0.1135449 -0.8787177 -0.4636406
vn -0.08459101 -0.9957156 0.03734743
vn 0.1135449 -0.8787177 -0.4636406
vn 0.1638759 -0.9592116 -0.2303429
vn 0.02789249 -0.9847102 -0.171953
vn 0.06607615 -0.976077 -0.2071414
vn 0.02789249 -0.9847102 -0.171953
vn 0.06607615 -0.976077 -0.2071414
vn -0.9248126 0.1438132 0.3521923
vn -0.9611087 -0.159452 0.2254886
vn -0.8925734 -0.1961289 0.4060124
vn -0.9256403 0.2363794 0.2954906
vn -0.7730889 0.4135617 0.4809367
vn -0.4939219 0.3156797 0.8101775
vn -0.8191931 -0.1243845 0.559867
vn -0.1017 -0.3474549 0.9321653
vn 0.4018078 -0.5573416 0.7265816
vn -0.4643185 -0.6876532 0.5581589
vn -0.007666833 -0.04767041 0.9988337
vn 0.4321156 -0.8255922 0.3628685
vn 0.6704136 -0.5979813 0.4392766
vn 0.7096772 -0.3151045 0.6301329
vn 0.7420057 -0.0428077 0.6690255
vn 0.8098207 -0.2060876 0.5492889
vn 0.5641226 -0.00804584 0.8256519
vn 0.3195257 -0.4936498 0.8088346
vn 0.3254826 -0.1970301 0.9247919
vn -0.9463588 0.2526439 0.2014352
vn -0.5812506 0.07280105 0.8104614
vn -0.9295291 -0.1100813 0.3519343
vn -0.7967808 -0.1361693 0.5887261
vn -0.6938387 -0.3098114 0.6500806
vn -0.7296715 -0.1074696 0.6752998
vn -0.4618683 0.3874047 -0.7978691
vn -0.9463588 0.2526439 0.2014352
vn -0.7081939 0.2703073 -0.6522234
vn -0.9295291 -0.1100813 0.3519343
vn -0.4261574 0.3169128 -0.8473229
vn -0.6938387 -0.3098114 0.6500806
vn -0.830266 -0.4306071 -0.3538869
vn -0.9491097 -0.06812563 -0.3074892
vn -0.4626676 -0.3521193 -0.8136035
vn -0.2340999 0.006528968 -0.9721906
vn 0.03644547 0.3257222 -0.9447628
vn -0.5146288 0.3605856 -0.7779043
vn -0.5741934 0.2621773 -0.7756063
vn -0.1525267 0.06986696 -0.9858267
vn -0.5782806 0.1962159 -0.7918907
vn -0.03797213 -0.644384 -0.7637588
vn 0.02121606 -0.4827696 -0.8754904
vn -0.04190891 -0.6098351 -0.7914194

vt 0.7977001 0.5
vt 0.8253705 0.4232277
vt 0.8381041 0.5
vt 0.776927 0.4153324
vt 0.8080699 0.3333333
vt 0.75 0.5
vt 0.7839398 0.2457124
vt 0.7160602 0.2457124
vt 0.75 0.1762082
vt 0.75 0.3237918
vt 0.6919301 0.3333333
vt 0.6746295 0.4232277
vt 0.7022999 0.5
vt 0.6618959 0.5
vt 0.723073 0.4153324
vt 0.8710343 0.4528384
vt 0.862502 0.3601596
vt 0.9118959 0.4
vt 0.9570821 0.3539629
vt 0.9676646 0.2612329
vt 1 0.3237918
vt 0.9118959 0.3
vt 0.9118959 0.2
vt 0.8287221 0.1678328
vt 0.8496938 0.2584051
vt -0.0323354 0.2612329
vt 0.03233537 0.2612329
vt 0 0.3237918
vt 0 0.1762082
vt 0.08810409 0.2
vt 1 0.1762082
vt 0.1712779 0.1678328
vt 0.25 0.09540019
vt 0.25 0.1762082
vt 0.08810409 0.09999997
vt 0.169052 0
vt 0.75 0.09540019
vt 0.9118959 0.09999997
vt 0.830948 0
vt -0.08810407 0.09999997
vt 1.117587E-08 0
vt 0.6712779 0.1678328
vt 0.5881041 0.09999997
vt 0.669052 0
vt 0.5881041 0.2
vt 0.3287221 0.1678328
vt 0.4118959 0.09999997
vt 0.4118959 0.2
vt 0.3309479 0
vt 0.4676647 0.2612329
vt 0.5323353 0.2612329
vt 0.5 0.3237918
vt 0.5 0.1762082
vt 0.5 0
vt 0.6503062 0.2584051
vt 0.5429179 0.3539629
vt 0.5881041 0.3
vt 0.5881041 0.4
vt 0.6289657 0.4528384
vt 0.637498 0.3601596
vt 0.5 0.4045998
vt 0.5429179 0.4480572
vt 0.5 0.5
vt 0.5 0.5954002
vt 0.5429179 0.646037
vt 0.5 0.6762082
vt 0.5429179 0.5519428
vt 0.5881041 0.6
vt 0.6289657 0.5471615
vt 0.5881041 0.5
vt 0.4570821 0.3539629
vt 0.4570821 0.4480572
vt 0.4118959 0.4
vt 0.3710343 0.4528384
vt 0.3710343 0.5471615
vt 0.3381041 0.5
vt 0.4118959 0.5
vt 0.4118959 0.6
vt 0.4570821 0.646037
vt 0.4570821 0.5519428
vt 0.2839398 0.2457124
vt 0.3496938 0.2584051
vt 0.3080699 0.3333333
vt 0.3253705 0.4232277
vt 0.362502 0.3601596
vt 0.4118959 0.3
vt 0.2160602 0.2457124
vt 0.25 0.3237918
vt 0.1919301 0.3333333
vt 0.1746295 0.4232277
vt 0.2022999 0.5
vt 0.1618959 0.5
vt 0.223073 0.4153324
vt 0.25 0.5
vt 0.2977001 0.5
vt 0.276927 0.4153324
vt 0.1746295 0.5767723
vt 0.223073 0.5846676
vt 0.1919301 0.6666667
vt 0.2160602 0.7542875
vt 0.2839398 0.7542875
vt 0.25 0.8237918
vt 0.25 0.6762082
vt 0.3080699 0.6666667
vt 0.3253705 0.5767723
vt 0.276927 0.5846676
vt 0.3287221 0.8321671
vt 0.3496938 0.7415949
vt 0.4118959 0.8
vt 0.4676647 0.738767
vt 0.4118959 0.7
vt 0.362502 0.6398403
vt 0.25 0.9045998
vt 0.4118959 0.9
vt 0.3309479 1
vt 0.75 0.9045998
vt 0.6712779 0.8321671
vt 0.75 0.8237918
vt 0.5881041 0.9
vt 0.5881041 0.8
vt 0.669052 1
vt 0.5323353 0.738767
vt 0.5 0.8237918
vt 0.5 1
vt 0.1712779 0.8321671
vt 0.08810409 0.9
vt 0.08810409 0.8
vt 0.169052 1
vt 0.03233537 0.738767
vt -0.0323354 0.738767
vt 0 0.6762082
vt 0.9676646 0.738767
vt 1 0.8237918
vt 0.9118959 0.8
vt 0 0.8237918
vt 0.8287221 0.8321671
vt 0.9118959 0.9
vt 0.830948 1
vt -0.08810407 0.9
vt 1.117587E-08 1
vt 0.9570821 0.646037
vt 1 0.6762082
vt 0.9118959 0.7
vt 0.9118959 0.6
vt 0.8710343 0.5471615
vt 0.8253705 0.5767723
vt 0.862502 0.6398403
vt 0.8080699 0.6666667
vt 0.7839398 0.7542875
vt 0.8496938 0.7415949
vt 0.776927 0.5846676
vt 0.6746295 0.5767723
vt 0.723073 0.5846676
vt 0.6919301 0.6666667
vt 0.7160602 0.7542875
vt 0.75 0.6762082
vt 0.6503062 0.7415949
vt 0.637498 0.6398403
vt 0.5881041 0.7
vt 1 0.4045998
vt 0.9570821 0.4480572
vt 1 0.5
vt 0.9118959 0.5
vt 1 0.5954002
vt 0.9570821 0.5519428
vt 0.04291791 0.3539629
vt 0 0.4045998
vt 0.04291791 0.4480572
vt 0 0.5
vt 0.08810409 0.4
vt 0 0.5954002
vt 0.04291791 0.646037
vt 0.04291791 0.5519428
vt 0.08810409 0.6
vt 0.1289657 0.5471615
vt 0.1289657 0.4528384
vt 0.08810409 0.5
vt 0.08810413 0.3
vt 0.1374981 0.3601596
vt 0.1503062 0.2584051
vt 0.1503062 0.7415949
vt 0.1374981 0.6398403
vt 0.08810413 0.7

usemtl ground (Instance)
usemap ground (Instance)
f 1/1/1 2/2/2 3/3/3
f 2/2/2 4/4/4 5/5/5
f 4/4/4 1/1/1 6/6/6
f 1/1/1 4/4/4 2/2/2
f 7/7/7 8/8/8 9/9/9
f 8/8/8 10/10/10 11/11/11
f 10/10/10 7/7/7 5/5/5
f 7/7/7 10/10/10 8/8/8
f 12/12/12 13/13/13 14/14/14
f 13/13/13 15/15/15 6/6/6
f 15/15/15 12/12/12 11/11/11
f 12/12/12 15/15/15 13/13/13
f 4/4/4 10/10/10 5/5/5
f 10/10/10 15/15/15 11/11/11
f 15/15/15 4/4/4 6/6/6
f 4/4/4 15/15/15 10/10/10
f 2/2/2 16/16/16 3/3/3
f 16/16/16 17/17/17 18/18/18
f 17/17/17 2/2/2 5/5/5
f 2/2/2 17/17/17 16/16/16
f 19/19/19 20/20/20 21/21/21
f 20/20/20 22/22/22 23/23/23
f 22/22/22 19/19/19 18/18/18
f 19/19/19 22/22/22 20/20/20
f 24/24/24 7/7/7 9/9/9
f 7/7/7 25/25/25 5/5/5
f 25/25/25 24/24/24 23/23/23
f 24/24/24 25/25/25 7/7/7
f 17/17/17 22/22/22 18/18/18
f 22/22/22 25/25/25 23/23/23
f 25/25/25 17/17/17 5/5/5
f 17/17/17 25/25/25 22/22/22
f 26/26/26 27/27/27 28/28/28
f 27/27/27 29/29/29 30/30/30
f 31/31/31 20/20/20 23/23/23
f 26/26/26 29/29/29 27/27/27
f 32/32/32 33/33/33 34/34/34
f 33/33/33 35/35/35 36/36/36
f 35/35/35 32/32/32 30/30/30
f 32/32/32 35/35/35 33/33/33
f 37/37/37 24/24/24 9/9/9
f 24/24/24 38/38/38 23/23/23
f 38/38/38 37/37/37 39/39/39
f 37/37/37 38/38/38 24/24/24
f 29/29/29 35/35/35 30/30/30
f 35/35/35 40/40/40 41/41/41
f 38/38/38 31/31/31 23/23/23
f 29/29/29 40/40/40 35/35/35
f 42/42/42 37/37/37 9/9/9
f 37/37/37 43/43/43 44/44/44
f 43/43/43 42/42/42 45/45/45
f 42/42/42 43/43/43 37/37/37
f 33/33/33 46/46/46 34/34/34
f 46/46/46 47/47/47 48/48/48
f 47/47/47 33/33/33 49/49/49
f 33/33/33 47/47/47 46/46/46
f 50/50/50 51/51/51 52/52/52
f 51/51/51 53/53/53 45/45/45
f 53/53/53 50/50/50 48/48/48
f 50/50/50 53/53/53 51/51/51
f 43/43/43 47/47/47 54/54/54
f 47/47/47 53/53/53 48/48/48
f 53/53/53 43/43/43 45/45/45
f 43/43/43 53/53/53 47/47/47
f 8/8/8 42/42/42 9/9/9
f 42/42/42 55/55/55 45/45/45
f 55/55/55 8/8/8 11/11/11
f 8/8/8 55/55/55 42/42/42
f 51/51/51 56/56/56 52/52/52
f 56/56/56 57/57/57 58/58/58
f 57/57/57 51/51/51 45/45/45
f 51/51/51 57/57/57 56/56/56
f 59/59/59 12/12/12 14/14/14
f 12/12/12 60/60/60 11/11/11
f 60/60/60 59/59/59 58/58/58
f 59/59/59 60/60/60 12/12/12
f 55/55/55 57/57/57 45/45/45
f 57/57/57 60/60/60 58/58/58
f 60/60/60 55/55/55 11/11/11
f 55/55/55 60/60/60 57/57/57
f 56/56/56 61/61/61 52/52/52
f 61/61/61 62/62/62 63/63/63
f 62/62/62 56/56/56 58/58/58
f 56/56/56 62/62/62 61/61/61
f 64/64/64 65/65/65 66/66/66
f 65/65/65 67/67/67 68/68/68
f 67/67/67 64/64/64 63/63/63
f 64/64/64 67/67/67 65/65/65
f 69/69/69 59/59/59 14/14/14
f 59/59/59 70/70/70 58/58/58
f 70/70/70 69/69/69 68/68/68
f 69/69/69 70/70/70 59/59/59
f 62/62/62 67/67/67 63/63/63
f 67/67/67 70/70/70 68/68/68
f 70/70/70 62/62/62 58/58/58
f 62/62/62 70/70/70 67/67/67
f 61/61/61 71/71/71 52/52/52
f 71/71/71 72/72/72 73/73/73
f 72/72/72 61/61/61 63/63/63
f 61/61/61 72/72/72 71/71/71
f 74/74/74 75/75/75 76/76/76
f 75/75/75 77/77/77 78/78/78
f 77/77/77 74/74/74 73/73/73
f 74/74/74 77/77/77 75/75/75
f 79/79/79 64/64/64 66/66/66
f 64/64/64 80/80/80 63/63/63
f 80/80/80 79/79/79 78/78/78
f 79/79/79 80/80/80 64/64/64
f 72/72/72 77/77/77 73/73/73
f 77/77/77 80/80/80 78/78/78
f 80/80/80 72/72/72 63/63/63
f 72/72/72 80/80/80 77/77/77
f 46/46/46 81/81/81 34/34/34
f 81/81/81 82/82/82 83/83/83
f 82/82/82 46/46/46 48/48/48
f 46/46/46 82/82/82 81/81/81
f 84/84/84 74/74/74 76/76/76
f 74/74/74 85/85/85 73/73/73
f 85/85/85 84/84/84 83/83/83
f 84/84/84 85/85/85 74/74/74
f 71/71/71 50/50/50 52/52/52
f 50/50/50 86/86/86 48/48/48
f 86/86/86 71/71/71 73/73/73
f 71/71/71 86/86/86 50/50/50
f 82/82/82 85/85/85 83/83/83
f 85/85/85 86/86/86 73/73/73
f 86/86/86 82/82/82 48/48/48
f 82/82/82 86/86/86 85/85/85
f 81/81/81 87/87/87 34/34/34
f 87/87/87 88/88/88 89/89/89
f 88/88/88 81/81/81 83/83/83
f 81/81/81 88/88/88 87/87/87
f 90/90/90 91/91/91 92/92/92
f 91/91/91 93/93/93 94/94/94
f 93/93/93 90/90/90 89/89/89
f 90/90/90 93/93/93 91/91/91
f 95/95/95 84/84/84 76/76/76
f 84/84/84 96/96/96 83/83/83
f 96/96/96 95/95/95 94/94/94
f 95/95/95 96/96/96 84/84/84
f 88/88/88 93/93/93 89/89/89
f 93/93/93 96/96/96 94/94/94
f 96/96/96 88/88/88 83/83/83
f 88/88/88 96/96/96 93/93/93
f 91/91/91 97/97/97 92/92/92
f 97/97/97 98/98/98 99/99/99
f 98/98/98 91/91/91 94/94/94
f 91/91/91 98/98/98 97/97/97
f 100/100/100 101/101/101 102/102/102
f 101/101/101 103/103/103 104/104/104
f 103/103/103 100/100/100 99/99/99
f 100/100/100 103/103/103 101/101/101
f 105/105/105 95/95/95 76/76/76
f 95/95/95 106/106/106 94/94/94
f 106/106/106 105/105/105 104/104/104
f 105/105/105 106/106/106 95/95/95
f 98/98/98 103/103/103 99/99/99
f 103/103/103 106/106/106 104/104/104
f 106/106/106 98/98/98 94/94/94
f 98/98/98 106/106/106 103/103/103
f 101/101/101 107/107/107 102/102/102
f 107/107/107 108/108/108 109/109/109
f 108/108/108 101/101/101 104/104/104
f 101/101/101 108/108/108 107/107/107
f 110/110/110 79/79/79 66/66/66
f 79/79/79 111/111/111 78/78/78
f 111/111/111 110/110/110 109/109/109
f 110/110/110 111/111/111 79/79/79
f 75/75/75 105/105/105 76/76/76
f 105/105/105 112/112/112 104/104/104
f 112/112/112 75/75/75 78/78/78
f 75/75/75 112/112/112 105/105/105
f 108/108/108 111/111/111 109/109/109
f 111/111/111 112/112/112 78/78/78
f 112/112/112 108/108/108 104/104/104
f 108/108/108 112/112/112 111/111/111
f 107/107/107 113/113/113 102/102/102
f 113/113/113 114/114/114 115/115/115
f 114/114/114 107/107/107 109/109/109
f 107/107/107 114/114/114 113/113/113
f 116/116/116 117/117/117 118/118/118
f 117/117/117 119/119/119 120/120/120
f 119/119/119 116/116/116 121/121/121
f 116/116/116 119/119/119 117/117/117
f 122/122/122 110/110/110 66/66/66
f 110/110/110 123/123/123 109/109/109
f 123/123/123 122/122/122 120/120/120
f 122/122/122 123/123/123 110/110/110
f 114/114/114 119/119/119 124/124/124
f 119/119/119 123/123/123 120/120/120
f 123/123/123 114/114/114 109/109/109
f 114/114/114 123/123/123 119/119/119
f 113/113/113 125/125/125 102/102/102
f 125/125/125 126/126/126 127/127/127
f 126/126/126 113/113/113 128/128/128
f 113/113/113 126/126/126 125/125/125
f 129/129/129 130/130/130 131/131/131
f 132/132/132 133/133/133 134/134/134
f 135/135/135 129/129/129 127/127/127
f 129/129/129 135/135/135 130/130/130
f 136/136/136 116/116/116 118/118/118
f 116/116/116 137/137/137 138/138/138
f 137/137/137 136/136/136 134/134/134
f 136/136/136 137/137/137 116/116/116
f 126/126/126 135/135/135 127/127/127
f 133/133/133 137/137/137 134/134/134
f 139/139/139 126/126/126 140/140/140
f 126/126/126 139/139/139 135/135/135
f 132/132/132 141/141/141 142/142/142
f 141/141/141 143/143/143 144/144/144
f 143/143/143 132/132/132 134/134/134
f 132/132/132 143/143/143 141/141/141
f 145/145/145 146/146/146 3/3/3
f 146/146/146 147/147/147 148/148/148
f 147/147/147 145/145/145 144/144/144
f 145/145/145 147/147/147 146/146/146
f 149/149/149 136/136/136 118/118/118
f 136/136/136 150/150/150 134/134/134
f 150/150/150 149/149/149 148/148/148
f 149/149/149 150/150/150 136/136/136
f 143/143/143 147/147/147 144/144/144
f 147/147/147 150/150/150 148/148/148
f 150/150/150 143/143/143 134/134/134
f 143/143/143 150/150/150 147/147/147
f 146/146/146 1/1/1 3/3/3
f 1/1/1 151/151/151 6/6/6
f 151/151/151 146/146/146 148/148/148
f 146/146/146 151/151/151 1/1/1
f 13/13/13 152/152/152 14/14/14
f 152/152/152 153/153/153 154/154/154
f 153/153/153 13/13/13 6/6/6
f 13/13/13 153/153/153 152/152/152
f 155/155/155 149/149/149 118/118/118
f 149/149/149 156/156/156 148/148/148
f 156/156/156 155/155/155 154/154/154
f 155/155/155 156/156/156 149/149/149
f 151/151/151 153/153/153 6/6/6
f 153/153/153 156/156/156 154/154/154
f 156/156/156 151/151/151 148/148/148
f 151/151/151 156/156/156 153/153/153
f 117/117/117 155/155/155 118/118/118
f 155/155/155 157/157/157 154/154/154
f 157/157/157 117/117/117 120/120/120
f 117/117/117 157/157/157 155/155/155
f 152/152/152 69/69/69 14/14/14
f 69/69/69 158/158/158 68/68/68
f 158/158/158 152/152/152 154/154/154
f 152/152/152 158/158/158 69/69/69
f 65/65/65 122/122/122 66/66/66
f 122/122/122 159/159/159 120/120/120
f 159/159/159 65/65/65 68/68/68
f 65/65/65 159/159/159 122/122/122
f 157/157/157 158/158/158 154/154/154
f 158/158/158 159/159/159 68/68/68
f 159/159/159 157/157/157 120/120/120
f 157/157/157 159/159/159 158/158/158
f 160/160/160 19/19/19 21/21/21
f 19/19/19 161/161/161 18/18/18
f 161/161/161 160/160/160 162/162/162
f 160/160/160 161/161/161 19/19/19
f 16/16/16 145/145/145 3/3/3
f 145/145/145 163/163/163 144/144/144
f 163/163/163 16/16/16 18/18/18
f 16/16/16 163/163/163 145/145/145
f 141/141/141 164/164/164 142/142/142
f 164/164/164 165/165/165 162/162/162
f 165/165/165 141/141/141 144/144/144
f 141/141/141 165/165/165 164/164/164
f 161/161/161 163/163/163 18/18/18
f 163/163/163 165/165/165 144/144/144
f 165/165/165 161/161/161 162/162/162
f 161/161/161 165/165/165 163/163/163
f 166/166/166 167/167/167 28/28/28
f 167/167/167 168/168/168 169/169/169
f 168/168/168 166/166/166 170/170/170
f 166/166/166 168/168/168 167/167/167
f 171/171/171 172/172/172 131/131/131
f 172/172/172 173/173/173 174/174/174
f 173/173/173 171/171/171 169/169/169
f 171/171/171 173/173/173 172/172/172
f 175/175/175 176/176/176 92/92/92
f 176/176/176 177/177/177 170/170/170
f 177/177/177 175/175/175 174/174/174
f 175/175/175 177/177/177 176/176/176
f 168/168/168 173/173/173 169/169/169
f 173/173/173 177/177/177 174/174/174
f 177/177/177 168/168/168 170/170/170
f 168/168/168 177/177/177 173/173/173
f 27/27/27 166/166/166 28/28/28
f 166/166/166 178/178/178 170/170/170
f 178/178/178 27/27/27 30/30/30
f 27/27/27 178/178/178 166/166/166
f 176/176/176 90/90/90 92/92/92
f 90/90/90 179/179/179 89/89/89
f 179/179/179 176/176/176 170/170/170
f 176/176/176 179/179/179 90/90/90
f 87/87/87 32/32/32 34/34/34
f 32/32/32 180/180/180 30/30/30
f 180/180/180 87/87/87 89/89/89
f 87/87/87 180/180/180 32/32/32
f 178/178/178 179/179/179 170/170/170
f 179/179/179 180/180/180 89/89/89
f 180/180/180 178/178/178 30/30/30
f 178/178/178 180/180/180 179/179/179
f 125/125/125 100/100/100 102/102/102
f 100/100/100 181/181/181 99/99/99
f 181/181/181 125/125/125 127/127/127
f 125/125/125 181/181/181 100/100/100
f 97/97/97 175/175/175 92/92/92
f 175/175/175 182/182/182 174/174/174
f 182/182/182 97/97/97 99/99/99
f 97/97/97 182/182/182 175/175/175
f 172/172/172 129/129/129 131/131/131
f 129/129/129 183/183/183 127/127/127
f 183/183/183 172/172/172 174/174/174
f 172/172/172 183/183/183 129/129/129
f 181/181/181 182/182/182 99/99/99
f 182/182/182 183/183/183 174/174/174
f 183/183/183 181/181/181 127/127/127
f 181/181/181 183/183/183 182/182/182
