g object
v -40.82741 -2.178944E-05 132.1203
v -75.92596 61.96445 148.1594
v -82.0089 -2.815086E-05 132.6932
v -27.32244 66.89108 159.9483
v -51.2168 124.9261 134.0874
v 0 -2.462315E-05 136.4424
v -17.25506 126.1297 79.68444
v 20.76998 152.6262 95.91647
v 0 149.5251 60.67035
v 0 136.7413 146.7008
v 50.3861 123.1847 131.9125
v 61.17236 49.89407 119.3697
v 34.0657 -1.814685E-05 110.2389
v 50.13223 -1.714664E-05 81.11565
v 27.24629 66.47669 159.5025
v -122.2967 39.99496 128.5484
v -89.40315 97.71137 104.675
v -121.0294 69.671 74.80031
v -103.7429 80.31368 28.67382
v -80.94486 115.9862 16.67556
v -93.50546 87.39101 0
v -82.67085 106.5706 51.0934
v -56.43869 139.0903 34.88103
v -26.88617 147.2603 49.8497
v -48.98664 119.6623 67.69788
v -80.94486 115.9862 16.67556
v -67.35609 97.0084 -13.87612
v -93.50546 87.39101 0
v -49.64045 120.8514 0
v -39.46643 97.03283 -24.3916
v -49.64045 120.8514 0
v -19.33524 105.9025 -35.8495
v 0 164.6157 -33.60233
v 0 148.4433 -60.94604
v -23.19425 127.039 -14.33484
v 0 174.9851 0
v 0 157.1149 31.88329
v -29.1957 159.141 18.04393
v 0 174.9851 0
v -29.1957 159.141 18.04393
v 0 174.9851 0
v 30.07096 164.0078 55.75463
v 32.6455 178.0014 20.17603
v 0 174.9851 0
v 75.68296 185.9208 46.77464
v 28.77864 157.2358 -53.35854
v 33.54458 183.3344 -20.73169
v 63.18024 154.2128 -39.04753
v 0 174.9851 0
v 109.8866 157.9648 -22.63789
v 125.8552 181.8507 25.9276
v 137.6971 128.8312 0
v 76.65493 187.2621 0
v 0 174.9851 0
v 64.63184 157.6135 89.31902
v 131.4868 101.7272 36.34207
v 111.9711 145.3943 69.20193
v 106.0927 61.01994 65.5689
v 78.79638 25.83054 82.82434
v 84.06775 91.987 98.42823
v 132.3244 62.02867 0
v 116.4866 30.2094 32.19611
v 133.8757 -2.407263E-05 0
v 121.9071 -56.80236 0
v 101.1502 -78.19761 27.95724
v 98.31808 -91.7114 0
v 110.8898 -28.67581 30.64919
v 83.43465 -48.24537 51.56545
v 56.31827 -18.44227 59.19719
v 87.90308 -1.854245E-05 54.32709
v 129.8078 100.7038 -35.878
v 144.028 37.13 -39.80836
v 133.0473 76.93341 -82.22775
v 102.4137 33.50458 -107.6489
v 78.3091 -25.6708 -82.31216
v 68.77735 -2.358694E-05 -111.2841
v 113.1802 -2.401117E-05 -69.94919
v 91.25733 -52.76877 -56.40013
v 105.5725 -81.6 -29.17953
v 125.8706 -32.38146 -34.78979
v 17.22639 127.0658 -79.55206
v 50.93035 124.0193 -70.38402
v 42.17318 102.8997 -110.4108
v 72.71735 59.43493 -141.8983
v 84.2057 92.40475 -98.58975
v 91.55686 118.7492 -56.58525
v -16.54721 121.2071 -76.4156
v 0 105.6514 -112.922
v -39.86591 97.30243 -104.3703
v -71.42284 58.19421 -139.3722
v -50.7589 -2.704997E-05 -164.2593
v -93.3108 -3.201456E-05 -150.98
v -24.99229 61.09549 -146.3074
v 0 -3.03125E-05 -168.208
v 43.29973 -2.315846E-05 -140.1209
v 26.99798 66.03313 -158.0489
v -62.19324 -50.70678 -121.3619
v -22.70723 -55.62067 -132.9304
v -35.60639 -86.9707 -93.21875
v -17.15994 -126.5494 -79.24518
v 18.84978 -138.5159 -87.04893
v 0 -167.254 -68.33643
v 0 -96.76836 -103.5417
v 36.45971 -89.52644 -95.45276
v 51.22459 -41.82434 -99.95799
v 21.69766 -52.94816 -127.0203
v 31.21791 -170.9861 -57.8812
v 52.85416 -128.836 -73.04265
v 65.37456 -160.1329 -40.4037
v 86.84942 -124.7221 -17.89196
v 80.44465 -104.419 -49.71752
v 65.22994 -71.12901 -76.37254
v 0 -193.0317 -39.50592
v 34.9576 -191.469 -21.60499
v 0 -198.5693 0
v 0 -188.1036 38.37704
v 29.49137 -161.2587 54.68001
v 0 -163.0952 66.67093
v 35.36819 -193.1007 21.85875
v 62.49197 -152.4146 38.62216
v 0 -198.5693 0
v 81.30202 -117.3455 16.74914
v 67.29642 -164.7107 0
v 0 -198.5693 0
v -29.88521 -164.4668 -55.41023
v -34.28743 -187.7984 -21.1908
v -62.6494 -152.9847 -38.71946
v 0 -198.5693 0
v -88.82734 -127.5302 -18.29944
v -90.25646 -129.6494 18.59385
v -109.2322 -102.085 0
v -90.25646 -129.6494 18.59385
v -64.05182 -156.1171 0
v -64.07507 -156.3617 39.60057
v -64.05182 -156.1171 0
v -32.03492 -176.3016 59.396
v -33.82016 -184.8605 20.90201
v 0 -198.5693 0
v -33.82016 -184.8605 20.90201
v 0 -198.5693 0
v -123.402 -95.40211 34.10747
v -109.2322 -102.085 0
v -98.08741 -126.2187 60.62135
v -106.5869 -61.63294 65.87431
v -98.74287 -32.40549 103.7905
v -62.6054 -50.94614 122.1661
v -92.8634 -101.4007 108.7264
v -41.61563 -101.9362 108.9512
v -18.67225 -137.0777 86.22909
v -61.196 -149.5071 84.57077
v -20.65973 -50.60537 120.9441
v 40.57715 -33.17714 79.18093
v 16.98349 -41.60053 99.42306
v 33.25494 -81.21067 87.06256
v 16.65127 -122.1449 76.89616
v 0 -93.58218 100.5781
v 47.81992 -117.3015 66.08549
v 57.75121 -63.39536 67.61629
v 81.96795 -105.4543 50.65897
v -122.9764 57.52919 0
v -153.3228 39.55856 42.37737
v -172.3064 -3.09984E-05 0
v -130.5195 -2.76538E-05 80.6655
v -138.0271 -64.31168 0
v -136.6765 -35.23064 37.77646
v -99.8005 77.2431 -27.58418
v -122.9764 57.52919 0
v -144.6808 37.41405 -39.9888
v -172.3064 -3.09984E-05 0
v -114.7367 66.1549 -70.91115
v -138.0271 -64.31168 0
v -109.6527 -84.63654 -30.30727
v -148.1591 -38.28059 -40.95016
v -112.5843 -64.96587 -69.58092
v -111.3328 -36.37096 -117.024
v -121.5839 39.76461 -127.7991
v -148.3091 -3.144585E-05 -91.66006
v -77.9173 100.746 -48.15554
v -80.5684 88.31504 -94.33112
v -38.52581 94.00816 -53.24136
v -49.0576 -120.1651 -67.79593
v -72.3488 -78.86333 -84.70745
v -85.26543 -109.8371 -52.69693

vn -0.1597072 -0.3164763 0.9350595
vn -0.3167963 -0.02660315 0.9481205
vn -0.1939415 -0.2063291 0.9590699
vn -0.1673081 -0.1588987 0.9730155
vn -0.4139859 0.8577028 0.304896
vn 0.2624144 -0.4035459 0.8765212
vn -0.4478043 0.8843078 0.1321778
vn -0.2405917 0.9509083 0.1946512
vn -0.2482476 0.8980499 0.3631521
vn -0.08470033 0.810299 0.5798631
vn 0.6491973 0.3704062 0.6643358
vn 0.7705023 -0.2467265 0.5877518
vn 0.6137263 -0.4874129 0.6211028
vn 0.7411954 -0.3259427 0.5868481
vn 0.3786988 -0.1270683 0.9167557
vn -0.725293 0.1325219 0.6755649
vn -0.7111201 0.6853561 0.1568286
vn -0.757328 0.6483084 0.07842587
vn -0.6770341 0.7340619 -0.05270629
vn -0.8103126 0.5782745 -0.09482583
vn -0.7943113 0.6065162 -0.03474968
vn -0.77858 0.625093 0.05542419
vn -0.5781874 0.8083706 0.1106177
vn -0.3131019 0.8547546 0.4139587
vn -0.1923473 0.8787073 0.4368935
vn -0.8103126 0.5782745 -0.09482583
vn -0.1273971 0.8827806 -0.4521818
vn -0.7943113 0.6065162 -0.03474968
vn -0.4370793 0.714352 -0.5465007
vn -0.3627274 0.7733122 -0.5200164
vn -0.4370793 0.714352 -0.5465007
vn -0.8040198 0.5432726 -0.2416755
vn -0.8129609 0.4760453 -0.3353736
vn -0.506763 0.7405651 -0.4413101
vn -0.6868232 0.5206417 -0.5071549
vn -0.4726814 0.8769995 0.08627994
vn -0.3082431 0.904628 0.2943374
vn -0.4651055 0.8712218 -0.1570012
vn -0.4726814 0.8769995 0.08627994
vn -0.4651055 0.8712218 -0.1570012
vn -0.4726814 0.8769995 0.08627994
vn -0.294658 0.9155021 0.2739211
vn -0.2608409 0.9304965 0.2571736
vn -0.4726814 0.8769995 0.08627994
vn -0.1640793 0.9140543 0.3709215
vn 0.2080175 0.5995934 -0.7727978
vn 0.05489013 0.9719199 -0.2288204
vn 0.3197645 0.6315646 -0.7063121
vn -0.4726814 0.8769995 0.08627994
vn 0.3333964 0.5720232 -0.749424
vn 0.7930432 0.5997378 0.1067569
vn 0.9949971 0.05051041 -0.08619368
vn 0.008041018 0.9258057 -0.3779142
vn -0.4726814 0.8769995 0.08627994
vn 0.1470505 0.7480424 0.6471543
vn 0.942143 -0.128208 0.3097245
vn 0.6888568 0.1715917 0.7042958
vn 0.810175 -0.1932796 0.5534071
vn 0.6307044 -0.5314474 0.565487
vn 0.721939 -0.05579654 0.6897035
vn 0.9818071 0.1321267 0.1363725
vn 0.8400353 -0.1473346 0.522143
vn 0.9345048 -0.1059932 0.3398029
vn 0.8966392 -0.3926798 0.2045498
vn 0.8718481 -0.3996032 0.2831928
vn 0.8617654 -0.4710295 0.1883918
vn 0.8164569 -0.04532235 0.5756249
vn 0.3937483 0.00971406 0.9191669
vn 0.5928009 -0.1190231 0.7965053
vn 0.2871302 -0.2856514 0.9143083
vn 0.9609687 0.2761672 0.01645547
vn 0.9882272 -0.1439897 -0.05171026
vn 0.7727025 0.2521469 -0.58254
vn 0.635676 -0.3681971 -0.6784887
vn 0.5924351 -0.4057606 -0.6959734
vn 0.6235956 -0.3375378 -0.7051219
vn 0.6342083 -0.4787831 -0.6070805
vn 0.6793098 -0.3330386 -0.6539294
vn 0.8301907 -0.4208349 -0.3656247
vn 0.8419045 -0.3637398 -0.3986104
vn 0.06018902 0.7259835 -0.6850732
vn 0.3148275 0.7248284 -0.6127866
vn 0.2391082 0.8190176 -0.5215721
vn 0.6134709 0.09448852 -0.7840443
vn 0.3261186 0.7560375 -0.567498
vn 0.2585967 0.6933283 -0.6726244
vn -0.6383106 0.7487689 -0.1786189
vn -0.1851934 0.8153931 -0.5484865
vn -0.3116466 0.8276158 -0.4668282
vn -0.1233281 0.5210565 -0.8445652
vn -0.2427242 -0.09640893 -0.9652928
vn -0.5051611 -0.1249823 -0.8539272
vn -0.2340943 0.4862404 -0.8418849
vn 0.2079816 -0.1562502 -0.9655721
vn 0.6240194 -0.4310974 -0.6517321
vn 0.02880153 0.4319799 -0.9014233
vn -0.2574756 -0.753673 -0.6047177
vn -0.223707 -0.7032935 -0.6747839
vn -0.3423205 -0.5475859 -0.7635223
vn -0.3938027 -0.4025719 -0.8263507
vn 0.0724606 -0.375355 -0.9240444
vn -0.04932483 -0.6749748 -0.7361902
vn -0.138427 -0.4963259 -0.8570288
vn 0.5569971 -0.3193173 -0.7666751
vn 0.6927841 -0.3713331 -0.6181923
vn 0.5000244 -0.4518218 -0.7388049
vn 0.2673043 -0.7504586 -0.6044505
vn 0.6364883 -0.2809945 -0.7182791
vn 0.733725 -0.5526988 -0.3951859
vn 0.9287453 -0.3683007 0.04226995
vn 0.7472069 -0.2544453 -0.6139538
vn 0.6463003 -0.2566622 -0.718624
vn 0.1101285 -0.865274 -0.4890528
vn 0.3515777 -0.8645399 -0.3591155
vn -0.07102594 -0.9956186 0.06081913
vn 0.1076337 -0.9175614 0.3827481
vn 0.3966064 -0.4686636 0.7893402
vn 0.2339077 -0.5881612 0.7741793
vn 0.3038572 -0.8790588 0.3673234
vn 0.722372 -0.4598295 0.5164644
vn -0.07102594 -0.9956186 0.06081913
vn 0.8992776 -0.3920203 0.1939581
vn 0.8672925 -0.483791 0.1172606
vn -0.07102594 -0.9956186 0.06081913
vn -0.4347523 -0.4698922 -0.7682394
vn -0.5744346 -0.8119523 -0.103722
vn -0.670937 -0.6104091 -0.4210038
vn -0.07102594 -0.9956186 0.06081913
vn -0.7834109 -0.5960488 -0.176049
vn -0.6336295 -0.769635 -0.07858488
vn -0.8590396 -0.4849338 -0.1639818
vn -0.6336295 -0.769635 -0.07858488
vn -0.7530344 -0.6572825 0.03031254
vn -0.6866531 -0.7268107 0.01592463
vn -0.7530344 -0.6572825 0.03031254
vn -0.239827 -0.8329758 0.4986324
vn -0.5122637 -0.8530103 0.09979699
vn -0.07102594 -0.9956186 0.06081913
vn -0.5122637 -0.8530103 0.09979699
vn -0.07102594 -0.9956186 0.06081913
vn -0.872738 -0.4735558 0.1186309
vn -0.8590396 -0.4849338 -0.1639818
vn -0.772069 -0.6264677 0.1069941
vn -0.8954525 -0.1751937 0.4092335
vn -0.7956609 -0.373838 0.4766224
vn -0.0552571 -0.1256187 0.9905385
vn -0.5897949 -0.2809353 0.7571112
vn 0.1322507 -0.3454333 0.9290779
vn 0.2977676 -0.394136 0.8694776
vn -0.3383367 -0.7320446 0.5913028
vn 0.0217269 -0.2393759 0.9706838
vn 0.8005454 -0.1327697 0.5843795
vn 0.6144771 -0.2436272 0.7503757
vn 0.5472792 -0.0640334 0.834497
vn 0.3865713 -0.3172003 0.8659946
vn 0.3479643 -0.4086077 0.8437776
vn 0.3055181 -0.3671949 0.8785366
vn 0.5178395 0.1233886 0.8465327
vn 0.8234225 -0.35513 0.4425586
vn -0.6199581 0.782638 -0.05594482
vn -0.8497076 0.5212457 0.07937139
vn -0.9952278 0.07182799 -0.0660492
vn -0.7968913 -0.4722952 0.3766981
vn -0.7685555 -0.6017907 -0.2171875
vn -0.7258087 -0.4071458 0.5544672
vn -0.735814 0.6756719 0.04522455
vn -0.6199581 0.782638 -0.05594482
vn -0.7925202 0.6064722 -0.06405643
vn -0.9952278 0.07182799 -0.0660492
vn -0.6988823 0.7117078 -0.07096149
vn -0.7685555 -0.6017907 -0.2171875
vn -0.8057805 -0.5440137 -0.234023
vn -0.7830362 -0.5552799 -0.2802118
vn -0.6607891 -0.6630293 -0.3517812
vn -0.4573049 -0.6209726 -0.6366045
vn -0.7197655 0.3610881 -0.592919
vn -0.9463259 -0.04391944 -0.3202161
vn -0.1611537 0.9861992 0.03795572
vn -0.3832197 0.8646668 -0.3247985
vn -0.1367928 0.9632867 0.2310118
vn -0.4069073 -0.4357954 -0.8028131
vn -0.2701436 -0.6326444 -0.7257985
vn -0.672958 -0.4813288 -0.5616495

vt 0.7977001 0.5
vt 0.8253705 0.4232277
vt 0.8381041 0.5
vt 0.776927 0.4153324
vt 0.8080699 0.3333333
vt 0.75 0.5
vt 0.7839398 0.2457124
vt 0.7160602 0.2457124
vt 0.75 0.1762082
vt 0.75 0.3237918
vt 0.6919301 0.3333333
vt 0.6746295 0.4232277
vt 0.7022999 0.5
vt 0.6618959 0.5
vt 0.723073 0.4153324
vt 0.8710343 0.4528384
vt 0.862502 0.3601596
vt 0.9118959 0.4
vt 0.9570821 0.3539629
vt 0.9676646 0.2612329
vt 1 0.3237918
vt 0.9118959 0.3
vt 0.9118959 0.2
vt 0.8287221 0.1678328
vt 0.8496938 0.2584051
vt -0.0323354 0.2612329
vt 0.03233537 0.2612329
vt 0 0.3237918
vt 0 0.1762082
vt 0.08810409 0.2
vt 1 0.1762082
vt 0.1712779 0.1678328
vt 0.25 0.09540019
vt 0.25 0.1762082
vt 0.08810409 0.09999997
vt 0.169052 0
vt 0.75 0.09540019
vt 0.9118959 0.09999997
vt 0.830948 0
vt -0.08810407 0.09999997
vt 1.117587E-08 0
vt 0.6712779 0.1678328
vt 0.5881041 0.09999997
vt 0.669052 0
vt 0.5881041 0.2
vt 0.3287221 0.1678328
vt 0.4118959 0.09999997
vt 0.4118959 0.2
vt 0.3309479 0
vt 0.4676647 0.2612329
vt 0.5323353 0.2612329
vt 0.5 0.3237918
vt 0.5 0.1762082
vt 0.5 0
vt 0.6503062 0.2584051
vt 0.5429179 0.3539629
vt 0.5881041 0.3
vt 0.5881041 0.4
vt 0.6289657 0.4528384
vt 0.637498 0.3601596
vt 0.5 0.4045998
vt 0.5429179 0.4480572
vt 0.5 0.5
vt 0.5 0.5954002
vt 0.5429179 0.646037
vt 0.5 0.6762082
vt 0.5429179 0.5519428
vt 0.5881041 0.6
vt 0.6289657 0.5471615
vt 0.5881041 0.5
vt 0.4570821 0.3539629
vt 0.4570821 0.4480572
vt 0.4118959 0.4
vt 0.3710343 0.4528384
vt 0.3710343 0.5471615
vt 0.3381041 0.5
vt 0.4118959 0.5
vt 0.4118959 0.6
vt 0.4570821 0.646037
vt 0.4570821 0.5519428
vt 0.2839398 0.2457124
vt 0.3496938 0.2584051
vt 0.3080699 0.3333333
vt 0.3253705 0.4232277
vt 0.362502 0.3601596
vt 0.4118959 0.3
vt 0.2160602 0.2457124
vt 0.25 0.3237918
vt 0.1919301 0.3333333
vt 0.1746295 0.4232277
vt 0.2022999 0.5
vt 0.1618959 0.5
vt 0.223073 0.4153324
vt 0.25 0.5
vt 0.2977001 0.5
vt 0.276927 0.4153324
vt 0.1746295 0.5767723
vt 0.223073 0.5846676
vt 0.1919301 0.6666667
vt 0.2160602 0.7542875
vt 0.2839398 0.7542875
vt 0.25 0.8237918
vt 0.25 0.6762082
vt 0.3080699 0.6666667
vt 0.3253705 0.5767723
vt 0.276927 0.5846676
vt 0.3287221 0.8321671
vt 0.3496938 0.7415949
vt 0.4118959 0.8
vt 0.4676647 0.738767
vt 0.4118959 0.7
vt 0.362502 0.6398403
vt 0.25 0.9045998
vt 0.4118959 0.9
vt 0.3309479 1
vt 0.75 0.9045998
vt 0.6712779 0.8321671
vt 0.75 0.8237918
vt 0.5881041 0.9
vt 0.5881041 0.8
vt 0.669052 1
vt 0.5323353 0.738767
vt 0.5 0.8237918
vt 0.5 1
vt 0.1712779 0.8321671
vt 0.08810409 0.9
vt 0.08810409 0.8
vt 0.169052 1
vt 0.03233537 0.738767
vt -0.0323354 0.738767
vt 0 0.6762082
vt 0.9676646 0.738767
vt 1 0.8237918
vt 0.9118959 0.8
vt 0 0.8237918
vt 0.8287221 0.8321671
vt 0.9118959 0.9
vt 0.830948 1
vt -0.08810407 0.9
vt 1.117587E-08 1
vt 0.9570821 0.646037
vt 1 0.6762082
vt 0.9118959 0.7
vt 0.9118959 0.6
vt 0.8710343 0.5471615
vt 0.8253705 0.5767723
vt 0.862502 0.6398403
vt 0.8080699 0.6666667
vt 0.7839398 0.7542875
vt 0.8496938 0.7415949
vt 0.776927 0.5846676
vt 0.6746295 0.5767723
vt 0.723073 0.5846676
vt 0.6919301 0.6666667
vt 0.7160602 0.7542875
vt 0.75 0.6762082
vt 0.6503062 0.7415949
vt 0.637498 0.6398403
vt 0.5881041 0.7
vt 1 0.4045998
vt 0.9570821 0.4480572
vt 1 0.5
vt 0.9118959 0.5
vt 1 0.5954002
vt 0.9570821 0.5519428
vt 0.04291791 0.3539629
vt 0 0.4045998
vt 0.04291791 0.4480572
vt 0 0.5
vt 0.08810409 0.4
vt 0 0.5954002
vt 0.04291791 0.646037
vt 0.04291791 0.5519428
vt 0.08810409 0.6
vt 0.1289657 0.5471615
vt 0.1289657 0.4528384
vt 0.08810409 0.5
vt 0.08810413 0.3
vt 0.1374981 0.3601596
vt 0.1503062 0.2584051
vt 0.1503062 0.7415949
vt 0.1374981 0.6398403
vt 0.08810413 0.7

usemtl ground (Instance)
usemap ground (Instance)
f 1/1/1 2/2/2 3/3/3
f 2/2/2 4/4/4 5/5/5
f 4/4/4 1/1/1 6/6/6
f 1/1/1 4/4/4 2/2/2
f 7/7/7 8/8/8 9/9/9
f 8/8/8 10/10/10 11/11/11
f 10/10/10 7/7/7 5/5/5
f 7/7/7 10/10/10 8/8/8
f 12/12/12 13/13/13 14/14/14
f 13/13/13 15/15/15 6/6/6
f 15/15/15 12/12/12 11/11/11
f 12/12/12 15/15/15 13/13/13
f 4/4/4 10/10/10 5/5/5
f 10/10/10 15/15/15 11/11/11
f 15/15/15 4/4/4 6/6/6
f 4/4/4 15/15/15 10/10/10
f 2/2/2 16/16/16 3/3/3
f 16/16/16 17/17/17 18/18/18
f 17/17/17 2/2/2 5/5/5
f 2/2/2 17/17/17 16/16/16
f 19/19/19 20/20/20 21/21/21
f 20/20/20 22/22/22 23/23/23
f 22/22/22 19/19/19 18/18/18
f 19/19/19 22/22/22 20/20/20
f 24/24/24 7/7/7 9/9/9
f 7/7/7 25/25/25 5/5/5
f 25/25/25 24/24/24 23/23/23
f 24/24/24 25/25/25 7/7/7
f 17/17/17 22/22/22 18/18/18
f 22/22/22 25/25/25 23/23/23
f 25/25/25 17/17/17 5/5/5
f 17/17/17 25/25/25 22/22/22
f 26/26/26 27/27/27 28/28/28
f 27/27/27 29/29/29 30/30/30
f 31/31/31 20/20/20 23/23/23
f 26/26/26 29/29/29 27/27/27
f 32/32/32 33/33/33 34/34/34
f 33/33/33 35/35/35 36/36/36
f 35/35/35 32/32/32 30/30/30
f 32/32/32 35/35/35 33/33/33
f 37/37/37 24/24/24 9/9/9
f 24/24/24 38/38/38 23/23/23
f 38/38/38 37/37/37 39/39/39
f 37/37/37 38/38/38 24/24/24
f 29/29/29 35/35/35 30/30/30
f 35/35/35 40/40/40 41/41/41
f 38/38/38 31/31/31 23/23/23
f 29/29/29 40/40/40 35/35/35
f 42/42/42 37/37/37 9/9/9
f 37/37/37 43/43/43 44/44/44
f 43/43/43 42/42/42 45/45/45
f 42/42/42 43/43/43 37/37/37
f 33/33/33 46/46/46 34/34/34
f 46/46/46 47/47/47 48/48/48
f 47/47/47 33/33/33 49/49/49
f 33/33/33 47/47/47 46/46/46
f 50/50/50 51/51/51 52/52/52
f 51/51/51 53/53/53 45/45/45
f 53/53/53 50/50/50 48/48/48
f 50/50/50 53/53/53 51/51/51
f 43/43/43 47/47/47 54/54/54
f 47/47/47 53/53/53 48/48/48
f 53/53/53 43/43/43 45/45/45
f 43/43/43 53/53/53 47/47/47
f 8/8/8 42/42/42 9/9/9
f 42/42/42 55/55/55 45/45/45
f 55/55/55 8/8/8 11/11/11
f 8/8/8 55/55/55 42/42/42
f 51/51/51 56/56/56 52/52/52
f 56/56/56 57/57/57 58/58/58
f 57/57/57 51/51/51 45/45/45
f 51/51/51 57/57/57 56/56/56
f 59/59/59 12/12/12 14/14/14
f 12/12/12 60/60/60 11/11/11
f 60/60/60 59/59/59 58/58/58
f 59/59/59 60/60/60 12/12/12
f 55/55/55 57/57/57 45/45/45
f 57/57/57 60/60/60 58/58/58
f 60/60/60 55/55/55 11/11/11
f 55/55/55 60/60/60 57/57/57
f 56/56/56 61/61/61 52/52/52
f 61/61/61 62/62/62 63/63/63
f 62/62/62 56/56/56 58/58/58
f 56/56/56 62/62/62 61/61/61
f 64/64/64 65/65/65 66/66/66
f 65/65/65 67/67/67 68/68/68
f 67/67/67 64/64/64 63/63/63
f 64/64/64 67/67/67 65/65/65
f 69/69/69 59/59/59 14/14/14
f 59/59/59 70/70/70 58/58/58
f 70/70/70 69/69/69 68/68/68
f 69/69/69 70/70/70 59/59/59
f 62/62/62 67/67/67 63/63/63
f 67/67/67 70/70/70 68/68/68
f 70/70/70 62/62/62 58/58/58
f 62/62/62 70/70/70 67/67/67
f 61/61/61 71/71/71 52/52/52
f 71/71/71 72/72/72 73/73/73
f 72/72/72 61/61/61 63/63/63
f 61/61/61 72/72/72 71/71/71
f 74/74/74 75/75/75 76/76/76
f 75/75/75 77/77/77 78/78/78
f 77/77/77 74/74/74 73/73/73
f 74/74/74 77/77/77 75/75/75
f 79/79/79 64/64/64 66/66/66
f 64/64/64 80/80/80 63/63/63
f 80/80/80 79/79/79 78/78/78
f 79/79/79 80/80/80 64/64/64
f 72/72/72 77/77/77 73/73/73
f 77/77/77 80/80/80 78/78/78
f 80/80/80 72/72/72 63/63/63
f 72/72/72 80/80/80 77/77/77
f 46/46/46 81/81/81 34/34/34
f 81/81/81 82/82/82 83/83/83
f 82/82/82 46/46/46 48/48/48
f 46/46/46 82/82/82 81/81/81
f 84/84/84 74/74/74 76/76/76
f 74/74/74 85/85/85 73/73/73
f 85/85/85 84/84/84 83/83/83
f 84/84/84 85/85/85 74/74/74
f 71/71/71 50/50/50 52/52/52
f 50/50/50 86/86/86 48/48/48
f 86/86/86 71/71/71 73/73/73
f 71/71/71 86/86/86 50/50/50
f 82/82/82 85/85/85 83/83/83
f 85/85/85 86/86/86 73/73/73
f 86/86/86 82/82/82 48/48/48
f 82/82/82 86/86/86 85/85/85
f 81/81/81 87/87/87 34/34/34
f 87/87/87 88/88/88 89/89/89
f 88/88/88 81/81/81 83/83/83
f 81/81/81 88/88/88 87/87/87
f 90/90/90 91/91/91 92/92/92
f 91/91/91 93/93/93 94/94/94
f 93/93/93 90/90/90 89/89/89
f 90/90/90 93/93/93 91/91/91
f 95/95/95 84/84/84 76/76/76
f 84/84/84 96/96/96 83/83/83
f 96/96/96 95/95/95 94/94/94
f 95/95/95 96/96/96 84/84/84
f 88/88/88 93/93/93 89/89/89
f 93/93/93 96/96/96 94/94/94
f 96/96/96 88/88/88 83/83/83
f 88/88/88 96/96/96 93/93/93
f 91/91/91 97/97/97 92/92/92
f 97/97/97 98/98/98 99/99/99
f 98/98/98 91/91/91 94/94/94
f 91/91/91 98/98/98 97/97/97
f 100/100/100 101/101/101 102/102/102
f 101/101/101 103/103/103 104/104/104
f 103/103/103 100/100/100 99/99/99
f 100/100/100 103/103/103 101/101/101
f 105/105/105 95/95/95 76/76/76
f 95/95/95 106/106/106 94/94/94
f 106/106/106 105/105/105 104/104/104
f 105/105/105 106/106/106 95/95/95
f 98/98/98 103/103/103 99/99/99
f 103/103/103 106/106/106 104/104/104
f 106/106/106 98/98/98 94/94/94
f 98/98/98 106/106/106 103/103/103
f 101/101/101 107/107/107 102/102/102
f 107/107/107 108/108/108 109/109/109
f 108/108/108 101/101/101 104/104/104
f 101/101/101 108/108/108 107/107/107
f 110/110/110 79/79/79 66/66/66
f 79/79/79 111/111/111 78/78/78
f 111/111/111 110/110/110 109/109/109
f 110/110/110 111/111/111 79/79/79
f 75/75/75 105/105/105 76/76/76
f 105/105/105 112/112/112 104/104/104
f 112/112/112 75/75/75 78/78/78
f 75/75/75 112/112/112 105/105/105
f 108/108/108 111/111/111 109/109/109
f 111/111/111 112/112/112 78/78/78
f 112/112/112 108/108/108 104/104/104
f 108/108/108 112/112/112 111/111/111
f 107/107/107 113/113/113 102/102/102
f 113/113/113 114/114/114 115/115/115
f 114/114/114 107/107/107 109/109/109
f 107/107/107 114/114/114 113/113/113
f 116/116/116 117/117/117 118/118/118
f 117/117/117 119/119/119 120/120/120
f 119/119/119 116/116/116 121/121/121
f 116/116/116 119/119/119 117/117/117
f 122/122/122 110/110/110 66/66/66
f 110/110/110 123/123/123 109/109/109
f 123/123/123 122/122/122 120/120/120
f 122/122/122 123/123/123 110/110/110
f 114/114/114 119/119/119 124/124/124
f 119/119/119 123/123/123 120/120/120
f 123/123/123 114/114/114 109/109/109
f 114/114/114 123/123/123 119/119/119
f 113/113/113 125/125/125 102/102/102
f 125/125/125 126/126/126 127/127/127
f 126/126/126 113/113/113 128/128/128
f 113/113/113 126/126/126 125/125/125
f 129/129/129 130/130/130 131/131/131
f 132/132/132 133/133/133 134/134/134
f 135/135/135 129/129/129 127/127/127
f 129/129/129 135/135/135 130/130/130
f 136/136/136 116/116/116 118/118/118
f 116/116/116 137/137/137 138/138/138
f 137/137/137 136/136/136 134/134/134
f 136/136/136 137/137/137 116/116/116
f 126/126/126 135/135/135 127/127/127
f 133/133/133 137/137/137 134/134/134
f 139/139/139 126/126/126 140/140/140
f 126/126/126 139/139/139 135/135/135
f 132/132/132 141/141/141 142/142/142
f 141/141/141 143/143/143 144/144/144
f 143/143/143 132/132/132 134/134/134
f 132/132/132 143/143/143 141/141/141
f 145/145/145 146/146/146 3/3/3
f 146/146/146 147/147/147 148/148/148
f 147/147/147 145/145/145 144/144/144
f 145/145/145 147/147/147 146/146/146
f 149/149/149 136/136/136 118/118/118
f 136/136/136 150/150/150 134/134/134
f 150/150/150 149/149/149 148/148/148
f 149/149/149 150/150/150 136/136/136
f 143/143/143 147/147/147 144/144/144
f 147/147/147 150/150/150 148/148/148
f 150/150/150 143/143/143 134/134/134
f 143/143/143 150/150/150 147/147/147
f 146/146/146 1/1/1 3/3/3
f 1/1/1 151/151/151 6/6/6
f 151/151/151 146/146/146 148/148/148
f 146/146/146 151/151/151 1/1/1
f 13/13/13 152/152/152 14/14/14
f 152/152/152 153/153/153 154/154/154
f 153/153/153 13/13/13 6/6/6
f 13/13/13 153/153/153 152/152/152
f 155/155/155 149/149/149 118/118/118
f 149/149/149 156/156/156 148/148/148
f 156/156/156 155/155/155 154/154/154
f 155/155/155 156/156/156 149/149/149
f 151/151/151 153/153/153 6/6/6
f 153/153/153 156/156/156 154/154/154
f 156/156/156 151/151/151 148/148/148
f 151/151/151 156/156/156 153/153/153
f 117/117/117 155/155/155 118/118/118
f 155/155/155 157/157/157 154/154/154
f 157/157/157 117/117/117 120/120/120
f 117/117/117 157/157/157 155/155/155
f 152/152/152 69/69/69 14/14/14
f 69/69/69 158/158/158 68/68/68
f 158/158/158 152/152/152 154/154/154
f 152/152/152 158/158/158 69/69/69
f 65/65/65 122/122/122 66/66/66
f 122/122/122 159/159/159 120/120/120
f 159/159/159 65/65/65 68/68/68
f 65/65/65 159/159/159 122/122/122
f 157/157/157 158/158/158 154/154/154
f 158/158/158 159/159/159 68/68/68
f 159/159/159 157/157/157 120/120/120
f 157/157/157 159/159/159 158/158/158
f 160/160/160 19/19/19 21/21/21
f 19/19/19 161/161/161 18/18/18
f 161/161/161 160/160/160 162/162/162
f 160/160/160 161/161/161 19/19/19
f 16/16/16 145/145/145 3/3/3
f 145/145/145 163/163/163 144/144/144
f 163/163/163 16/16/16 18/18/18
f 16/16/16 163/163/163 145/145/145
f 141/141/141 164/164/164 142/142/142
f 164/164/164 165/165/165 162/162/162
f 165/165/165 141/141/141 144/144/144
f 141/141/141 165/165/165 164/164/164
f 161/161/161 163/163/163 18/18/18
f 163/163/163 165/165/165 144/144/144
f 165/165/165 161/161/161 162/162/162
f 161/161/161 165/165/165 163/163/163
f 166/166/166 167/167/167 28/28/28
f 167/167/167 168/168/168 169/169/169
f 168/168/168 166/166/166 170/170/170
f 166/166/166 168/168/168 167/167/167
f 171/171/171 172/172/172 131/131/131
f 172/172/172 173/173/173 174/174/174
f 173/173/173 171/171/171 169/169/169
f 171/171/171 173/173/173 172/172/172
f 175/175/175 176/176/176 92/92/92
f 176/176/176 177/177/177 170/170/170
f 177/177/177 175/175/175 174/174/174
f 175/175/175 177/177/177 176/176/176
f 168/168/168 173/173/173 169/169/169
f 173/173/173 177/177/177 174/174/174
f 177/177/177 168/168/168 170/170/170
f 168/168/168 177/177/177 173/173/173
f 27/27/27 166/166/166 28/28/28
f 166/166/166 178/178/178 170/170/170
f 178/178/178 27/27/27 30/30/30
f 27/27/27 178/178/178 166/166/166
f 176/176/176 90/90/90 92/92/92
f 90/90/90 179/179/179 89/89/89
f 179/179/179 176/176/176 170/170/170
f 176/176/176 179/179/179 90/90/90
f 87/87/87 32/32/32 34/34/34
f 32/32/32 180/180/180 30/30/30
f 180/180/180 87/87/87 89/89/89
f 87/87/87 180/180/180 32/32/32
f 178/178/178 179/179/179 170/170/170
f 179/179/179 180/180/180 89/89/89
f 180/180/180 178/178/178 30/30/30
f 178/178/178 180/180/180 179/179/179
f 125/125/125 100/100/100 102/102/102
f 100/100/100 181/181/181 99/99/99
f 181/181/181 125/125/125 127/127/127
f 125/125/125 181/181/181 100/100/100
f 97/97/97 175/175/175 92/92/92
f 175/175/175 182/182/182 174/174/174
f 182/182/182 97/97/97 99/99/99
f 97/97/97 182/182/182 175/175/175
f 172/172/172 129/129/129 131/131/131
f 129/129/129 183/183/183 127/127/127
f 183/183/183 172/172/172 174/174/174
f 172/172/172 183/183/183 129/129/129
f 181/181/181 182/182/182 99/99/99
f 182/182/182 183/183/183 174/174/174
f 183/183/183 181/181/181 127/127/127
f 181/181/181 183/183/183 182/182/182
