g object
v 103.5291 -3.275926E-05 167.5136
v 0 198.181 87.92851
v -99.95904 -3.168525E-05 161.7371
v -121.5238 104.8393 0
v 0 131.3449 -58.30295
v 151.6144 130.991 0
v 121.7213 -104.937 0
v 105.2747 -3.332259E-05 -170.3381
v -105.7517 -3.346365E-05 -171.1098
v 0 -229.1606 -101.1466
v 0 -167.6921 74.44717
v -153.5281 -132.6099 0

vn 0.5453729 -0.06695466 0.8355151
vn -0.4750387 0.8697447 0.1337251
vn -0.5873447 0.3058633 0.7493156
vn -0.9006951 0.4339475 -0.02092311
vn -0.07392147 0.8815219 -0.4663204
vn 0.6643952 0.6952482 -0.2742427
vn 0.9802577 -0.1975998 -0.007021897
vn 0.6318994 0.005883956 -0.7750281
vn -0.5234099 0.09907175 -0.8463019
vn 0.07646335 -0.4147528 -0.9067158
vn 0.06604858 -0.7064593 0.704665
vn -0.9221336 -0.2776474 0.2694095

vt 0.6618959 0.5
vt 0.75 0.1762082
vt 0.8381041 0.5
vt 1 0.3237918
vt 0.25 0.1762082
vt 0.5 0.3237918
vt 0.5 0.6762082
vt 0.3381041 0.5
vt 0.1618959 0.5
vt 0.25 0.8237918
vt 0.75 0.8237918
vt 1 0.6762082

usemtl ground (Instance)
usemap ground (Instance)
f 1/1/1 2/2/2 3/3/3
f 2/2/2 4/4/4 3/3/3
f 2/2/2 5/5/5 4/4/4
f 6/6/6 5/5/5 2/2/2
f 1/1/1 6/6/6 2/2/2
f 1/1/1 7/7/7 6/6/6
f 7/7/7 8/8/8 6/6/6
f 6/6/6 8/8/8 5/5/5
f 8/8/8 9/9/9 5/5/5
f 8/8/8 10/10/10 9/9/9
f 8/8/8 7/7/7 10/10/10
f 7/7/7 11/11/11 10/10/10
f 11/11/11 12/12/12 10/10/10
f 11/11/11 3/3/3 12/12/12
f 11/11/11 1/1/1 3/3/3
f 7/7/7 1/1/1 11/11/11
f 12/12/12 3/3/3 4/4/4
f 9/9/9 12/12/12 4/4/4
f 5/5/5 9/9/9 4/4/4
f 12/12/12 9/9/9 10/10/10
