g object
v -48.9548 -2.642783E-05 158.4211
v -62.41891 51.38192 121.8022
v -76.64406 -2.660347E-05 124.0127
v -28.79144 71.17561 168.548
v -44.19048 109.2769 115.6922
v 0 -2.855084E-05 156.4572
v -23.09072 171.427 106.6337
v 22.51565 167.3042 103.978
v 0 190.546 77.28362
v 0 143.095 151.4163
v 55.02701 135.8436 144.0626
v 66.92802 55.33695 130.6012
v 36.6915 -1.980009E-05 118.7362
v 57.21995 -1.984855E-05 92.58382
v 28.78035 71.03593 168.4831
v -82.96452 27.34005 87.20557
v -67.1713 74.16027 78.64553
v -81.9141 48.13135 50.6257
v -90.35619 70.5107 24.97384
v -82.45528 120.7674 16.98672
v -99.58855 93.7373 0
v -75.5891 98.43781 46.71663
v -65.30033 160.9005 40.35782
v -34.91833 193.3924 64.74215
v -54.69144 134.9509 75.58172
v -82.45528 120.7674 16.98672
v -92.83553 135.1997 -19.12517
v -99.58855 93.7373 0
v -70.04414 172.6203 0
v -62.45024 154.9879 -38.59637
v -70.04414 172.6203 0
v -31.24244 173.0338 -57.92668
v 0 222.6628 -44.94865
v 0 201.3575 -81.33844
v -35.24791 195.2178 -21.78441
v 0 225.9915 0
v 0 208.6636 42.2925
v -38.68815 214.0202 23.91059
v 0 225.9915 0
v -38.68815 214.0202 23.91059
v 0 225.9915 0
v 31.11377 171.8366 57.6881
v 35.01949 193.2393 21.64323
v 0 225.9915 0
v 64.96868 160.5723 40.15285
v 39.09606 217.2795 -72.48807
v 41.03747 228.0198 -25.36255
v 88.75613 219.0243 -54.8543
v 0 225.9915 0
v 126.3038 183.3908 -26.02002
v 113.375 164.4429 23.35653
v 154.006 145.7013 0
v 75.69291 186.8667 0
v 0 225.9915 0
v 60.3147 149.8895 83.35287
v 157.5659 123.2051 43.55013
v 109.1492 143.0346 67.45792
v 145.6891 84.91592 90.04085
v 92.14391 30.54379 96.85419
v 104.3967 115.3693 122.2298
v 175.5046 82.84535 0
v 173.1187 45.16533 47.84885
v 183.9171 -3.343486E-05 0
v 157.0319 -74.40598 0
v 151.4116 -118.5333 41.84915
v 126.5266 -119.1764 0
v 167.9353 -43.91323 46.41619
v 121.7373 -71.18066 75.2378
v 74.93446 -24.77773 78.76502
v 124.5951 -2.662475E-05 77.00402
v 157.7423 123.7434 -43.59889
v 171.8562 45.08978 -47.49987
v 142.1906 83.1398 -87.87863
v 124.9643 41.36337 -131.3523
v 120.8189 -40.04897 -126.9951
v 97.01578 -3.354532E-05 -156.9748
v 153.4407 -3.291644E-05 -94.8316
v 120.5767 -70.50206 -74.52052
v 117.6086 -92.13525 -32.50621
v 162.0686 -42.29951 -44.79466
v 25.36764 187.7561 -117.1486
v 74.5435 184.331 -103.0166
v 53.11545 131.0607 -139.0581
v 79.16417 65.33138 -154.4784
v 94.0643 104.3505 -110.1324
v 110.8649 145.4584 -68.5183
v -21.0371 155.6192 -97.15003
v 0 103.3154 -109.2042
v -35.81237 88.86967 -93.758
v -50.14144 41.18564 -97.84436
v -42.35491 -2.284192E-05 -137.0634
v -79.64249 -2.755918E-05 -128.8643
v -17.88185 44.14474 -104.6822
v 0 -2.797409E-05 -153.5339
v 52.48411 -2.838451E-05 -169.8422
v 22.04593 54.34565 -129.0591
v -77.94727 -64.28683 -152.1038
v -29.29226 -72.55277 -171.4799
v -47.79704 -117.9626 -125.1343
v -24.3563 -181.6716 -112.4782
v 26.42785 -196.3741 -122.0447
v 0 -216.4152 -87.55532
v 0 -146.8605 -155.3672
v 54.09206 -133.9291 -141.6149
v 79.78828 -65.87473 -155.6962
v 29.76126 -73.53487 -174.2254
v 41.89822 -232.05 -77.68359
v 64.78275 -160.0094 -89.52755
v 74.48615 -184.4916 -46.03497
v 99.12921 -144.1944 -20.42174
v 90.95226 -118.6685 -56.21159
v 88.93964 -98.40319 -104.1323
v 0 -235.0142 -47.52364
v 46.75188 -258.9316 -28.89425
v 0 -261.2657 0
v 0 -262.0867 53.05136
v 40.5859 -223.9434 75.2504
v 0 -201.8326 81.80658
v 47.94009 -265.2979 29.6286
v 91.06802 -225.1377 56.28313
v 0 -261.2657 0
v 120.8543 -175.5825 24.89736
v 89.2906 -220.2518 0
v 0 -261.2657 0
v -33.39981 -184.8055 -61.92665
v -36.81337 -203.8879 -22.75191
v -66.12154 -164.2073 -40.86535
v 0 -261.2657 0
v -92.02551 -134.1535 -18.9583
v -87.99834 -128.0651 18.12865
v -112.9619 -106.3591 0
v -87.99834 -128.0651 18.12865
v -67.69071 -167.9236 0
v -66.48989 -164.5024 41.09301
v -67.69071 -167.9236 0
v -36.57322 -202.3186 67.81049
v -40.63728 -224.4099 25.11522
v 0 -261.2657 0
v -40.63728 -224.4099 25.11522
v 0 -261.2657 0
v -123.0756 -96.33091 34.01727
v -112.9619 -106.3591 0
v -93.04179 -122.0406 57.50298
v -129.703 -75.83823 80.16084
v -101.491 -33.56755 106.6791
v -66.13338 -54.4316 129.0505
v -91.1682 -100.8794 106.7416
v -42.45911 -105.1652 111.1594
v -20.10579 -148.7646 92.84926
v -60.93867 -150.3168 84.21517
v -24.08982 -59.66709 141.0243
v 50.03905 -41.22704 97.64457
v 21.07195 -52.19224 123.3574
v 42.29331 -105.2134 110.7253
v 20.22284 -150.3443 93.38978
v 0 -106.6148 113.1695
v 68.75954 -170.1617 95.02332
v 83.05511 -92.36039 97.24261
v 117.9053 -154.7908 72.86951
v -108.3765 51.26615 0
v -104.9662 27.39973 29.01194
v -143.1359 -2.599779E-05 0
v -108.0413 -2.306257E-05 66.77316
v -138.6034 -65.77543 0
v -143.158 -37.28845 39.56789
v -119.0475 92.98589 -32.90391
v -108.3765 51.26615 0
v -140.9734 36.86295 -38.9641
v -143.1359 -2.599779E-05 0
v -134.8893 78.70921 -83.36614
v -138.6034 -65.77543 0
v -133.894 -104.8192 -37.00738
v -160.3346 -41.84506 -44.31539
v -147.1005 -85.71413 -90.9131
v -123.5313 -40.80262 -129.8461
v -97.94951 32.42677 -102.9566
v -152.4779 -3.268333E-05 -94.2365
v -96.86566 126.6464 -59.86627
v -74.53788 83.0156 -87.27047
v -56.04438 138.4232 -77.45142
v -60.97489 -151.0261 -84.26522
v -89.93185 -99.38683 -105.2941
v -105.4154 -138.1409 -65.15028

vn -0.4792216 -0.2513595 0.8409311
vn -0.900964 0.3078094 0.3058061
vn -0.7660735 0.1644749 0.6213529
vn -0.5070037 0.2402312 0.82779
vn -0.858996 0.3214056 0.3985275
vn 0.3542028 -0.2660815 0.896516
vn -0.6103991 0.6294507 0.4808376
vn 0.4726283 0.8604015 0.1906091
vn 0.2604981 0.8556591 0.4472005
vn -0.2125548 0.5161134 0.8297273
vn 0.4035445 0.589953 0.6993621
vn 0.5114409 -0.4370381 0.7398823
vn 0.7250883 -0.3418855 0.597797
vn 0.5427821 -0.2838501 0.7904534
vn 0.366993 -0.2171057 0.9045337
vn -0.8457407 0.4279045 0.3187796
vn -0.9203554 0.2408018 0.3081565
vn -0.8819498 0.3440214 0.3222014
vn -0.8503664 0.2262447 0.4750689
vn -0.8863008 0.2096108 0.4129578
vn -0.8484569 0.3697041 0.3787344
vn -0.9128547 0.1586447 0.3762022
vn -0.8660403 0.3524975 0.3545697
vn -0.5707552 0.6199037 0.5384774
vn -0.8566841 0.2227828 0.4652528
vn -0.8863008 0.2096108 0.4129578
vn -0.852768 0.5138552 0.09348582
vn -0.8484569 0.3697041 0.3787344
vn -0.811774 0.5787752 -0.0777311
vn -0.6204847 0.6560044 -0.4297172
vn -0.811774 0.5787752 -0.0777311
vn -0.6850853 0.5868582 -0.4315735
vn -0.6527159 0.6983559 -0.2937024
vn -0.5550873 0.6539956 -0.5139727
vn -0.5159678 0.7413178 -0.4292146
vn -0.06963608 0.988821 0.1318479
vn 0.4875437 0.7797245 0.3928495
vn -0.6161928 0.7870651 0.02889704
vn -0.06963608 0.988821 0.1318479
vn -0.6161928 0.7870651 0.02889704
vn -0.06963608 0.988821 0.1318479
vn 0.6183451 0.7355348 0.2768354
vn 0.518616 0.669913 0.5312758
vn -0.06963608 0.988821 0.1318479
vn 0.3076639 0.8361319 0.4541214
vn -0.07484634 0.8616118 -0.5020191
vn 0.3395363 0.8317181 0.4392722
vn 0.5464609 0.8354549 -0.05827103
vn -0.06963608 0.988821 0.1318479
vn 0.5850196 0.8056352 0.09329557
vn 0.2025452 0.8796432 0.4303525
vn 0.8617662 0.5006004 0.08220921
vn 0.3310644 0.7679219 0.5483541
vn -0.06963608 0.988821 0.1318479
vn 0.3475464 0.9320546 0.1024
vn 0.8145147 0.4568246 0.357599
vn 0.2825205 0.8691461 0.4059153
vn 0.7537613 0.06317834 0.6541042
vn 0.4456986 -0.5094334 0.7360911
vn 0.6766319 0.3296452 0.6584097
vn 0.9756383 0.2163763 -0.03621021
vn 0.8980411 0.03546706 0.4384793
vn 0.9926593 -0.09340049 0.07683739
vn 0.8038418 -0.4998237 -0.3225128
vn 0.9414577 -0.3066563 0.1400694
vn 0.8386735 -0.3907431 -0.3794029
vn 0.7986139 -0.1152186 0.5907119
vn 0.4656112 0.03418286 0.8843289
vn 0.2841535 0.004707734 0.9587672
vn 0.1608037 -0.1670959 0.972739
vn 0.7936181 0.3772215 -0.4773617
vn 0.9557212 0.1128816 -0.2717623
vn 0.6483205 0.5325179 -0.5441555
vn 0.6812511 0.06856774 -0.7288315
vn 0.7685359 -0.3090721 -0.5602027
vn 0.525432 -0.0013793 -0.8508344
vn 0.8534096 -0.1448919 -0.5006979
vn 0.7346531 -0.6007963 -0.3151644
vn 0.6943058 -0.5667229 -0.4435817
vn 0.8079058 -0.4890402 -0.3288282
vn -0.346994 0.3945866 -0.8508211
vn 0.6964361 0.2803386 -0.6605959
vn 0.0386959 0.3403902 -0.9394877
vn 0.1619775 0.2624337 -0.951258
vn 0.6422834 0.4764856 -0.6003612
vn 0.7469752 0.3049947 -0.5907675
vn -0.5867499 0.3690117 -0.7208015
vn -0.4438725 -0.007748983 -0.8960565
vn -0.3420802 0.1069665 -0.9335628
vn -0.06505069 0.4088757 -0.9102687
vn -0.1818605 0.6960554 -0.6945745
vn -0.2475634 0.494416 -0.8332258
vn -0.4514736 0.3314865 -0.8284253
vn -0.286375 0.5246091 -0.8017322
vn -0.03130757 0.1583606 -0.9868848
vn -0.558993 0.2376923 -0.7943735
vn -0.4763213 -0.4523029 -0.754016
vn -0.3298578 -0.1246273 -0.9357681
vn -0.578819 -0.4000106 -0.7106054
vn -0.6228397 -0.6889947 -0.3706171
vn 0.3345261 -0.5911657 -0.7339043
vn -0.4676717 -0.7759724 -0.4232612
vn -0.1367264 -0.4185821 -0.8978279
vn 0.6322364 -0.4224169 -0.649493
vn 0.5315836 -0.2664293 -0.8040114
vn 0.1742195 -0.09196468 -0.980403
vn 0.527136 -0.6763553 -0.5144619
vn 0.8968353 -0.2954352 -0.3292485
vn 0.8544287 -0.3091794 -0.4175641
vn 0.8293663 -0.2670551 -0.4907475
vn 0.8251808 -0.4278401 -0.3688218
vn 0.8149533 -0.5371839 -0.21745
vn -0.6913444 -0.6343548 -0.3458855
vn 0.4761779 -0.8053811 -0.3530098
vn -0.5725753 -0.8101533 -0.1257344
vn -0.3158924 -0.7213511 0.6163316
vn 0.04412308 -0.4074774 0.9121487
vn -0.2155516 -0.3551664 0.9096122
vn 0.250911 -0.9063221 0.3400352
vn 0.6129043 -0.6404223 0.4628257
vn -0.5725753 -0.8101533 -0.1257344
vn 0.8623942 -0.3677293 -0.3479243
vn 0.8155689 -0.4378672 -0.3783118
vn -0.5725753 -0.8101533 -0.1257344
vn -0.7313495 -0.655424 -0.18854
vn -0.6928456 -0.6046995 -0.3928148
vn -0.6475394 -0.7386404 -0.1873582
vn -0.5725753 -0.8101533 -0.1257344
vn -0.7601919 -0.6214193 0.1895953
vn -0.8276686 -0.559531 -0.04347137
vn -0.7892615 -0.6012951 0.1245407
vn -0.8276686 -0.559531 -0.04347137
vn -0.8636284 -0.4986188 0.07433178
vn -0.8474976 -0.5159993 0.124469
vn -0.8636284 -0.4986188 0.07433178
vn -0.6037087 -0.3712538 0.7054831
vn -0.8564242 -0.5155425 -0.02745087
vn -0.5725753 -0.8101533 -0.1257344
vn -0.8564242 -0.5155425 -0.02745087
vn -0.5725753 -0.8101533 -0.1257344
vn -0.6402446 -0.7581788 -0.1234981
vn -0.7892615 -0.6012951 0.1245407
vn -0.7321115 -0.6792746 0.05097962
vn -0.8836696 -0.2505938 0.395387
vn -0.6769688 0.2431341 0.6946935
vn -0.4456074 -0.2343003 0.864024
vn -0.4134782 -0.5185806 0.7484049
vn -0.1140578 -0.4911804 0.8635582
vn -0.1786884 -0.3637416 0.9142005
vn -0.4863183 -0.5739172 0.658873
vn -0.188074 -0.4540773 0.8708858
vn 0.6582261 0.1532457 0.7370578
vn 0.5732403 -0.05420214 0.8175926
vn 0.1610615 -0.3172065 0.9345797
vn -0.2752223 -0.2900949 0.9165684
vn -0.04725323 -0.5276316 0.8481581
vn 0.1025655 -0.2501172 0.9627677
vn 0.440691 0.1382915 0.8869424
vn 0.6985979 -0.1945683 0.6885521
vn -0.7906067 0.3007069 0.5334008
vn -0.7384087 0.543896 0.3986598
vn -0.8318151 0.4152437 0.3683155
vn -0.7758446 0.4880064 0.3998935
vn -0.9334635 -0.350663 0.07537495
vn -0.8854639 0.2824431 0.3690252
vn -0.8552383 0.3338162 0.3964016
vn -0.7906067 0.3007069 0.5334008
vn -0.8378012 0.402079 0.3693531
vn -0.8318151 0.4152437 0.3683155
vn -0.7117207 0.422471 -0.5612236
vn -0.9334635 -0.350663 0.07537495
vn -0.7464355 -0.6143391 0.2557764
vn -0.9418585 -0.259628 0.2132979
vn -0.7785962 -0.4241299 -0.4624951
vn -0.612304 0.01668141 -0.7904465
vn 0.04445614 0.3633247 -0.9306013
vn -0.8750992 0.119406 -0.4689813
vn -0.4243163 0.7821703 -0.4562514
vn 0.01920013 0.2135444 -0.9767447
vn -0.4711148 0.6288949 -0.6184999
vn -0.720617 -0.4369439 -0.5383225
vn -0.4386459 -0.5702296 -0.6945704
vn -0.5127113 -0.8341047 -0.203461

vt 0.7977001 0.5
vt 0.8253705 0.4232277
vt 0.8381041 0.5
vt 0.776927 0.4153324
vt 0.8080699 0.3333333
vt 0.75 0.5
vt 0.7839398 0.2457124
vt 0.7160602 0.2457124
vt 0.75 0.1762082
vt 0.75 0.3237918
vt 0.6919301 0.3333333
vt 0.6746295 0.4232277
vt 0.7022999 0.5
vt 0.6618959 0.5
vt 0.723073 0.4153324
vt 0.8710343 0.4528384
vt 0.862502 0.3601596
vt 0.9118959 0.4
vt 0.9570821 0.3539629
vt 0.9676646 0.2612329
vt 1 0.3237918
vt 0.9118959 0.3
vt 0.9118959 0.2
vt 0.8287221 0.1678328
vt 0.8496938 0.2584051
vt -0.0323354 0.2612329
vt 0.03233537 0.2612329
vt 0 0.3237918
vt 0 0.1762082
vt 0.08810409 0.2
vt 1 0.1762082
vt 0.1712779 0.1678328
vt 0.25 0.09540019
vt 0.25 0.1762082
vt 0.08810409 0.09999997
vt 0.169052 0
vt 0.75 0.09540019
vt 0.9118959 0.09999997
vt 0.830948 0
vt -0.08810407 0.09999997
vt 1.117587E-08 0
vt 0.6712779 0.1678328
vt 0.5881041 0.09999997
vt 0.669052 0
vt 0.5881041 0.2
vt 0.3287221 0.1678328
vt 0.4118959 0.09999997
vt 0.4118959 0.2
vt 0.3309479 0
vt 0.4676647 0.2612329
vt 0.5323353 0.2612329
vt 0.5 0.3237918
vt 0.5 0.1762082
vt 0.5 0
vt 0.6503062 0.2584051
vt 0.5429179 0.3539629
vt 0.5881041 0.3
vt 0.5881041 0.4
vt 0.6289657 0.4528384
vt 0.637498 0.3601596
vt 0.5 0.4045998
vt 0.5429179 0.4480572
vt 0.5 0.5
vt 0.5 0.5954002
vt 0.5429179 0.646037
vt 0.5 0.6762082
vt 0.5429179 0.5519428
vt 0.5881041 0.6
vt 0.6289657 0.5471615
vt 0.5881041 0.5
vt 0.4570821 0.3539629
vt 0.4570821 0.4480572
vt 0.4118959 0.4
vt 0.3710343 0.4528384
vt 0.3710343 0.5471615
vt 0.3381041 0.5
vt 0.4118959 0.5
vt 0.4118959 0.6
vt 0.4570821 0.646037
vt 0.4570821 0.5519428
vt 0.2839398 0.2457124
vt 0.3496938 0.2584051
vt 0.3080699 0.3333333
vt 0.3253705 0.4232277
vt 0.362502 0.3601596
vt 0.4118959 0.3
vt 0.2160602 0.2457124
vt 0.25 0.3237918
vt 0.1919301 0.3333333
vt 0.1746295 0.4232277
vt 0.2022999 0.5
vt 0.1618959 0.5
vt 0.223073 0.4153324
vt 0.25 0.5
vt 0.2977001 0.5
vt 0.276927 0.4153324
vt 0.1746295 0.5767723
vt 0.223073 0.5846676
vt 0.1919301 0.6666667
vt 0.2160602 0.7542875
vt 0.2839398 0.7542875
vt 0.25 0.8237918
vt 0.25 0.6762082
vt 0.3080699 0.6666667
vt 0.3253705 0.5767723
vt 0.276927 0.5846676
vt 0.3287221 0.8321671
vt 0.3496938 0.7415949
vt 0.4118959 0.8
vt 0.4676647 0.738767
vt 0.4118959 0.7
vt 0.362502 0.6398403
vt 0.25 0.9045998
vt 0.4118959 0.9
vt 0.3309479 1
vt 0.75 0.9045998
vt 0.6712779 0.8321671
vt 0.75 0.8237918
vt 0.5881041 0.9
vt 0.5881041 0.8
vt 0.669052 1
vt 0.5323353 0.738767
vt 0.5 0.8237918
vt 0.5 1
vt 0.1712779 0.8321671
vt 0.08810409 0.9
vt 0.08810409 0.8
vt 0.169052 1
vt 0.03233537 0.738767
vt -0.0323354 0.738767
vt 0 0.6762082
vt 0.9676646 0.738767
vt 1 0.8237918
vt 0.9118959 0.8
vt 0 0.8237918
vt 0.8287221 0.8321671
vt 0.9118959 0.9
vt 0.830948 1
vt -0.08810407 0.9
vt 1.117587E-08 1
vt 0.9570821 0.646037
vt 1 0.6762082
vt 0.9118959 0.7
vt 0.9118959 0.6
vt 0.8710343 0.5471615
vt 0.8253705 0.5767723
vt 0.862502 0.6398403
vt 0.8080699 0.6666667
vt 0.7839398 0.7542875
vt 0.8496938 0.7415949
vt 0.776927 0.5846676
vt 0.6746295 0.5767723
vt 0.723073 0.5846676
vt 0.6919301 0.6666667
vt 0.7160602 0.7542875
vt 0.75 0.6762082
vt 0.6503062 0.7415949
vt 0.637498 0.6398403
vt 0.5881041 0.7
vt 1 0.4045998
vt 0.9570821 0.4480572
vt 1 0.5
vt 0.9118959 0.5
vt 1 0.5954002
vt 0.9570821 0.5519428
vt 0.04291791 0.3539629
vt 0 0.4045998
vt 0.04291791 0.4480572
vt 0 0.5
vt 0.08810409 0.4
vt 0 0.5954002
vt 0.04291791 0.646037
vt 0.04291791 0.5519428
vt 0.08810409 0.6
vt 0.1289657 0.5471615
vt 0.1289657 0.4528384
vt 0.08810409 0.5
vt 0.08810413 0.3
vt 0.1374981 0.3601596
vt 0.1503062 0.2584051
vt 0.1503062 0.7415949
vt 0.1374981 0.6398403
vt 0.08810413 0.7

usemtl ground (Instance)
usemap ground (Instance)
f 1/1/1 2/2/2 3/3/3
f 2/2/2 4/4/4 5/5/5
f 4/4/4 1/1/1 6/6/6
f 1/1/1 4/4/4 2/2/2
f 7/7/7 8/8/8 9/9/9
f 8/8/8 10/10/10 11/11/11
f 10/10/10 7/7/7 5/5/5
f 7/7/7 10/10/10 8/8/8
f 12/12/12 13/13/13 14/14/14
f 13/13/13 15/15/15 6/6/6
f 15/15/15 12/12/12 11/11/11
f 12/12/12 15/15/15 13/13/13
f 4/4/4 10/10/10 5/5/5
f 10/10/10 15/15/15 11/11/11
f 15/15/15 4/4/4 6/6/6
f 4/4/4 15/15/15 10/10/10
f 2/2/2 16/16/16 3/3/3
f 16/16/16 17/17/17 18/18/18
f 17/17/17 2/2/2 5/5/5
f 2/2/2 17/17/17 16/16/16
f 19/19/19 20/20/20 21/21/21
f 20/20/20 22/22/22 23/23/23
f 22/22/22 19/19/19 18/18/18
f 19/19/19 22/22/22 20/20/20
f 24/24/24 7/7/7 9/9/9
f 7/7/7 25/25/25 5/5/5
f 25/25/25 24/24/24 23/23/23
f 24/24/24 25/25/25 7/7/7
f 17/17/17 22/22/22 18/18/18
f 22/22/22 25/25/25 23/23/23
f 25/25/25 17/17/17 5/5/5
f 17/17/17 25/25/25 22/22/22
f 26/26/26 27/27/27 28/28/28
f 27/27/27 29/29/29 30/30/30
f 31/31/31 20/20/20 23/23/23
f 26/26/26 29/29/29 27/27/27
f 32/32/32 33/33/33 34/34/34
f 33/33/33 35/35/35 36/36/36
f 35/35/35 32/32/32 30/30/30
f 32/32/32 35/35/35 33/33/33
f 37/37/37 24/24/24 9/9/9
f 24/24/24 38/38/38 23/23/23
f 38/38/38 37/37/37 39/39/39
f 37/37/37 38/38/38 24/24/24
f 29/29/29 35/35/35 30/30/30
f 35/35/35 40/40/40 41/41/41
f 38/38/38 31/31/31 23/23/23
f 29/29/29 40/40/40 35/35/35
f 42/42/42 37/37/37 9/9/9
f 37/37/37 43/43/43 44/44/44
f 43/43/43 42/42/42 45/45/45
f 42/42/42 43/43/43 37/37/37
f 33/33/33 46/46/46 34/34/34
f 46/46/46 47/47/47 48/48/48
f 47/47/47 33/33/33 49/49/49
f 33/33/33 47/47/47 46/46/46
f 50/50/50 51/51/51 52/52/52
f 51/51/51 53/53/53 45/45/45
f 53/53/53 50/50/50 48/48/48
f 50/50/50 53/53/53 51/51/51
f 43/43/43 47/47/47 54/54/54
f 47/47/47 53/53/53 48/48/48
f 53/53/53 43/43/43 45/45/45
f 43/43/43 53/53/53 47/47/47
f 8/8/8 42/42/42 9/9/9
f 42/42/42 55/55/55 45/45/45
f 55/55/55 8/8/8 11/11/11
f 8/8/8 55/55/55 42/42/42
f 51/51/51 56/56/56 52/52/52
f 56/56/56 57/57/57 58/58/58
f 57/57/57 51/51/51 45/45/45
f 51/51/51 57/57/57 56/56/56
f 59/59/59 12/12/12 14/14/14
f 12/12/12 60/60/60 11/11/11
f 60/60/60 59/59/59 58/58/58
f 59/59/59 60/60/60 12/12/12
f 55/55/55 57/57/57 45/45/45
f 57/57/57 60/60/60 58/58/58
f 60/60/60 55/55/55 11/11/11
f 55/55/55 60/60/60 57/57/57
f 56/56/56 61/61/61 52/52/52
f 61/61/61 62/62/62 63/63/63
f 62/62/62 56/56/56 58/58/58
f 56/56/56 62/62/62 61/61/61
f 64/64/64 65/65/65 66/66/66
f 65/65/65 67/67/67 68/68/68
f 67/67/67 64/64/64 63/63/63
f 64/64/64 67/67/67 65/65/65
f 69/69/69 59/59/59 14/14/14
f 59/59/59 70/70/70 58/58/58
f 70/70/70 69/69/69 68/68/68
f 69/69/69 70/70/70 59/59/59
f 62/62/62 67/67/67 63/63/63
f 67/67/67 70/70/70 68/68/68
f 70/70/70 62/62/62 58/58/58
f 62/62/62 70/70/70 67/67/67
f 61/61/61 71/71/71 52/52/52
f 71/71/71 72/72/72 73/73/73
f 72/72/72 61/61/61 63/63/63
f 61/61/61 72/72/72 71/71/71
f 74/74/74 75/75/75 76/76/76
f 75/75/75 77/77/77 78/78/78
f 77/77/77 74/74/74 73/73/73
f 74/74/74 77/77/77 75/75/75
f 79/79/79 64/64/64 66/66/66
f 64/64/64 80/80/80 63/63/63
f 80/80/80 79/79/79 78/78/78
f 79/79/79 80/80/80 64/64/64
f 72/72/72 77/77/77 73/73/73
f 77/77/77 80/80/80 78/78/78
f 80/80/80 72/72/72 63/63/63
f 72/72/72 80/80/80 77/77/77
f 46/46/46 81/81/81 34/34/34
f 81/81/81 82/82/82 83/83/83
f 82/82/82 46/46/46 48/48/48
f 46/46/46 82/82/82 81/81/81
f 84/84/84 74/74/74 76/76/76
f 74/74/74 85/85/85 73/73/73
f 85/85/85 84/84/84 83/83/83
f 84/84/84 85/85/85 74/74/74
f 71/71/71 50/50/50 52/52/52
f 50/50/50 86/86/86 48/48/48
f 86/86/86 71/71/71 73/73/73
f 71/71/71 86/86/86 50/50/50
f 82/82/82 85/85/85 83/83/83
f 85/85/85 86/86/86 73/73/73
f 86/86/86 82/82/82 48/48/48
f 82/82/82 86/86/86 85/85/85
f 81/81/81 87/87/87 34/34/34
f 87/87/87 88/88/88 89/89/89
f 88/88/88 81/81/81 83/83/83
f 81/81/81 88/88/88 87/87/87
f 90/90/90 91/91/91 92/92/92
f 91/91/91 93/93/93 94/94/94
f 93/93/93 90/90/90 89/89/89
f 90/90/90 93/93/93 91/91/91
f 95/95/95 84/84/84 76/76/76
f 84/84/84 96/96/96 83/83/83
f 96/96/96 95/95/95 94/94/94
f 95/95/95 96/96/96 84/84/84
f 88/88/88 93/93/93 89/89/89
f 93/93/93 96/96/96 94/94/94
f 96/96/96 88/88/88 83/83/83
f 88/88/88 96/96/96 93/93/93
f 91/91/91 97/97/97 92/92/92
f 97/97/97 98/98/98 99/99/99
f 98/98/98 91/91/91 94/94/94
f 91/91/91 98/98/98 97/97/97
f 100/100/100 101/101/101 102/102/102
f 101/101/101 103/103/103 104/104/104
f 103/103/103 100/100/100 99/99/99
f 100/100/100 103/103/103 101/101/101
f 105/105/105 95/95/95 76/76/76
f 95/95/95 106/106/106 94/94/94
f 106/106/106 105/105/105 104/104/104
f 105/105/105 106/106/106 95/95/95
f 98/98/98 103/103/103 99/99/99
f 103/103/103 106/106/106 104/104/104
f 106/106/106 98/98/98 94/94/94
f 98/98/98 106/106/106 103/103/103
f 101/101/101 107/107/107 102/102/102
f 107/107/107 108/108/108 109/109/109
f 108/108/108 101/101/101 104/104/104
f 101/101/101 108/108/108 107/107/107
f 110/110/110 79/79/79 66/66/66
f 79/79/79 111/111/111 78/78/78
f 111/111/111 110/110/110 109/109/109
f 110/110/110 111/111/111 79/79/79
f 75/75/75 105/105/105 76/76/76
f 105/105/105 112/112/112 104/104/104
f 112/112/112 75/75/75 78/78/78
f 75/75/75 112/112/112 105/105/105
f 108/108/108 111/111/111 109/109/109
f 111/111/111 112/112/112 78/78/78
f 112/112/112 108/108/108 104/104/104
f 108/108/108 112/112/112 111/111/111
f 107/107/107 113/113/113 102/102/102
f 113/113/113 114/114/114 115/115/115
f 114/114/114 107/107/107 109/109/109
f 107/107/107 114/114/114 113/113/113
f 116/116/116 117/117/117 118/118/118
f 117/117/117 119/119/119 120/120/120
f 119/119/119 116/116/116 121/121/121
f 116/116/116 119/119/119 117/117/117
f 122/122/122 110/110/110 66/66/66
f 110/110/110 123/123/123 109/109/109
f 123/123/123 122/122/122 120/120/120
f 122/122/122 123/123/123 110/110/110
f 114/114/114 119/119/119 124/124/124
f 119/119/119 123/123/123 120/120/120
f 123/123/123 114/114/114 109/109/109
f 114/114/114 123/123/123 119/119/119
f 113/113/113 125/125/125 102/102/102
f 125/125/125 126/126/126 127/127/127
f 126/126/126 113/113/113 128/128/128
f 113/113/113 126/126/126 125/125/125
f 129/129/129 130/130/130 131/131/131
f 132/132/132 133/133/133 134/134/134
f 135/135/135 129/129/129 127/127/127
f 129/129/129 135/135/135 130/130/130
f 136/136/136 116/116/116 118/118/118
f 116/116/116 137/137/137 138/138/138
f 137/137/137 136/136/136 134/134/134
f 136/136/136 137/137/137 116/116/116
f 126/126/126 135/135/135 127/127/127
f 133/133/133 137/137/137 134/134/134
f 139/139/139 126/126/126 140/140/140
f 126/126/126 139/139/139 135/135/135
f 132/132/132 141/141/141 142/142/142
f 141/141/141 143/143/143 144/144/144
f 143/143/143 132/132/132 134/134/134
f 132/132/132 143/143/143 141/141/141
f 145/145/145 146/146/146 3/3/3
f 146/146/146 147/147/147 148/148/148
f 147/147/147 145/145/145 144/144/144
f 145/145/145 147/147/147 146/146/146
f 149/149/149 136/136/136 118/118/118
f 136/136/136 150/150/150 134/134/134
f 150/150/150 149/149/149 148/148/148
f 149/149/149 150/150/150 136/136/136
f 143/143/143 147/147/147 144/144/144
f 147/147/147 150/150/150 148/148/148
f 150/150/150 143/143/143 134/134/134
f 143/143/143 150/150/150 147/147/147
f 146/146/146 1/1/1 3/3/3
f 1/1/1 151/151/151 6/6/6
f 151/151/151 146/146/146 148/148/148
f 146/146/146 151/151/151 1/1/1
f 13/13/13 152/152/152 14/14/14
f 152/152/152 153/153/153 154/154/154
f 153/153/153 13/13/13 6/6/6
f 13/13/13 153/153/153 152/152/152
f 155/155/155 149/149/149 118/118/118
f 149/149/149 156/156/156 148/148/148
f 156/156/156 155/155/155 154/154/154
f 155/155/155 156/156/156 149/149/149
f 151/151/151 153/153/153 6/6/6
f 153/153/153 156/156/156 154/154/154
f 156/156/156 151/151/151 148/148/148
f 151/151/151 156/156/156 153/153/153
f 117/117/117 155/155/155 118/118/118
f 155/155/155 157/157/157 154/154/154
f 157/157/157 117/117/117 120/120/120
f 117/117/117 157/157/157 155/155/155
f 152/152/152 69/69/69 14/14/14
f 69/69/69 158/158/158 68/68/68
f 158/158/158 152/152/152 154/154/154
f 152/152/152 158/158/158 69/69/69
f 65/65/65 122/122/122 66/66/66
f 122/122/122 159/159/159 120/120/120
f 159/159/159 65/65/65 68/68/68
f 65/65/65 159/159/159 122/122/122
f 157/157/157 158/158/158 154/154/154
f 158/158/158 159/159/159 68/68/68
f 159/159/159 157/157/157 120/120/120
f 157/157/157 159/159/159 158/158/158
f 160/160/160 19/19/19 21/21/21
f 19/19/19 161/161/161 18/18/18
f 161/161/161 160/160/160 162/162/162
f 160/160/160 161/161/161 19/19/19
f 16/16/16 145/145/145 3/3/3
f 145/145/145 163/163/163 144/144/144
f 163/163/163 16/16/16 18/18/18
f 16/16/16 163/163/163 145/145/145
f 141/141/141 164/164/164 142/142/142
f 164/164/164 165/165/165 162/162/162
f 165/165/165 141/141/141 144/144/144
f 141/141/141 165/165/165 164/164/164
f 161/161/161 163/163/163 18/18/18
f 163/163/163 165/165/165 144/144/144
f 165/165/165 161/161/161 162/162/162
f 161/161/161 165/165/165 163/163/163
f 166/166/166 167/167/167 28/28/28
f 167/167/167 168/168/168 169/169/169
f 168/168/168 166/166/166 170/170/170
f 166/166/166 168/168/168 167/167/167
f 171/171/171 172/172/172 131/131/131
f 172/172/172 173/173/173 174/174/174
f 173/173/173 171/171/171 169/169/169
f 171/171/171 173/173/173 172/172/172
f 175/175/175 176/176/176 92/92/92
f 176/176/176 177/177/177 170/170/170
f 177/177/177 175/175/175 174/174/174
f 175/175/175 177/177/177 176/176/176
f 168/168/168 173/173/173 169/169/169
f 173/173/173 177/177/177 174/174/174
f 177/177/177 168/168/168 170/170/170
f 168/168/168 177/177/177 173/173/173
f 27/27/27 166/166/166 28/28/28
f 166/166/166 178/178/178 170/170/170
f 178/178/178 27/27/27 30/30/30
f 27/27/27 178/178/178 166/166/166
f 176/176/176 90/90/90 92/92/92
f 90/90/90 179/179/179 89/89/89
f 179/179/179 176/176/176 170/170/170
f 176/176/176 179/179/179 90/90/90
f 87/87/87 32/32/32 34/34/34
f 32/32/32 180/180/180 30/30/30
f 180/180/180 87/87/87 89/89/89
f 87/87/87 180/180/180 32/32/32
f 178/178/178 179/179/179 170/170/170
f 179/179/179 180/180/180 89/89/89
f 180/180/180 178/178/178 30/30/30
f 178/178/178 180/180/180 179/179/179
f 125/125/125 100/100/100 102/102/102
f 100/100/100 181/181/181 99/99/99
f 181/181/181 125/125/125 127/127/127
f 125/125/125 181/181/181 100/100/100
f 97/97/97 175/175/175 92/92/92
f 175/175/175 182/182/182 174/174/174
f 182/182/182 97/97/97 99/99/99
f 97/97/97 182/182/182 175/175/175
f 172/172/172 129/129/129 131/131/131
f 129/129/129 183/183/183 127/127/127
f 183/183/183 172/172/172 174/174/174
f 172/172/172 183/183/183 129/129/129
f 181/181/181 182/182/182 99/99/99
f 182/182/182 183/183/183 174/174/174
f 183/183/183 181/181/181 127/127/127
f 181/181/181 183/183/183 182/182/182
