g object
v 0 -3.320849E-05 194.8104
v -56.85965 131.4125 148.8605
v -101.99 -3.306974E-05 165.0233
v 60.06196 138.7045 157.2443
v 0 189.8936 82.33155
v 99.63668 -3.231841E-05 161.2155
v -133.8647 72.95075 82.73292
v -62.30099 144.3258 38.50413
v -127.2211 112.3296 0
v -62.30099 144.3258 38.50413
v -71.72489 165.7717 -44.32842
v -127.2211 112.3296 0
v 0 160.6007 0
v 0 233.5909 -101.0478
v 0 160.6007 0
v -62.30099 144.3258 38.50413
v 0 160.6007 0
v 90.61782 209.0478 56.00489
v 0 160.6007 0
v 0 160.6007 0
v 97.78115 225.6673 -60.43207
v 117.5825 103.9159 0
v 0 160.6007 0
v 105.0769 57.35964 64.94112
v 110.8095 -1.880795E-05 0
v 114.4648 -62.52068 70.74312
v 106.5192 -93.78892 0
v 132.4576 72.3483 -81.86327
v 92.13875 -50.3262 -56.94488
v 103.0193 -3.331494E-05 -166.6888
v 60.56033 140.0091 -158.549
v -55.59631 128.3493 -145.5531
v 0 -3.338576E-05 -196.0925
v -67.38595 -2.1887E-05 -109.0328
v -52.06535 -120.4212 -136.3089
v 53.92278 -124.6443 -141.1717
v 0 -151.8749 -65.93665
v 74.09727 -171.4418 -45.79463
v 0 -217.6735 0
v 0 -217.6735 0
v 88.52751 -204.1754 54.71301
v 0 -235.512 101.5937
v 0 -217.6735 0
v 0 -217.6735 0
v -80.99487 -187.7608 -50.05758
v -97.70227 -225.8492 60.38332
v -132.4652 -116.8969 0
v -97.70227 -225.8492 60.38332
v 0 -217.6735 0
v 0 -217.6735 0
v -125.71 -68.66283 77.69306
v -132.4652 -116.8969 0
v -53.90293 -124.7174 141.1197
v 53.19764 -122.9167 139.2733
v -128.6407 -2.187076E-05 0
v -105.5434 57.47041 -65.22941
v -128.6407 -2.187076E-05 0
v -121.15 -65.98584 -74.87481

vn 0.004651104 -0.0544903 0.9985034
vn -0.4741784 0.6916336 0.5447915
vn -0.5794245 -0.04442112 0.8138145
vn 0.4957986 0.3694097 0.7859518
vn -0.4926022 0.8617473 0.1213866
vn 0.7855264 0.03023954 0.6180889
vn -0.975487 0.2089622 0.06899284
vn -0.4624473 0.8721739 0.159547
vn -0.8948113 0.4464443 -0.0004396267
vn -0.4624473 0.8721739 0.159547
vn -0.5047147 0.8285425 0.2424468
vn -0.8948113 0.4464443 -0.0004396267
vn -0.6405399 0.7603232 0.107783
vn -0.2334479 0.9195721 -0.3160526
vn -0.6405399 0.7603232 0.107783
vn -0.4624473 0.8721739 0.159547
vn -0.6405399 0.7603232 0.107783
vn 0.8266918 0.4643756 0.3177042
vn -0.6405399 0.7603232 0.107783
vn -0.6405399 0.7603232 0.107783
vn 0.6220033 0.7433243 -0.2461317
vn 0.9606255 0.1477423 0.2353103
vn -0.6405399 0.7603232 0.107783
vn 0.9792906 0.1568553 0.1280094
vn 0.9677479 -0.2473336 0.04785474
vn 0.9749955 -0.1280192 0.1816449
vn 0.9506963 -0.02879626 -0.3087835
vn 0.9622694 0.233422 -0.1398279
vn 0.9791807 -0.177088 0.09922194
vn 0.6177838 0.03912135 -0.7853742
vn 0.368923 0.3483538 -0.8617107
vn -0.7802731 0.05661618 -0.6228713
vn -0.1969039 -0.01947251 -0.9802293
vn -0.79749 0.1263907 -0.589945
vn -0.4949782 -0.4922658 -0.7160105
vn 0.3221951 -0.810096 -0.4898314
vn 0.02567409 -0.8691991 -0.4937954
vn 0.4950736 -0.644247 -0.5829648
vn 0.02236118 -0.7251043 -0.6882759
vn 0.02236118 -0.7251043 -0.6882759
vn 0.9081041 -0.3586084 0.2162109
vn 0.04419916 -0.7435054 0.6672677
vn 0.02236118 -0.7251043 -0.6882759
vn 0.02236118 -0.7251043 -0.6882759
vn 0.09691784 -0.8386977 -0.5359039
vn -0.6457714 -0.6968146 0.3121357
vn -0.9996777 -0.01784806 0.01805581
vn -0.6457714 -0.6968146 0.3121357
vn 0.02236118 -0.7251043 -0.6882759
vn 0.02236118 -0.7251043 -0.6882759
vn -0.9877312 -0.0957602 0.1233571
vn -0.9996777 -0.01784806 0.01805581
vn -0.442105 -0.3021641 0.8445354
vn 0.1808949 -0.4019233 0.8976272
vn -0.9971159 -0.07462673 -0.01380543
vn -0.7418543 -0.02446227 -0.6701148
vn -0.9971159 -0.07462673 -0.01380543
vn -0.9642489 0.1544462 -0.215338

vt 0.75 0.5
vt 0.8080699 0.3333333
vt 0.8381041 0.5
vt 0.6919301 0.3333333
vt 0.75 0.1762082
vt 0.6618959 0.5
vt 0.9118959 0.4
vt 0.9118959 0.2
vt 1 0.3237918
vt -0.08810407 0.2
vt 0.08810409 0.2
vt 0 0.3237918
vt 0.169052 0
vt 0.25 0.1762082
vt 0.830948 0
vt -0.08810407 0.2
vt 1.117587E-08 0
vt 0.5881041 0.2
vt 0.669052 0
vt 0.3309479 0
vt 0.4118959 0.2
vt 0.5 0.3237918
vt 0.5 0
vt 0.5881041 0.4
vt 0.5 0.5
vt 0.5881041 0.6
vt 0.5 0.6762082
vt 0.4118959 0.4
vt 0.4118959 0.6
vt 0.3381041 0.5
vt 0.3080699 0.3333333
vt 0.1919301 0.3333333
vt 0.25 0.5
vt 0.1618959 0.5
vt 0.1919301 0.6666667
vt 0.3080699 0.6666667
vt 0.25 0.8237918
vt 0.4118959 0.8
vt 0.3309479 1
vt 0.669052 1
vt 0.5881041 0.8
vt 0.75 0.8237918
vt 0.5 1
vt 0.169052 1
vt 0.08810409 0.8
vt -0.08810407 0.8
vt 0 0.6762082
vt 0.9118959 0.8
vt 0.830948 1
vt 1.117587E-08 1
vt 0.9118959 0.6
vt 1 0.6762082
vt 0.8080699 0.6666667
vt 0.6919301 0.6666667
vt 1 0.5
vt 0.08810409 0.4
vt 0 0.5
vt 0.08810409 0.6

usemtl ground (Instance)
usemap ground (Instance)
f 1/1/1 2/2/2 3/3/3
f 2/2/2 4/4/4 5/5/5
f 4/4/4 1/1/1 6/6/6
f 1/1/1 4/4/4 2/2/2
f 2/2/2 7/7/7 3/3/3
f 7/7/7 8/8/8 9/9/9
f 8/8/8 2/2/2 5/5/5
f 2/2/2 8/8/8 7/7/7
f 10/10/10 11/11/11 12/12/12
f 11/11/11 13/13/13 14/14/14
f 15/15/15 8/8/8 5/5/5
f 16/16/16 17/17/17 11/11/11
f 18/18/18 19/19/19 5/5/5
f 20/20/20 21/21/21 14/14/14
f 21/21/21 18/18/18 22/22/22
f 18/18/18 21/21/21 23/23/23
f 4/4/4 18/18/18 5/5/5
f 18/18/18 24/24/24 22/22/22
f 24/24/24 4/4/4 6/6/6
f 4/4/4 24/24/24 18/18/18
f 24/24/24 25/25/25 22/22/22
f 25/25/25 26/26/26 27/27/27
f 26/26/26 24/24/24 6/6/6
f 24/24/24 26/26/26 25/25/25
f 25/25/25 28/28/28 22/22/22
f 28/28/28 29/29/29 30/30/30
f 29/29/29 25/25/25 27/27/27
f 25/25/25 29/29/29 28/28/28
f 21/21/21 31/31/31 14/14/14
f 31/31/31 28/28/28 30/30/30
f 28/28/28 21/21/21 22/22/22
f 21/21/21 28/28/28 31/31/31
f 31/31/31 32/32/32 14/14/14
f 32/32/32 33/33/33 34/34/34
f 33/33/33 31/31/31 30/30/30
f 31/31/31 33/33/33 32/32/32
f 33/33/33 35/35/35 34/34/34
f 35/35/35 36/36/36 37/37/37
f 36/36/36 33/33/33 30/30/30
f 33/33/33 36/36/36 35/35/35
f 36/36/36 38/38/38 37/37/37
f 38/38/38 29/29/29 27/27/27
f 29/29/29 36/36/36 30/30/30
f 36/36/36 29/29/29 38/38/38
f 38/38/38 39/39/39 37/37/37
f 40/40/40 41/41/41 42/42/42
f 41/41/41 38/38/38 27/27/27
f 38/38/38 41/41/41 43/43/43
f 44/44/44 45/45/45 37/37/37
f 45/45/45 46/46/46 47/47/47
f 48/48/48 49/49/49 42/42/42
f 50/50/50 46/46/46 45/45/45
f 48/48/48 51/51/51 52/52/52
f 51/51/51 53/53/53 3/3/3
f 53/53/53 48/48/48 42/42/42
f 48/48/48 53/53/53 51/51/51
f 53/53/53 1/1/1 3/3/3
f 1/1/1 54/54/54 6/6/6
f 54/54/54 53/53/53 42/42/42
f 53/53/53 54/54/54 1/1/1
f 41/41/41 54/54/54 42/42/42
f 54/54/54 26/26/26 6/6/6
f 26/26/26 41/41/41 27/27/27
f 41/41/41 26/26/26 54/54/54
f 55/55/55 7/7/7 9/9/9
f 7/7/7 51/51/51 3/3/3
f 51/51/51 55/55/55 52/52/52
f 55/55/55 51/51/51 7/7/7
f 56/56/56 57/57/57 12/12/12
f 57/57/57 58/58/58 47/47/47
f 58/58/58 56/56/56 34/34/34
f 56/56/56 58/58/58 57/57/57
f 11/11/11 56/56/56 12/12/12
f 56/56/56 32/32/32 34/34/34
f 32/32/32 11/11/11 14/14/14
f 11/11/11 32/32/32 56/56/56
f 45/45/45 35/35/35 37/37/37
f 35/35/35 58/58/58 34/34/34
f 58/58/58 45/45/45 47/47/47
f 45/45/45 58/58/58 35/35/35
