g object
v -44.05072 -2.32079E-05 142.5511
v -63.978 51.73696 124.8446
v -74.90711 -2.541303E-05 121.2023
v -23.56085 56.83413 137.9276
v -46.19565 111.5659 120.9418
v 0 -2.707124E-05 151.7788
v -22.5939 163.6363 104.3394
v 19.19342 139.3953 88.63586
v 0 206.4439 85.5319
v 0 98.261 106.3636
v 38.04519 91.79943 99.60359
v 65.39323 52.70459 127.6062
v 45.06584 -2.387585E-05 145.8361
v 83.60223 -2.843924E-05 135.2712
v 23.14705 55.9976 135.5052
v -99.31186 32.07001 104.3885
v -90.84929 98.42263 106.3682
v -127.9058 72.89849 79.05014
v -156.0636 119.2196 43.13493
v -126.4028 179.7842 26.0404
v -144.781 134.1493 0
v -120.5275 153.4586 74.49008
v -83.81734 202.1515 51.80196
v -37.77734 204.4989 70.04304
v -66.89164 162.1274 92.44197
v -126.4028 179.7842 26.0404
v -111.3057 158.4355 -22.93023
v -144.781 134.1493 0
v -88.51767 213.5204 0
v -75.07648 181.9671 -46.39982
v -88.51767 213.5204 0
v -36.28871 196.4405 -67.28296
v 0 211.2508 -43.63086
v 0 192.5715 -79.66958
v -43.72281 236.6833 -27.02218
v 0 272.0123 0
v 0 248.7693 51.44802
v -45.66022 246.6261 28.21957
v 0 272.0123 0
v -45.66022 246.6261 28.21957
v 0 272.0123 0
v 40.22227 217.1853 74.57619
v 46.71183 253.3845 28.86949
v 0 272.0123 0
v 84.20935 203.1893 52.04424
v 35.72367 193.0128 -66.23533
v 44.68122 241.0112 -27.61451
v 76.79446 185.737 -47.46158
v 0 272.0123 0
v 124.1859 176.9846 -25.58369
v 129.3896 184.0014 26.65573
v 157.3157 145.4693 0
v 91.33354 220.303 0
v 0 272.0123 0
v 58.55386 141.3624 80.91946
v 151.4381 115.8055 41.85647
v 118.6773 151.3186 73.34659
v 132.487 75.68947 81.8815
v 108.9958 35.3134 114.5675
v 92.09773 99.27644 107.8299
v 170.7411 78.67748 0
v 155.8438 39.85441 43.07417
v 181.025 -3.219246E-05 0
v 180.012 -82.94593 0
v 154.2117 -118.0649 42.62306
v 155.9881 -143.8174 0
v 171.5643 -43.84841 47.41922
v 149.7931 -85.6059 92.57722
v 123.9492 -40.10678 130.2854
v 143.9931 -3.028992E-05 88.99259
v 156.2398 119.7952 -43.18361
v 178.3716 45.45538 -49.3007
v 144.1759 82.39568 -89.10563
v 124.7566 40.37637 -131.134
v 116.419 -37.71844 -122.3702
v 93.69455 -3.173708E-05 -151.601
v 156.2485 -3.276133E-05 -96.56686
v 140.4456 -80.26383 -86.80012
v 161.5272 -123.5589 -44.64502
v 175.8502 -45.00311 -48.60379
v 21.25028 154.2704 -98.13451
v 60.63232 147.0541 -83.7918
v 36.19513 87.40192 -94.76007
v 61.58463 49.67858 -120.1742
v 77.03465 82.98835 -90.19373
v 108.122 137.6925 -66.82308
v -21.83139 158.2019 -100.8181
v 0 105.822 -114.4397
v -44.33651 107.2288 -116.0745
v -63.24448 50.9143 -123.4132
v -39.4306 -2.08119E-05 -127.6001
v -69.53065 -2.356896E-05 -112.503
v -24.09087 58.10905 -141.0304
v 0 -2.736623E-05 -153.7178
v 49.13594 -2.597326E-05 -159.0072
v 20.87797 50.29677 -122.2217
v -65.95019 -53.38378 -128.693
v -25.28487 -61.21186 -148.0202
v -51.02969 -123.2096 -133.5975
v -25.54488 -184.8519 -117.9671
v 26.00058 -188.8335 -120.0716
v 0 -216.1521 -89.41443
v 0 -129.0189 -138.9386
v 48.34959 -117.4671 -126.5809
v 70.24133 -56.68211 -137.0666
v 25.62616 -61.94788 -150.0181
v 41.85006 -226.5456 -77.59428
v 75.32436 -181.7696 -104.0957
v 92.51703 -223.9733 -57.17866
v 131.8768 -187.4871 -27.16811
v 125.14 -159.6463 -77.34077
v 96.71826 -104.3355 -113.2397
v 0 -219.6861 -45.39162
v 43.78716 -237.0317 -27.06196
v 0 -219.0732 0
v 0 -217.8125 45.10851
v 40.29334 -217.6437 74.70796
v 0 -208.3293 86.29521
v 43.62997 -235.9094 26.96481
v 86.1019 -208.999 53.21389
v 0 -219.0732 0
v 126.2905 -179.2551 26.01727
v 93.8485 -228.0513 0
v 0 -219.0732 0
v -36.80615 -198.4953 -68.24236
v -31.60579 -171.0907 -19.53345
v -66.66363 -161.202 -41.20039
v 0 -219.0732 0
v -103.4187 -147.8838 -21.30542
v -103.4797 -147.0574 21.31799
v -127.0068 -116.9555 0
v -103.4797 -147.0574 21.31799
v -63.86665 -154.1339 0
v -71.70829 -173.4562 44.31816
v -63.86665 -154.1339 0
v -35.90343 -193.8504 66.56862
v -32.70921 -176.6365 20.2154
v 0 -219.0732 0
v -32.70921 -176.6365 20.2154
v 0 -219.0732 0
v -124.4524 -95.24788 34.3978
v -127.0068 -116.9555 0
v -98.20177 -125.3013 60.69203
v -114.6699 -65.53322 70.86992
v -98.67433 -31.91243 103.7184
v -67.0895 -54.01131 130.9162
v -86.38223 -93.31441 101.1381
v -48.92863 -118.4507 128.0968
v -24.44478 -176.8458 112.8868
v -63.72176 -153.5987 88.06129
v -26.98097 -65.31793 157.9494
v 79.3033 -64.071 154.7499
v 28.87611 -69.90585 169.0437
v 56.42511 -137.0021 147.7229
v 26.75671 -194.2083 123.5634
v 0 -142.5545 153.9346
v 74.44067 -180.0565 102.8745
v 104.3136 -113.2628 122.1325
v 120.2421 -153.1035 74.3137
v -153.4488 70.94681 0
v -144.9823 37.15828 40.07211
v -145.9788 -2.601623E-05 0
v -123.5406 -2.583822E-05 76.35231
v -136.8734 -63.395 0
v -137.0692 -34.96033 37.88501
v -133.3624 102.0611 -36.86045
v -153.4488 70.94681 0
v -140.9847 36.03285 -38.96722
v -145.9788 -2.601623E-05 0
v -117.2306 67.27805 -72.45252
v -136.8734 -63.395 0
v -127.1328 -97.15337 -35.13863
v -136.0518 -34.66222 -37.60379
v -117.8875 -67.28445 -72.85847
v -100.5464 -32.5131 -105.6862
v -98.43531 31.81731 -103.4672
v -124.8467 -2.606882E-05 -77.15952
v -99.62083 127.3054 -61.56906
v -83.68375 90.4621 -97.97864
v -61.20105 147.9724 -84.57778
v -66.5848 -161.1943 -92.01792
v -90.5068 -97.93812 -105.9672
v -104.5319 -133.1927 -64.60424

vn -0.4662501 0.118338 0.8767024
vn -0.4831554 0.09995492 0.8698103
vn -0.5368639 0.03427115 0.8429725
vn -0.08724853 0.2412795 0.9665257
vn -0.1559575 0.2610141 0.9526535
vn -0.02460165 0.2518539 0.9674525
vn 0.1180071 0.3310003 0.9362228
vn 0.2454328 0.1501744 0.957711
vn -0.05008338 0.541275 0.8393528
vn 0.3974817 0.5125412 0.7611241
vn 0.1186964 0.5232825 0.8438523
vn 0.1867919 0.260462 0.9472424
vn 0.2012803 0.3021828 0.9317574
vn 0.3319558 0.2443183 0.9111059
vn 0.09734599 0.3236751 0.9411473
vn -0.6310524 0.02492675 0.7753397
vn -0.511682 0.139002 0.8478562
vn -0.7278406 -0.01577384 0.6855649
vn -0.9610719 0.09812136 0.2582887
vn -0.7491235 0.6509666 -0.1227046
vn -0.8698166 0.3663826 -0.3304283
vn -0.5617239 0.4186743 0.7135672
vn -0.4594957 0.6940975 0.5541593
vn -0.3610393 0.5803381 0.7299715
vn -0.3083229 0.516482 0.7988638
vn -0.7491235 0.6509666 -0.1227046
vn -0.6750043 0.5229502 -0.5204732
vn -0.8698166 0.3663826 -0.3304283
vn -0.7206482 0.6502006 -0.2406349
vn -0.6096984 0.519523 -0.5986349
vn -0.7206482 0.6502006 -0.2406349
vn -0.3635393 0.6301702 -0.6860937
vn -0.03069978 0.7054366 -0.7081078
vn 0.01881571 0.6373161 -0.7703727
vn -0.1734765 0.7388812 -0.6511225
vn -0.0796777 0.9045953 -0.4187586
vn -0.2055825 0.6791103 0.7046595
vn -0.4847581 0.7449453 0.4583296
vn -0.0796777 0.9045953 -0.4187586
vn -0.4847581 0.7449453 0.4583296
vn -0.0796777 0.9045953 -0.4187586
vn 0.3691503 0.4059962 0.8359994
vn 0.5460605 0.7711551 0.327319
vn -0.0796777 0.9045953 -0.4187586
vn 0.5124609 0.608922 0.6054733
vn 0.348992 0.5770361 -0.7383996
vn 0.3740702 0.6511642 -0.6603459
vn 0.4523973 0.5814601 -0.6761959
vn -0.0796777 0.9045953 -0.4187586
vn 0.5537318 0.6177279 -0.5583845
vn 0.7192901 0.6068256 0.3382077
vn 0.9134215 0.4047 0.04334936
vn 0.6310354 0.7485744 -0.2035449
vn -0.0796777 0.9045953 -0.4187586
vn 0.05893511 0.3256551 0.94365
vn 0.9111418 0.1074616 0.3978349
vn 0.5471787 0.3885967 0.741342
vn 0.7944521 0.1485526 0.5888786
vn 0.5237746 0.2373123 0.8181339
vn 0.151117 0.4689025 0.8702265
vn 0.9652359 0.1254334 0.2293162
vn 0.92216 0.1483745 0.3572198
vn 0.9863243 0.04904332 0.1573503
vn 0.9926305 -0.1211664 0.001862924
vn 0.8410286 -0.4241013 0.3358706
vn 0.8692029 -0.4469757 0.2114215
vn 0.9473961 0.09922445 0.3042946
vn 0.8446845 -0.1592604 0.5110227
vn 0.628984 0.1210248 0.7679402
vn 0.8429093 0.2040311 0.4978707
vn 0.7538416 0.4440349 -0.4843096
vn 0.9642456 0.1494809 -0.2188283
vn 0.5996903 0.4530146 -0.6596584
vn 0.4154122 0.4669853 -0.7806135
vn 0.5248745 -0.2999515 -0.7965776
vn 0.3901425 -0.07878851 -0.9173774
vn 0.8146212 -0.08097818 -0.5743124
vn 0.6762954 -0.2207766 -0.7027676
vn 0.8915163 -0.2999286 -0.3394725
vn 0.9320312 -0.1228793 -0.3409083
vn 0.3246634 0.4570353 -0.8280776
vn 0.3697971 0.4062023 -0.8356135
vn 0.3455294 0.295659 -0.890615
vn 0.0355619 0.7631274 -0.645269
vn -0.05213912 0.4569387 -0.8879687
vn 0.4391896 0.501092 -0.745667
vn -0.159578 0.4669475 -0.8697672
vn 0.5513439 0.103044 -0.82789
vn -0.4246927 0.3411723 -0.8385926
vn -0.4804366 0.1094274 -0.870176
vn -0.5852804 -0.08064064 -0.8068109
vn -0.3483841 -0.02681847 -0.936968
vn -0.1722202 0.220527 -0.9600563
vn -0.2107577 0.0607151 -0.975651
vn -0.005095518 -0.05286108 -0.9985889
vn 0.2112926 0.6042333 -0.7682822
vn -0.5233268 0.03003903 -0.8516024
vn -0.2327067 -0.04083724 -0.9716892
vn -0.4848417 -0.2132452 -0.8482069
vn -0.4892696 -0.6128918 -0.6204666
vn 0.2027945 -0.3787822 -0.9029942
vn -0.294771 -0.8692151 -0.3969574
vn 0.08349838 -0.1987325 -0.9764903
vn 0.3232811 -0.2404305 -0.9152499
vn 0.3007828 -0.31775 -0.8992023
vn 0.2248843 -0.1909419 -0.9554937
vn -0.003284161 -0.9328722 -0.3601924
vn 0.4377577 -0.3481424 -0.8289542
vn 0.5004422 -0.7564298 -0.4211552
vn 0.8200983 -0.5663357 0.0818687
vn 0.6983497 -0.3114267 -0.6444541
vn 0.4415499 -0.1993386 -0.874813
vn -0.336178 -0.9318858 -0.1362832
vn -0.2076882 -0.9677113 -0.1428307
vn -0.700569 -0.7135779 0.003096916
vn -0.3476354 -0.9241621 0.1583474
vn 0.2756197 -0.9010025 0.3350047
vn -0.369843 -0.8465988 0.3827357
vn -0.2376215 -0.9565629 0.1688888
vn 0.5111907 -0.7531958 0.4139807
vn -0.700569 -0.7135779 0.003096916
vn 0.7853099 -0.5366835 0.3086408
vn 0.6148942 -0.7537447 0.2318922
vn -0.700569 -0.7135779 0.003096916
vn -0.5470403 -0.8140464 -0.195129
vn -0.6831073 -0.7176659 0.1353521
vn -0.2544243 -0.9341899 0.2501151
vn -0.700569 -0.7135779 0.003096916
vn -0.7034659 -0.7101468 -0.02876203
vn -0.6547205 -0.6995304 0.2863536
vn -0.9118491 -0.4039308 0.07328787
vn -0.6547205 -0.6995304 0.2863536
vn -0.1955561 -0.9760637 -0.09517118
vn -0.5705082 -0.8206161 -0.03331136
vn -0.1955561 -0.9760637 -0.09517118
vn -0.546909 -0.8012571 0.2426469
vn -0.5994515 -0.7383299 -0.3090743
vn -0.700569 -0.7135779 0.003096916
vn -0.5994515 -0.7383299 -0.3090743
vn -0.700569 -0.7135779 0.003096916
vn -0.8731722 -0.3091751 0.3768037
vn -0.9118491 -0.4039308 0.07328787
vn -0.7743576 -0.4221901 0.4713021
vn -0.834816 -0.2294593 0.5004306
vn -0.749055 -0.09970556 0.6549622
vn -0.6088393 -0.04464791 0.7920361
vn -0.7416191 -0.3231015 0.5878832
vn -0.6320843 -0.3400566 0.6962981
vn -0.6282477 -0.5869976 0.5106258
vn -0.6753105 -0.5375594 0.5049609
vn -0.4346548 0.01482777 0.9004751
vn 0.3423098 0.06584862 0.9372768
vn 0.05634541 0.05259518 0.9970251
vn 0.2866435 -0.3406506 0.8954288
vn -0.02133282 -0.718843 0.6948451
vn -0.252231 -0.3927664 0.8843722
vn 0.5439623 -0.5734879 0.6125492
vn 0.5869815 -0.4907298 0.6439231
vn 0.7305036 -0.4936046 0.4719311
vn -0.9768533 -0.03431431 -0.21114
vn -0.9447277 -0.1136004 0.3075462
vn -0.9959244 -0.08450321 -0.03152295
vn -0.8256538 -0.08973107 0.5569955
vn -0.9859218 -0.1660589 -0.01955999
vn -0.9299405 -0.1357458 0.3417365
vn -0.7806636 0.3415764 -0.523345
vn -0.9768533 -0.03431431 -0.21114
vn -0.9263001 0.1750751 -0.3336416
vn -0.9959244 -0.08450321 -0.03152295
vn -0.7493333 0.247682 -0.6141279
vn -0.9859218 -0.1660589 -0.01955999
vn -0.9225826 -0.2304961 -0.3093749
vn -0.9454214 -0.1088683 -0.3071255
vn -0.8823934 -0.1618369 -0.4418038
vn -0.678401 -0.006098716 -0.7346665
vn -0.6446368 0.1401736 -0.7515283
vn -0.8452954 -0.02630785 -0.5336512
vn -0.7052133 0.3728583 -0.6030347
vn -0.6710418 0.3357829 -0.661024
vn -0.5573581 0.4306154 -0.7098749
vn -0.6595609 -0.5635114 -0.4974277
vn -0.7098427 -0.2521861 -0.6576667
vn -0.8227684 -0.4629077 -0.3298009

vt 0.7977001 0.5
vt 0.8253705 0.4232277
vt 0.8381041 0.5
vt 0.776927 0.4153324
vt 0.8080699 0.3333333
vt 0.75 0.5
vt 0.7839398 0.2457124
vt 0.7160602 0.2457124
vt 0.75 0.1762082
vt 0.75 0.3237918
vt 0.6919301 0.3333333
vt 0.6746295 0.4232277
vt 0.7022999 0.5
vt 0.6618959 0.5
vt 0.723073 0.4153324
vt 0.8710343 0.4528384
vt 0.862502 0.3601596
vt 0.9118959 0.4
vt 0.9570821 0.3539629
vt 0.9676646 0.2612329
vt 1 0.3237918
vt 0.9118959 0.3
vt 0.9118959 0.2
vt 0.8287221 0.1678328
vt 0.8496938 0.2584051
vt -0.0323354 0.2612329
vt 0.03233537 0.2612329
vt 0 0.3237918
vt 0 0.1762082
vt 0.08810409 0.2
vt 1 0.1762082
vt 0.1712779 0.1678328
vt 0.25 0.09540019
vt 0.25 0.1762082
vt 0.08810409 0.09999997
vt 0.169052 0
vt 0.75 0.09540019
vt 0.9118959 0.09999997
vt 0.830948 0
vt -0.08810407 0.09999997
vt 1.117587E-08 0
vt 0.6712779 0.1678328
vt 0.5881041 0.09999997
vt 0.669052 0
vt 0.5881041 0.2
vt 0.3287221 0.1678328
vt 0.4118959 0.09999997
vt 0.4118959 0.2
vt 0.3309479 0
vt 0.4676647 0.2612329
vt 0.5323353 0.2612329
vt 0.5 0.3237918
vt 0.5 0.1762082
vt 0.5 0
vt 0.6503062 0.2584051
vt 0.5429179 0.3539629
vt 0.5881041 0.3
vt 0.5881041 0.4
vt 0.6289657 0.4528384
vt 0.637498 0.3601596
vt 0.5 0.4045998
vt 0.5429179 0.4480572
vt 0.5 0.5
vt 0.5 0.5954002
vt 0.5429179 0.646037
vt 0.5 0.6762082
vt 0.5429179 0.5519428
vt 0.5881041 0.6
vt 0.6289657 0.5471615
vt 0.5881041 0.5
vt 0.4570821 0.3539629
vt 0.4570821 0.4480572
vt 0.4118959 0.4
vt 0.3710343 0.4528384
vt 0.3710343 0.5471615
vt 0.3381041 0.5
vt 0.4118959 0.5
vt 0.4118959 0.6
vt 0.4570821 0.646037
vt 0.4570821 0.5519428
vt 0.2839398 0.2457124
vt 0.3496938 0.2584051
vt 0.3080699 0.3333333
vt 0.3253705 0.4232277
vt 0.362502 0.3601596
vt 0.4118959 0.3
vt 0.2160602 0.2457124
vt 0.25 0.3237918
vt 0.1919301 0.3333333
vt 0.1746295 0.4232277
vt 0.2022999 0.5
vt 0.1618959 0.5
vt 0.223073 0.4153324
vt 0.25 0.5
vt 0.2977001 0.5
vt 0.276927 0.4153324
vt 0.1746295 0.5767723
vt 0.223073 0.5846676
vt 0.1919301 0.6666667
vt 0.2160602 0.7542875
vt 0.2839398 0.7542875
vt 0.25 0.8237918
vt 0.25 0.6762082
vt 0.3080699 0.6666667
vt 0.3253705 0.5767723
vt 0.276927 0.5846676
vt 0.3287221 0.8321671
vt 0.3496938 0.7415949
vt 0.4118959 0.8
vt 0.4676647 0.738767
vt 0.4118959 0.7
vt 0.362502 0.6398403
vt 0.25 0.9045998
vt 0.4118959 0.9
vt 0.3309479 1
vt 0.75 0.9045998
vt 0.6712779 0.8321671
vt 0.75 0.8237918
vt 0.5881041 0.9
vt 0.5881041 0.8
vt 0.669052 1
vt 0.5323353 0.738767
vt 0.5 0.8237918
vt 0.5 1
vt 0.1712779 0.8321671
vt 0.08810409 0.9
vt 0.08810409 0.8
vt 0.169052 1
vt 0.03233537 0.738767
vt -0.0323354 0.738767
vt 0 0.6762082
vt 0.9676646 0.738767
vt 1 0.8237918
vt 0.9118959 0.8
vt 0 0.8237918
vt 0.8287221 0.8321671
vt 0.9118959 0.9
vt 0.830948 1
vt -0.08810407 0.9
vt 1.117587E-08 1
vt 0.9570821 0.646037
vt 1 0.6762082
vt 0.9118959 0.7
vt 0.9118959 0.6
vt 0.8710343 0.5471615
vt 0.8253705 0.5767723
vt 0.862502 0.6398403
vt 0.8080699 0.6666667
vt 0.7839398 0.7542875
vt 0.8496938 0.7415949
vt 0.776927 0.5846676
vt 0.6746295 0.5767723
vt 0.723073 0.5846676
vt 0.6919301 0.6666667
vt 0.7160602 0.7542875
vt 0.75 0.6762082
vt 0.6503062 0.7415949
vt 0.637498 0.6398403
vt 0.5881041 0.7
vt 1 0.4045998
vt 0.9570821 0.4480572
vt 1 0.5
vt 0.9118959 0.5
vt 1 0.5954002
vt 0.9570821 0.5519428
vt 0.04291791 0.3539629
vt 0 0.4045998
vt 0.04291791 0.4480572
vt 0 0.5
vt 0.08810409 0.4
vt 0 0.5954002
vt 0.04291791 0.646037
vt 0.04291791 0.5519428
vt 0.08810409 0.6
vt 0.1289657 0.5471615
vt 0.1289657 0.4528384
vt 0.08810409 0.5
vt 0.08810413 0.3
vt 0.1374981 0.3601596
vt 0.1503062 0.2584051
vt 0.1503062 0.7415949
vt 0.1374981 0.6398403
vt 0.08810413 0.7

usemtl ground (Instance)
usemap ground (Instance)
f 1/1/1 2/2/2 3/3/3
f 2/2/2 4/4/4 5/5/5
f 4/4/4 1/1/1 6/6/6
f 1/1/1 4/4/4 2/2/2
f 7/7/7 8/8/8 9/9/9
f 8/8/8 10/10/10 11/11/11
f 10/10/10 7/7/7 5/5/5
f 7/7/7 10/10/10 8/8/8
f 12/12/12 13/13/13 14/14/14
f 13/13/13 15/15/15 6/6/6
f 15/15/15 12/12/12 11/11/11
f 12/12/12 15/15/15 13/13/13
f 4/4/4 10/10/10 5/5/5
f 10/10/10 15/15/15 11/11/11
f 15/15/15 4/4/4 6/6/6
f 4/4/4 15/15/15 10/10/10
f 2/2/2 16/16/16 3/3/3
f 16/16/16 17/17/17 18/18/18
f 17/17/17 2/2/2 5/5/5
f 2/2/2 17/17/17 16/16/16
f 19/19/19 20/20/20 21/21/21
f 20/20/20 22/22/22 23/23/23
f 22/22/22 19/19/19 18/18/18
f 19/19/19 22/22/22 20/20/20
f 24/24/24 7/7/7 9/9/9
f 7/7/7 25/25/25 5/5/5
f 25/25/25 24/24/24 23/23/23
f 24/24/24 25/25/25 7/7/7
f 17/17/17 22/22/22 18/18/18
f 22/22/22 25/25/25 23/23/23
f 25/25/25 17/17/17 5/5/5
f 17/17/17 25/25/25 22/22/22
f 26/26/26 27/27/27 28/28/28
f 27/27/27 29/29/29 30/30/30
f 31/31/31 20/20/20 23/23/23
f 26/26/26 29/29/29 27/27/27
f 32/32/32 33/33/33 34/34/34
f 33/33/33 35/35/35 36/36/36
f 35/35/35 32/32/32 30/30/30
f 32/32/32 35/35/35 33/33/33
f 37/37/37 24/24/24 9/9/9
f 24/24/24 38/38/38 23/23/23
f 38/38/38 37/37/37 39/39/39
f 37/37/37 38/38/38 24/24/24
f 29/29/29 35/35/35 30/30/30
f 35/35/35 40/40/40 41/41/41
f 38/38/38 31/31/31 23/23/23
f 29/29/29 40/40/40 35/35/35
f 42/42/42 37/37/37 9/9/9
f 37/37/37 43/43/43 44/44/44
f 43/43/43 42/42/42 45/45/45
f 42/42/42 43/43/43 37/37/37
f 33/33/33 46/46/46 34/34/34
f 46/46/46 47/47/47 48/48/48
f 47/47/47 33/33/33 49/49/49
f 33/33/33 47/47/47 46/46/46
f 50/50/50 51/51/51 52/52/52
f 51/51/51 53/53/53 45/45/45
f 53/53/53 50/50/50 48/48/48
f 50/50/50 53/53/53 51/51/51
f 43/43/43 47/47/47 54/54/54
f 47/47/47 53/53/53 48/48/48
f 53/53/53 43/43/43 45/45/45
f 43/43/43 53/53/53 47/47/47
f 8/8/8 42/42/42 9/9/9
f 42/42/42 55/55/55 45/45/45
f 55/55/55 8/8/8 11/11/11
f 8/8/8 55/55/55 42/42/42
f 51/51/51 56/56/56 52/52/52
f 56/56/56 57/57/57 58/58/58
f 57/57/57 51/51/51 45/45/45
f 51/51/51 57/57/57 56/56/56
f 59/59/59 12/12/12 14/14/14
f 12/12/12 60/60/60 11/11/11
f 60/60/60 59/59/59 58/58/58
f 59/59/59 60/60/60 12/12/12
f 55/55/55 57/57/57 45/45/45
f 57/57/57 60/60/60 58/58/58
f 60/60/60 55/55/55 11/11/11
f 55/55/55 60/60/60 57/57/57
f 56/56/56 61/61/61 52/52/52
f 61/61/61 62/62/62 63/63/63
f 62/62/62 56/56/56 58/58/58
f 56/56/56 62/62/62 61/61/61
f 64/64/64 65/65/65 66/66/66
f 65/65/65 67/67/67 68/68/68
f 67/67/67 64/64/64 63/63/63
f 64/64/64 67/67/67 65/65/65
f 69/69/69 59/59/59 14/14/14
f 59/59/59 70/70/70 58/58/58
f 70/70/70 69/69/69 68/68/68
f 69/69/69 70/70/70 59/59/59
f 62/62/62 67/67/67 63/63/63
f 67/67/67 70/70/70 68/68/68
f 70/70/70 62/62/62 58/58/58
f 62/62/62 70/70/70 67/67/67
f 61/61/61 71/71/71 52/52/52
f 71/71/71 72/72/72 73/73/73
f 72/72/72 61/61/61 63/63/63
f 61/61/61 72/72/72 71/71/71
f 74/74/74 75/75/75 76/76/76
f 75/75/75 77/77/77 78/78/78
f 77/77/77 74/74/74 73/73/73
f 74/74/74 77/77/77 75/75/75
f 79/79/79 64/64/64 66/66/66
f 64/64/64 80/80/80 63/63/63
f 80/80/80 79/79/79 78/78/78
f 79/79/79 80/80/80 64/64/64
f 72/72/72 77/77/77 73/73/73
f 77/77/77 80/80/80 78/78/78
f 80/80/80 72/72/72 63/63/63
f 72/72/72 80/80/80 77/77/77
f 46/46/46 81/81/81 34/34/34
f 81/81/81 82/82/82 83/83/83
f 82/82/82 46/46/46 48/48/48
f 46/46/46 82/82/82 81/81/81
f 84/84/84 74/74/74 76/76/76
f 74/74/74 85/85/85 73/73/73
f 85/85/85 84/84/84 83/83/83
f 84/84/84 85/85/85 74/74/74
f 71/71/71 50/50/50 52/52/52
f 50/50/50 86/86/86 48/48/48
f 86/86/86 71/71/71 73/73/73
f 71/71/71 86/86/86 50/50/50
f 82/82/82 85/85/85 83/83/83
f 85/85/85 86/86/86 73/73/73
f 86/86/86 82/82/82 48/48/48
f 82/82/82 86/86/86 85/85/85
f 81/81/81 87/87/87 34/34/34
f 87/87/87 88/88/88 89/89/89
f 88/88/88 81/81/81 83/83/83
f 81/81/81 88/88/88 87/87/87
f 90/90/90 91/91/91 92/92/92
f 91/91/91 93/93/93 94/94/94
f 93/93/93 90/90/90 89/89/89
f 90/90/90 93/93/93 91/91/91
f 95/95/95 84/84/84 76/76/76
f 84/84/84 96/96/96 83/83/83
f 96/96/96 95/95/95 94/94/94
f 95/95/95 96/96/96 84/84/84
f 88/88/88 93/93/93 89/89/89
f 93/93/93 96/96/96 94/94/94
f 96/96/96 88/88/88 83/83/83
f 88/88/88 96/96/96 93/93/93
f 91/91/91 97/97/97 92/92/92
f 97/97/97 98/98/98 99/99/99
f 98/98/98 91/91/91 94/94/94
f 91/91/91 98/98/98 97/97/97
f 100/100/100 101/101/101 102/102/102
f 101/101/101 103/103/103 104/104/104
f 103/103/103 100/100/100 99/99/99
f 100/100/100 103/103/103 101/101/101
f 105/105/105 95/95/95 76/76/76
f 95/95/95 106/106/106 94/94/94
f 106/106/106 105/105/105 104/104/104
f 105/105/105 106/106/106 95/95/95
f 98/98/98 103/103/103 99/99/99
f 103/103/103 106/106/106 104/104/104
f 106/106/106 98/98/98 94/94/94
f 98/98/98 106/106/106 103/103/103
f 101/101/101 107/107/107 102/102/102
f 107/107/107 108/108/108 109/109/109
f 108/108/108 101/101/101 104/104/104
f 101/101/101 108/108/108 107/107/107
f 110/110/110 79/79/79 66/66/66
f 79/79/79 111/111/111 78/78/78
f 111/111/111 110/110/110 109/109/109
f 110/110/110 111/111/111 79/79/79
f 75/75/75 105/105/105 76/76/76
f 105/105/105 112/112/112 104/104/104
f 112/112/112 75/75/75 78/78/78
f 75/75/75 112/112/112 105/105/105
f 108/108/108 111/111/111 109/109/109
f 111/111/111 112/112/112 78/78/78
f 112/112/112 108/108/108 104/104/104
f 108/108/108 112/112/112 111/111/111
f 107/107/107 113/113/113 102/102/102
f 113/113/113 114/114/114 115/115/115
f 114/114/114 107/107/107 109/109/109
f 107/107/107 114/114/114 113/113/113
f 116/116/116 117/117/117 118/118/118
f 117/117/117 119/119/119 120/120/120
f 119/119/119 116/116/116 121/121/121
f 116/116/116 119/119/119 117/117/117
f 122/122/122 110/110/110 66/66/66
f 110/110/110 123/123/123 109/109/109
f 123/123/123 122/122/122 120/120/120
f 122/122/122 123/123/123 110/110/110
f 114/114/114 119/119/119 124/124/124
f 119/119/119 123/123/123 120/120/120
f 123/123/123 114/114/114 109/109/109
f 114/114/114 123/123/123 119/119/119
f 113/113/113 125/125/125 102/102/102
f 125/125/125 126/126/126 127/127/127
f 126/126/126 113/113/113 128/128/128
f 113/113/113 126/126/126 125/125/125
f 129/129/129 130/130/130 131/131/131
f 132/132/132 133/133/133 134/134/134
f 135/135/135 129/129/129 127/127/127
f 129/129/129 135/135/135 130/130/130
f 136/136/136 116/116/116 118/118/118
f 116/116/116 137/137/137 138/138/138
f 137/137/137 136/136/136 134/134/134
f 136/136/136 137/137/137 116/116/116
f 126/126/126 135/135/135 127/127/127
f 133/133/133 137/137/137 134/134/134
f 139/139/139 126/126/126 140/140/140
f 126/126/126 139/139/139 135/135/135
f 132/132/132 141/141/141 142/142/142
f 141/141/141 143/143/143 144/144/144
f 143/143/143 132/132/132 134/134/134
f 132/132/132 143/143/143 141/141/141
f 145/145/145 146/146/146 3/3/3
f 146/146/146 147/147/147 148/148/148
f 147/147/147 145/145/145 144/144/144
f 145/145/145 147/147/147 146/146/146
f 149/149/149 136/136/136 118/118/118
f 136/136/136 150/150/150 134/134/134
f 150/150/150 149/149/149 148/148/148
f 149/149/149 150/150/150 136/136/136
f 143/143/143 147/147/147 144/144/144
f 147/147/147 150/150/150 148/148/148
f 150/150/150 143/143/143 134/134/134
f 143/143/143 150/150/150 147/147/147
f 146/146/146 1/1/1 3/3/3
f 1/1/1 151/151/151 6/6/6
f 151/151/151 146/146/146 148/148/148
f 146/146/146 151/151/151 1/1/1
f 13/13/13 152/152/152 14/14/14
f 152/152/152 153/153/153 154/154/154
f 153/153/153 13/13/13 6/6/6
f 13/13/13 153/153/153 152/152/152
f 155/155/155 149/149/149 118/118/118
f 149/149/149 156/156/156 148/148/148
f 156/156/156 155/155/155 154/154/154
f 155/155/155 156/156/156 149/149/149
f 151/151/151 153/153/153 6/6/6
f 153/153/153 156/156/156 154/154/154
f 156/156/156 151/151/151 148/148/148
f 151/151/151 156/156/156 153/153/153
f 117/117/117 155/155/155 118/118/118
f 155/155/155 157/157/157 154/154/154
f 157/157/157 117/117/117 120/120/120
f 117/117/117 157/157/157 155/155/155
f 152/152/152 69/69/69 14/14/14
f 69/69/69 158/158/158 68/68/68
f 158/158/158 152/152/152 154/154/154
f 152/152/152 158/158/158 69/69/69
f 65/65/65 122/122/122 66/66/66
f 122/122/122 159/159/159 120/120/120
f 159/159/159 65/65/65 68/68/68
f 65/65/65 159/159/159 122/122/122
f 157/157/157 158/158/158 154/154/154
f 158/158/158 159/159/159 68/68/68
f 159/159/159 157/157/157 120/120/120
f 157/157/157 159/159/159 158/158/158
f 160/160/160 19/19/19 21/21/21
f 19/19/19 161/161/161 18/18/18
f 161/161/161 160/160/160 162/162/162
f 160/160/160 161/161/161 19/19/19
f 16/16/16 145/145/145 3/3/3
f 145/145/145 163/163/163 144/144/144
f 163/163/163 16/16/16 18/18/18
f 16/16/16 163/163/163 145/145/145
f 141/141/141 164/164/164 142/142/142
f 164/164/164 165/165/165 162/162/162
f 165/165/165 141/141/141 144/144/144
f 141/141/141 165/165/165 164/164/164
f 161/161/161 163/163/163 18/18/18
f 163/163/163 165/165/165 144/144/144
f 165/165/165 161/161/161 162/162/162
f 161/161/161 165/165/165 163/163/163
f 166/166/166 167/167/167 28/28/28
f 167/167/167 168/168/168 169/169/169
f 168/168/168 166/166/166 170/170/170
f 166/166/166 168/168/168 167/167/167
f 171/171/171 172/172/172 131/131/131
f 172/172/172 173/173/173 174/174/174
f 173/173/173 171/171/171 169/169/169
f 171/171/171 173/173/173 172/172/172
f 175/175/175 176/176/176 92/92/92
f 176/176/176 177/177/177 170/170/170
f 177/177/177 175/175/175 174/174/174
f 175/175/175 177/177/177 176/176/176
f 168/168/168 173/173/173 169/169/169
f 173/173/173 177/177/177 174/174/174
f 177/177/177 168/168/168 170/170/170
f 168/168/168 177/177/177 173/173/173
f 27/27/27 166/166/166 28/28/28
f 166/166/166 178/178/178 170/170/170
f 178/178/178 27/27/27 30/30/30
f 27/27/27 178/178/178 166/166/166
f 176/176/176 90/90/90 92/92/92
f 90/90/90 179/179/179 89/89/89
f 179/179/179 176/176/176 170/170/170
f 176/176/176 179/179/179 90/90/90
f 87/87/87 32/32/32 34/34/34
f 32/32/32 180/180/180 30/30/30
f 180/180/180 87/87/87 89/89/89
f 87/87/87 180/180/180 32/32/32
f 178/178/178 179/179/179 170/170/170
f 179/179/179 180/180/180 89/89/89
f 180/180/180 178/178/178 30/30/30
f 178/178/178 180/180/180 179/179/179
f 125/125/125 100/100/100 102/102/102
f 100/100/100 181/181/181 99/99/99
f 181/181/181 125/125/125 127/127/127
f 125/125/125 181/181/181 100/100/100
f 97/97/97 175/175/175 92/92/92
f 175/175/175 182/182/182 174/174/174
f 182/182/182 97/97/97 99/99/99
f 97/97/97 182/182/182 175/175/175
f 172/172/172 129/129/129 131/131/131
f 129/129/129 183/183/183 127/127/127
f 183/183/183 172/172/172 174/174/174
f 172/172/172 183/183/183 129/129/129
f 181/181/181 182/182/182 99/99/99
f 182/182/182 183/183/183 174/174/174
f 183/183/183 181/181/181 127/127/127
f 181/181/181 183/183/183 182/182/182
