g object
v -60.07826 -2.526249E-05 194.4173
v -87.81867 56.31511 171.3665
v -106.4179 -2.873233E-05 172.1878
v -33.71695 64.85631 197.3824
v -61.33807 118.102 160.5852
v 0 -2.897577E-05 204.1339
v -30.68554 177.1738 141.7068
v 29.18478 168.6845 134.7763
v 0 211.7727 110.0741
v 0 121.7216 165.5139
v 53.22182 102.345 139.3365
v 79.56944 51.05015 155.2692
v 57.76211 -2.425932E-05 186.9221
v 106.5068 -2.877122E-05 172.3317
v 30.87357 59.40425 180.737
v -120.9161 31.16764 127.0972
v -98.99619 85.38211 115.9067
v -126.2386 57.35553 78.01977
v -139.2746 84.96993 38.49457
v -124.869 141.2421 25.72443
v -156.9657 115.3445 0
v -119.3536 121.5893 73.76461
v -102.8515 197.9624 63.56573
v -49.55836 213.5007 91.88626
v -83.2198 160.0745 115.007
v -124.869 141.2421 25.72443
v -124.8197 141.3973 -25.71427
v -156.9657 115.3445 0
v -90.49685 174.2762 0
v -97.92079 188.4169 -60.51837
v -90.49685 174.2762 0
v -49.61667 213.752 -91.99438
v 0 235.4078 -61.09327
v 0 210.1256 -109.0368
v -54.59433 235.196 -33.74115
v 0 240.767 0
v 0 233.8703 60.75226
v -54.78417 235.8736 33.85848
v 0 240.767 0
v -54.78417 235.8736 33.85848
v 0 240.767 0
v 47.94431 206.5844 88.89364
v 47.83993 205.7891 29.5667
v 0 240.767 0
v 94.23544 181.341 58.2407
v 48.97903 210.9362 -90.81212
v 50.01759 215.4296 -30.91257
v 91.10273 175.4339 -56.30458
v 0 240.767 0
v 126.5268 143.4411 -26.06595
v 140.3286 158.84 28.90929
v 163.6083 120.4002 0
v 94.24597 181.3754 0
v 0 240.767 0
v 78.99503 151.9223 109.1684
v 169.05 103.237 46.72426
v 122.1342 124.1391 75.48312
v 140.1841 63.7031 86.63855
v 123.3294 31.79944 129.6339
v 96.14292 82.70121 112.5661
v 186.2658 68.58688 0
v 191.8429 39.00111 53.02407
v 171.1564 -2.433796E-05 0
v 150.4182 -55.26506 0
v 142.6253 -87.08238 39.42066
v 125.7496 -92.50536 0
v 152.9289 -31.10564 42.26851
v 159.2205 -72.41585 98.40366
v 140.9505 -36.33364 148.1557
v 147.8809 -2.471868E-05 91.39539
v 155.1247 94.65672 -42.8754
v 147.6405 30.08143 -40.80682
v 133.6953 60.80657 -82.62821
v 105.6754 27.2344 -111.0774
v 97.28167 -25.08324 -102.2546
v 88.75574 -2.392005E-05 -143.6098
v 117.464 -1.960078E-05 -72.59676
v 113.3916 -51.57217 -70.07983
v 127.1468 -77.54693 -35.1425
v 136.9942 -27.82523 -37.86427
v 30.24658 174.623 -139.6797
v 74.11048 142.5301 -102.4182
v 56.15572 108.3328 -147.0176
v 86.70131 55.59911 -169.1861
v 98.44698 84.76762 -115.2637
v 107.52 109.1318 -66.45102
v -30.80458 177.9174 -142.2566
v 0 130.0296 -176.6933
v -64.79631 124.6502 -169.639
v -89.33361 57.35598 -174.3227
v -47.09124 -1.97903E-05 -152.3905
v -90.81873 -2.449269E-05 -146.9478
v -33.57761 64.59299 -196.5667
v 0 -2.652656E-05 -187.0141
v 58.99334 -2.481722E-05 -190.9065
v 33.32005 64.27471 -195.059
v -76.09071 -48.80103 -148.4809
v -27.84101 -53.63923 -162.9841
v -59.96849 -115.495 -156.9996
v -26.8147 -154.8279 -123.8312
v 25.43274 -146.9982 -117.4493
v 0 -191.2392 -99.3669
v 0 -108.981 -148.1634
v 57.38519 -110.6293 -150.2364
v 76.76115 -49.29667 -149.7892
v 30.73006 -59.15232 -179.8969
v 48.97155 -210.9727 -90.79826
v 81.81637 -157.3693 -113.0674
v 95.79682 -184.5647 -59.20569
v 113.6276 -128.4807 -23.40858
v 110.3392 -112.3867 -68.19338
v 93.98637 -80.88691 -110.0412
v 0 -238.1392 -61.89226
v 54.43451 -234.5075 -33.64238
v 0 -249.1607 0
v 0 -224.086 58.24239
v 45.20835 -195.0667 83.82089
v 0 -165.4069 85.79854
v 54.45081 -234.5221 33.65245
v 100.9236 -194.3497 62.37421
v 0 -249.1607 0
v 119.0671 -134.7943 24.52917
v 99.86857 -192.4481 0
v 0 -249.1607 0
v -49.75526 -214.2533 -92.25134
v -49.24168 -212.1364 -30.43303
v -98.81077 -190.2796 -61.06841
v 0 -249.1607 0
v -144.8143 -163.8316 -29.83338
v -135.4154 -153.1898 27.8971
v -137.6307 -101.2106 0
v -135.4154 -153.1898 27.8971
v -92.85772 -178.6071 0
v -81.84496 -157.4311 50.58296
v -92.85772 -178.6071 0
v -39.59843 -170.3351 73.41953
v -47.092 -203.0723 29.10446
v 0 -249.1607 0
v -47.092 -203.0723 29.10446
v 0 -249.1607 0
v -129.7322 -79.03248 35.8571
v -137.6307 -101.2106 0
v -110.4626 -112.2149 68.26964
v -120.6507 -54.87372 74.56621
v -121.2997 -31.22458 127.5004
v -76.98595 -49.42204 150.2279
v -89.4804 -77.18108 104.7655
v -45.50532 -87.67175 119.1345
v -22.09152 -127.618 102.0194
v -62.24593 -119.9025 86.02176
v -29.08554 -56.03699 170.2697
v 92.77958 -59.49406 181.047
v 30.74767 -59.23929 180
v 60.5995 -116.6405 158.6516
v 24.46533 -141.2947 112.9817
v 0 -102.5764 139.5551
v 84.5384 -162.8118 116.8292
v 120.7612 -104.1913 141.3897
v 136.6227 -138.8297 84.43747
v -138.1771 50.84265 0
v -129.6303 26.33752 35.82895
v -126.7374 -1.801826E-05 0
v -124.7893 -2.079925E-05 77.12405
v -130.7722 -48.02781 0
v -124.4868 -25.31364 34.40731
v -157.1811 95.83801 -43.44379
v -138.1771 50.84265 0
v -137.2498 27.91649 -37.9349
v -126.7374 -1.801826E-05 0
v -152.6997 69.36865 -94.37361
v -130.7722 -48.02781 0
v -140.8164 -85.88935 -38.92069
v -132.0772 -26.87323 -36.50525
v -140.4481 -63.82051 -86.80167
v -124.1408 -31.96776 -130.4867
v -138.1431 35.57225 -145.2048
v -143.1768 -2.388779E-05 -88.48811
v -142.183 144.5997 -87.87396
v -121.2696 104.5723 -141.9849
v -88.73692 170.8438 -122.6314
v -88.0828 -169.7026 -121.7274
v -113.9189 -97.98927 -133.3785
v -139.3579 -141.6433 -86.12791

vn -0.3347299 -0.2540897 0.9074108
vn -0.6990744 0.3595273 0.6180899
vn -0.6387963 -0.1329447 0.7578028
vn -0.06476587 0.3120647 0.9478508
vn -0.5677047 0.396993 0.7211851
vn 0.146277 -0.218833 0.9647358
vn -0.151912 0.5910847 0.7921753
vn 0.398809 0.3797089 0.834729
vn 0.05918891 0.7816311 0.6209263
vn 0.3635068 0.3599327 0.8592504
vn 0.5152923 0.3372362 0.7878741
vn 0.5141703 0.593459 0.6192215
vn 0.1263552 -0.2940261 0.9474086
vn 0.5720342 0.1680725 0.8028253
vn 0.4200374 0.449308 0.7884737
vn -0.9433172 0.2855936 0.1690828
vn -0.8243607 0.3321475 0.4583748
vn -0.9593664 0.05265581 0.2772063
vn -0.9428337 -0.1163354 0.3122992
vn -0.7087588 0.6985174 -0.09866256
vn -0.9810522 0.1535797 0.1181093
vn -0.831198 0.1454078 0.536625
vn -0.8017967 0.5713977 0.1750051
vn -0.3058479 0.789353 0.5323334
vn -0.7081332 0.3058554 0.636396
vn -0.7087588 0.6985174 -0.09866256
vn -0.5097778 0.8333228 0.2137748
vn -0.9810522 0.1535797 0.1181093
vn -0.8328939 0.5505838 -0.0560827
vn -0.7613072 0.6275623 0.1630244
vn -0.8328939 0.5505838 -0.0560827
vn -0.2975167 0.8214145 -0.4865821
vn 0.09255216 0.9486297 -0.3025486
vn 0.02374215 0.7862897 -0.6174018
vn -0.3938086 0.9109393 -0.1229003
vn 0.2676635 0.9630858 0.02867164
vn 0.1602478 0.9608554 0.2260031
vn -0.350572 0.9256687 0.1422564
vn 0.2676635 0.9630858 0.02867164
vn -0.350572 0.9256687 0.1422564
vn 0.2676635 0.9630858 0.02867164
vn 0.5205221 0.8082356 0.2753398
vn 0.6073226 0.7936408 0.03596674
vn 0.2676635 0.9630858 0.02867164
vn 0.5595092 0.795884 0.2313399
vn 0.6032423 0.5789623 -0.5485448
vn 0.5605008 0.8216251 0.1037837
vn 0.7761324 0.3773498 -0.5051986
vn 0.2676635 0.9630858 0.02867164
vn 0.6947923 0.5522326 -0.4607632
vn 0.6674307 0.7426975 0.05419165
vn 0.8103948 0.5299577 -0.2498105
vn 0.4986832 0.8647256 0.05970383
vn 0.2676635 0.9630858 0.02867164
vn 0.6219079 0.2870191 0.7285949
vn 0.7408217 0.3694133 0.5609963
vn 0.6113474 0.2636111 0.7461659
vn 0.5802488 0.4362063 0.6877758
vn 0.6436197 0.5673356 0.5136965
vn 0.6487745 0.3359489 0.6828103
vn 0.9304206 0.02476556 -0.365656
vn 0.9238593 -0.0427851 0.3803333
vn 0.8815178 -0.2367078 -0.408529
vn 0.8306726 -0.4792452 -0.2833848
vn 0.8460246 -0.4010285 -0.3513097
vn 0.8943396 -0.4224551 -0.1472697
vn 0.9719565 -0.2260947 0.064667
vn 0.9874675 0.01870121 0.1567105
vn 0.7375657 -0.02225287 0.6749086
vn 0.946752 -0.1653823 0.2762413
vn 0.7302986 0.3780127 -0.5690081
vn 0.803912 -0.2489279 -0.5401485
vn 0.8306186 -0.0001190329 -0.5568418
vn 0.8459784 -0.2967788 -0.4429932
vn 0.9208185 -0.1272955 -0.3686314
vn 0.8587064 -0.1151365 -0.4993665
vn 0.8225234 -0.2084611 -0.5291495
vn 0.8952925 -0.04711963 -0.4429798
vn 0.9260542 -0.3040002 -0.2236234
vn 0.8181366 -0.1627632 -0.5515077
vn 0.5940936 0.4158545 -0.6885622
vn 0.7289521 0.4214069 -0.5394859
vn 0.6360696 0.5282021 -0.5625105
vn 0.8036026 0.002782763 -0.5951598
vn 0.8018722 0.4363798 -0.4081343
vn 0.7671832 0.4751729 -0.4308601
vn -0.1686536 0.638075 -0.7512765
vn 0.07735138 0.415417 -0.9063363
vn -0.3386815 0.4276478 -0.8381004
vn -0.3198124 -0.2579327 -0.9116966
vn -0.3155018 -0.1872043 -0.9302759
vn -0.1476007 -0.1119381 -0.9826922
vn -0.2353234 -0.04919676 -0.9706712
vn -0.217859 -0.259387 -0.9408804
vn 0.4321427 -0.184641 -0.8827006
vn 0.1865285 0.1764549 -0.9664734
vn -0.3859443 -0.05907797 -0.9206285
vn -0.2486035 -0.07974951 -0.9653167
vn -0.2346986 -0.2110949 -0.9488707
vn 0.214924 -0.455395 -0.8639578
vn 0.04869415 -0.5347953 -0.8435775
vn 0.1547362 -0.4872226 -0.8594596
vn 0.002924688 -0.7052145 -0.708988
vn 0.3246911 -0.68145 -0.6558976
vn 0.8734598 -0.2213168 -0.4336898
vn -0.08523272 -0.1952635 -0.9770402
vn 0.1771156 -0.4999968 -0.8477225
vn 0.2680763 -0.4494136 -0.8521518
vn 0.8734217 -0.4406713 -0.2072279
vn 0.9762992 -0.208411 -0.05834967
vn 0.9577921 -0.1389568 -0.2516453
vn 0.8848087 0.03696552 -0.4644859
vn -0.006517403 -0.9287722 -0.3705937
vn 0.4008922 -0.8964825 -0.1886917
vn -0.1012179 -0.9935791 0.05055092
vn -0.2011672 -0.6425818 0.7393379
vn -0.09701884 -0.6032897 0.7915989
vn -0.1812096 -0.5892314 0.7873814
vn 0.3507997 -0.9101972 0.220183
vn 0.69784 -0.6784077 0.2297441
vn -0.1012179 -0.9935791 0.05055092
vn 0.9207224 -0.2972943 -0.2527574
vn 0.9002267 -0.4326675 -0.0488956
vn -0.1012179 -0.9935791 0.05055092
vn -0.2474465 -0.8076589 -0.535217
vn -0.6370328 -0.7644337 0.09914753
vn -0.4525917 -0.881807 0.1325793
vn -0.1012179 -0.9935791 0.05055092
vn -0.8471435 -0.5277551 0.0618256
vn -0.7582401 -0.4495568 0.4721976
vn -0.9878473 -0.03457695 0.1515322
vn -0.7582401 -0.4495568 0.4721976
vn -0.4643595 -0.8519556 0.2419542
vn -0.3603666 -0.8242924 0.4366669
vn -0.4643595 -0.8519556 0.2419542
vn -0.3661068 -0.3957039 0.8422495
vn -0.6940724 -0.6646681 0.2765501
vn -0.1012179 -0.9935791 0.05055092
vn -0.6940724 -0.6646681 0.2765501
vn -0.1012179 -0.9935791 0.05055092
vn -0.9834668 0.08250096 0.1612035
vn -0.9878473 -0.03457695 0.1515322
vn -0.6274034 -0.3377649 0.7016266
vn -0.9567487 -0.158473 0.2439638
vn -0.8800358 -0.4092269 0.240978
vn -0.3418438 -0.7187933 0.6053751
vn -0.4763553 -0.6421092 0.6006509
vn -0.4079457 -0.6268945 0.6637648
vn -0.3951514 -0.5368007 0.7454531
vn -0.3382288 -0.4777687 0.8107641
vn -0.3758486 -0.6231586 0.6858653
vn 0.2887741 -0.1422109 0.9467764
vn -0.007386875 0.002415732 0.9999698
vn -0.05822433 -0.6347612 0.7705116
vn -0.3596716 -0.6031367 0.7119427
vn -0.4568654 -0.6380222 0.61984
vn 0.09771207 -0.670312 0.7356182
vn 0.586606 -0.4206295 0.6920725
vn 0.8805035 -0.4724819 0.03839868
vn -0.9549237 -0.2472679 0.1642537
vn -0.9800481 -0.1605028 0.1172372
vn -0.9875163 -0.07404877 0.1390261
vn -0.9968102 -0.07370656 0.03060657
vn -0.9781319 0.123027 0.1676972
vn -0.9982961 0.03166173 0.04901293
vn -0.9872276 -0.1385592 0.07863215
vn -0.9549237 -0.2472679 0.1642537
vn -0.9762799 -0.177783 0.1235755
vn -0.9875163 -0.07404877 0.1390261
vn -0.9891284 -0.02603699 -0.1447319
vn -0.9781319 0.123027 0.1676972
vn -0.9801333 0.17309 0.09684242
vn -0.992528 -0.001651159 0.1220062
vn -0.9918157 -0.007453578 -0.1274605
vn -0.5631791 -0.2702353 -0.7808984
vn -0.7639492 -0.09532426 -0.6381966
vn -0.98953 -0.1087736 0.09486096
vn -0.801461 0.5020648 -0.3249478
vn -0.6391796 0.3014911 -0.7074974
vn -0.4842112 0.6252278 -0.61207
vn -0.4748569 -0.5785561 -0.663162
vn -0.5962576 -0.0457068 -0.8014911
vn -0.8777524 -0.3053699 -0.3691882

vt 0.7977001 0.5
vt 0.8253705 0.4232277
vt 0.8381041 0.5
vt 0.776927 0.4153324
vt 0.8080699 0.3333333
vt 0.75 0.5
vt 0.7839398 0.2457124
vt 0.7160602 0.2457124
vt 0.75 0.1762082
vt 0.75 0.3237918
vt 0.6919301 0.3333333
vt 0.6746295 0.4232277
vt 0.7022999 0.5
vt 0.6618959 0.5
vt 0.723073 0.4153324
vt 0.8710343 0.4528384
vt 0.862502 0.3601596
vt 0.9118959 0.4
vt 0.9570821 0.3539629
vt 0.9676646 0.2612329
vt 1 0.3237918
vt 0.9118959 0.3
vt 0.9118959 0.2
vt 0.8287221 0.1678328
vt 0.8496938 0.2584051
vt -0.0323354 0.2612329
vt 0.03233537 0.2612329
vt 0 0.3237918
vt 0 0.1762082
vt 0.08810409 0.2
vt 1 0.1762082
vt 0.1712779 0.1678328
vt 0.25 0.09540019
vt 0.25 0.1762082
vt 0.08810409 0.09999997
vt 0.169052 0
vt 0.75 0.09540019
vt 0.9118959 0.09999997
vt 0.830948 0
vt -0.08810407 0.09999997
vt 1.117587E-08 0
vt 0.6712779 0.1678328
vt 0.5881041 0.09999997
vt 0.669052 0
vt 0.5881041 0.2
vt 0.3287221 0.1678328
vt 0.4118959 0.09999997
vt 0.4118959 0.2
vt 0.3309479 0
vt 0.4676647 0.2612329
vt 0.5323353 0.2612329
vt 0.5 0.3237918
vt 0.5 0.1762082
vt 0.5 0
vt 0.6503062 0.2584051
vt 0.5429179 0.3539629
vt 0.5881041 0.3
vt 0.5881041 0.4
vt 0.6289657 0.4528384
vt 0.637498 0.3601596
vt 0.5 0.4045998
vt 0.5429179 0.4480572
vt 0.5 0.5
vt 0.5 0.5954002
vt 0.5429179 0.646037
vt 0.5 0.6762082
vt 0.5429179 0.5519428
vt 0.5881041 0.6
vt 0.6289657 0.5471615
vt 0.5881041 0.5
vt 0.4570821 0.3539629
vt 0.4570821 0.4480572
vt 0.4118959 0.4
vt 0.3710343 0.4528384
vt 0.3710343 0.5471615
vt 0.3381041 0.5
vt 0.4118959 0.5
vt 0.4118959 0.6
vt 0.4570821 0.646037
vt 0.4570821 0.5519428
vt 0.2839398 0.2457124
vt 0.3496938 0.2584051
vt 0.3080699 0.3333333
vt 0.3253705 0.4232277
vt 0.362502 0.3601596
vt 0.4118959 0.3
vt 0.2160602 0.2457124
vt 0.25 0.3237918
vt 0.1919301 0.3333333
vt 0.1746295 0.4232277
vt 0.2022999 0.5
vt 0.1618959 0.5
vt 0.223073 0.4153324
vt 0.25 0.5
vt 0.2977001 0.5
vt 0.276927 0.4153324
vt 0.1746295 0.5767723
vt 0.223073 0.5846676
vt 0.1919301 0.6666667
vt 0.2160602 0.7542875
vt 0.2839398 0.7542875
vt 0.25 0.8237918
vt 0.25 0.6762082
vt 0.3080699 0.6666667
vt 0.3253705 0.5767723
vt 0.276927 0.5846676
vt 0.3287221 0.8321671
vt 0.3496938 0.7415949
vt 0.4118959 0.8
vt 0.4676647 0.738767
vt 0.4118959 0.7
vt 0.362502 0.6398403
vt 0.25 0.9045998
vt 0.4118959 0.9
vt 0.3309479 1
vt 0.75 0.9045998
vt 0.6712779 0.8321671
vt 0.75 0.8237918
vt 0.5881041 0.9
vt 0.5881041 0.8
vt 0.669052 1
vt 0.5323353 0.738767
vt 0.5 0.8237918
vt 0.5 1
vt 0.1712779 0.8321671
vt 0.08810409 0.9
vt 0.08810409 0.8
vt 0.169052 1
vt 0.03233537 0.738767
vt -0.0323354 0.738767
vt 0 0.6762082
vt 0.9676646 0.738767
vt 1 0.8237918
vt 0.9118959 0.8
vt 0 0.8237918
vt 0.8287221 0.8321671
vt 0.9118959 0.9
vt 0.830948 1
vt -0.08810407 0.9
vt 1.117587E-08 1
vt 0.9570821 0.646037
vt 1 0.6762082
vt 0.9118959 0.7
vt 0.9118959 0.6
vt 0.8710343 0.5471615
vt 0.8253705 0.5767723
vt 0.862502 0.6398403
vt 0.8080699 0.6666667
vt 0.7839398 0.7542875
vt 0.8496938 0.7415949
vt 0.776927 0.5846676
vt 0.6746295 0.5767723
vt 0.723073 0.5846676
vt 0.6919301 0.6666667
vt 0.7160602 0.7542875
vt 0.75 0.6762082
vt 0.6503062 0.7415949
vt 0.637498 0.6398403
vt 0.5881041 0.7
vt 1 0.4045998
vt 0.9570821 0.4480572
vt 1 0.5
vt 0.9118959 0.5
vt 1 0.5954002
vt 0.9570821 0.5519428
vt 0.04291791 0.3539629
vt 0 0.4045998
vt 0.04291791 0.4480572
vt 0 0.5
vt 0.08810409 0.4
vt 0 0.5954002
vt 0.04291791 0.646037
vt 0.04291791 0.5519428
vt 0.08810409 0.6
vt 0.1289657 0.5471615
vt 0.1289657 0.4528384
vt 0.08810409 0.5
vt 0.08810413 0.3
vt 0.1374981 0.3601596
vt 0.1503062 0.2584051
vt 0.1503062 0.7415949
vt 0.1374981 0.6398403
vt 0.08810413 0.7

usemtl ground (Instance)
usemap ground (Instance)
f 1/1/1 2/2/2 3/3/3
f 2/2/2 4/4/4 5/5/5
f 4/4/4 1/1/1 6/6/6
f 1/1/1 4/4/4 2/2/2
f 7/7/7 8/8/8 9/9/9
f 8/8/8 10/10/10 11/11/11
f 10/10/10 7/7/7 5/5/5
f 7/7/7 10/10/10 8/8/8
f 12/12/12 13/13/13 14/14/14
f 13/13/13 15/15/15 6/6/6
f 15/15/15 12/12/12 11/11/11
f 12/12/12 15/15/15 13/13/13
f 4/4/4 10/10/10 5/5/5
f 10/10/10 15/15/15 11/11/11
f 15/15/15 4/4/4 6/6/6
f 4/4/4 15/15/15 10/10/10
f 2/2/2 16/16/16 3/3/3
f 16/16/16 17/17/17 18/18/18
f 17/17/17 2/2/2 5/5/5
f 2/2/2 17/17/17 16/16/16
f 19/19/19 20/20/20 21/21/21
f 20/20/20 22/22/22 23/23/23
f 22/22/22 19/19/19 18/18/18
f 19/19/19 22/22/22 20/20/20
f 24/24/24 7/7/7 9/9/9
f 7/7/7 25/25/25 5/5/5
f 25/25/25 24/24/24 23/23/23
f 24/24/24 25/25/25 7/7/7
f 17/17/17 22/22/22 18/18/18
f 22/22/22 25/25/25 23/23/23
f 25/25/25 17/17/17 5/5/5
f 17/17/17 25/25/25 22/22/22
f 26/26/26 27/27/27 28/28/28
f 27/27/27 29/29/29 30/30/30
f 31/31/31 20/20/20 23/23/23
f 26/26/26 29/29/29 27/27/27
f 32/32/32 33/33/33 34/34/34
f 33/33/33 35/35/35 36/36/36
f 35/35/35 32/32/32 30/30/30
f 32/32/32 35/35/35 33/33/33
f 37/37/37 24/24/24 9/9/9
f 24/24/24 38/38/38 23/23/23
f 38/38/38 37/37/37 39/39/39
f 37/37/37 38/38/38 24/24/24
f 29/29/29 35/35/35 30/30/30
f 35/35/35 40/40/40 41/41/41
f 38/38/38 31/31/31 23/23/23
f 29/29/29 40/40/40 35/35/35
f 42/42/42 37/37/37 9/9/9
f 37/37/37 43/43/43 44/44/44
f 43/43/43 42/42/42 45/45/45
f 42/42/42 43/43/43 37/37/37
f 33/33/33 46/46/46 34/34/34
f 46/46/46 47/47/47 48/48/48
f 47/47/47 33/33/33 49/49/49
f 33/33/33 47/47/47 46/46/46
f 50/50/50 51/51/51 52/52/52
f 51/51/51 53/53/53 45/45/45
f 53/53/53 50/50/50 48/48/48
f 50/50/50 53/53/53 51/51/51
f 43/43/43 47/47/47 54/54/54
f 47/47/47 53/53/53 48/48/48
f 53/53/53 43/43/43 45/45/45
f 43/43/43 53/53/53 47/47/47
f 8/8/8 42/42/42 9/9/9
f 42/42/42 55/55/55 45/45/45
f 55/55/55 8/8/8 11/11/11
f 8/8/8 55/55/55 42/42/42
f 51/51/51 56/56/56 52/52/52
f 56/56/56 57/57/57 58/58/58
f 57/57/57 51/51/51 45/45/45
f 51/51/51 57/57/57 56/56/56
f 59/59/59 12/12/12 14/14/14
f 12/12/12 60/60/60 11/11/11
f 60/60/60 59/59/59 58/58/58
f 59/59/59 60/60/60 12/12/12
f 55/55/55 57/57/57 45/45/45
f 57/57/57 60/60/60 58/58/58
f 60/60/60 55/55/55 11/11/11
f 55/55/55 60/60/60 57/57/57
f 56/56/56 61/61/61 52/52/52
f 61/61/61 62/62/62 63/63/63
f 62/62/62 56/56/56 58/58/58
f 56/56/56 62/62/62 61/61/61
f 64/64/64 65/65/65 66/66/66
f 65/65/65 67/67/67 68/68/68
f 67/67/67 64/64/64 63/63/63
f 64/64/64 67/67/67 65/65/65
f 69/69/69 59/59/59 14/14/14
f 59/59/59 70/70/70 58/58/58
f 70/70/70 69/69/69 68/68/68
f 69/69/69 70/70/70 59/59/59
f 62/62/62 67/67/67 63/63/63
f 67/67/67 70/70/70 68/68/68
f 70/70/70 62/62/62 58/58/58
f 62/62/62 70/70/70 67/67/67
f 61/61/61 71/71/71 52/52/52
f 71/71/71 72/72/72 73/73/73
f 72/72/72 61/61/61 63/63/63
f 61/61/61 72/72/72 71/71/71
f 74/74/74 75/75/75 76/76/76
f 75/75/75 77/77/77 78/78/78
f 77/77/77 74/74/74 73/73/73
f 74/74/74 77/77/77 75/75/75
f 79/79/79 64/64/64 66/66/66
f 64/64/64 80/80/80 63/63/63
f 80/80/80 79/79/79 78/78/78
f 79/79/79 80/80/80 64/64/64
f 72/72/72 77/77/77 73/73/73
f 77/77/77 80/80/80 78/78/78
f 80/80/80 72/72/72 63/63/63
f 72/72/72 80/80/80 77/77/77
f 46/46/46 81/81/81 34/34/34
f 81/81/81 82/82/82 83/83/83
f 82/82/82 46/46/46 48/48/48
f 46/46/46 82/82/82 81/81/81
f 84/84/84 74/74/74 76/76/76
f 74/74/74 85/85/85 73/73/73
f 85/85/85 84/84/84 83/83/83
f 84/84/84 85/85/85 74/74/74
f 71/71/71 50/50/50 52/52/52
f 50/50/50 86/86/86 48/48/48
f 86/86/86 71/71/71 73/73/73
f 71/71/71 86/86/86 50/50/50
f 82/82/82 85/85/85 83/83/83
f 85/85/85 86/86/86 73/73/73
f 86/86/86 82/82/82 48/48/48
f 82/82/82 86/86/86 85/85/85
f 81/81/81 87/87/87 34/34/34
f 87/87/87 88/88/88 89/89/89
f 88/88/88 81/81/81 83/83/83
f 81/81/81 88/88/88 87/87/87
f 90/90/90 91/91/91 92/92/92
f 91/91/91 93/93/93 94/94/94
f 93/93/93 90/90/90 89/89/89
f 90/90/90 93/93/93 91/91/91
f 95/95/95 84/84/84 76/76/76
f 84/84/84 96/96/96 83/83/83
f 96/96/96 95/95/95 94/94/94
f 95/95/95 96/96/96 84/84/84
f 88/88/88 93/93/93 89/89/89
f 93/93/93 96/96/96 94/94/94
f 96/96/96 88/88/88 83/83/83
f 88/88/88 96/96/96 93/93/93
f 91/91/91 97/97/97 92/92/92
f 97/97/97 98/98/98 99/99/99
f 98/98/98 91/91/91 94/94/94
f 91/91/91 98/98/98 97/97/97
f 100/100/100 101/101/101 102/102/102
f 101/101/101 103/103/103 104/104/104
f 103/103/103 100/100/100 99/99/99
f 100/100/100 103/103/103 101/101/101
f 105/105/105 95/95/95 76/76/76
f 95/95/95 106/106/106 94/94/94
f 106/106/106 105/105/105 104/104/104
f 105/105/105 106/106/106 95/95/95
f 98/98/98 103/103/103 99/99/99
f 103/103/103 106/106/106 104/104/104
f 106/106/106 98/98/98 94/94/94
f 98/98/98 106/106/106 103/103/103
f 101/101/101 107/107/107 102/102/102
f 107/107/107 108/108/108 109/109/109
f 108/108/108 101/101/101 104/104/104
f 101/101/101 108/108/108 107/107/107
f 110/110/110 79/79/79 66/66/66
f 79/79/79 111/111/111 78/78/78
f 111/111/111 110/110/110 109/109/109
f 110/110/110 111/111/111 79/79/79
f 75/75/75 105/105/105 76/76/76
f 105/105/105 112/112/112 104/104/104
f 112/112/112 75/75/75 78/78/78
f 75/75/75 112/112/112 105/105/105
f 108/108/108 111/111/111 109/109/109
f 111/111/111 112/112/112 78/78/78
f 112/112/112 108/108/108 104/104/104
f 108/108/108 112/112/112 111/111/111
f 107/107/107 113/113/113 102/102/102
f 113/113/113 114/114/114 115/115/115
f 114/114/114 107/107/107 109/109/109
f 107/107/107 114/114/114 113/113/113
f 116/116/116 117/117/117 118/118/118
f 117/117/117 119/119/119 120/120/120
f 119/119/119 116/116/116 121/121/121
f 116/116/116 119/119/119 117/117/117
f 122/122/122 110/110/110 66/66/66
f 110/110/110 123/123/123 109/109/109
f 123/123/123 122/122/122 120/120/120
f 122/122/122 123/123/123 110/110/110
f 114/114/114 119/119/119 124/124/124
f 119/119/119 123/123/123 120/120/120
f 123/123/123 114/114/114 109/109/109
f 114/114/114 123/123/123 119/119/119
f 113/113/113 125/125/125 102/102/102
f 125/125/125 126/126/126 127/127/127
f 126/126/126 113/113/113 128/128/128
f 113/113/113 126/126/126 125/125/125
f 129/129/129 130/130/130 131/131/131
f 132/132/132 133/133/133 134/134/134
f 135/135/135 129/129/129 127/127/127
f 129/129/129 135/135/135 130/130/130
f 136/136/136 116/116/116 118/118/118
f 116/116/116 137/137/137 138/138/138
f 137/137/137 136/136/136 134/134/134
f 136/136/136 137/137/137 116/116/116
f 126/126/126 135/135/135 127/127/127
f 133/133/133 137/137/137 134/134/134
f 139/139/139 126/126/126 140/140/140
f 126/126/126 139/139/139 135/135/135
f 132/132/132 141/141/141 142/142/142
f 141/141/141 143/143/143 144/144/144
f 143/143/143 132/132/132 134/134/134
f 132/132/132 143/143/143 141/141/141
f 145/145/145 146/146/146 3/3/3
f 146/146/146 147/147/147 148/148/148
f 147/147/147 145/145/145 144/144/144
f 145/145/145 147/147/147 146/146/146
f 149/149/149 136/136/136 118/118/118
f 136/136/136 150/150/150 134/134/134
f 150/150/150 149/149/149 148/148/148
f 149/149/149 150/150/150 136/136/136
f 143/143/143 147/147/147 144/144/144
f 147/147/147 150/150/150 148/148/148
f 150/150/150 143/143/143 134/134/134
f 143/143/143 150/150/150 147/147/147
f 146/146/146 1/1/1 3/3/3
f 1/1/1 151/151/151 6/6/6
f 151/151/151 146/146/146 148/148/148
f 146/146/146 151/151/151 1/1/1
f 13/13/13 152/152/152 14/14/14
f 152/152/152 153/153/153 154/154/154
f 153/153/153 13/13/13 6/6/6
f 13/13/13 153/153/153 152/152/152
f 155/155/155 149/149/149 118/118/118
f 149/149/149 156/156/156 148/148/148
f 156/156/156 155/155/155 154/154/154
f 155/155/155 156/156/156 149/149/149
f 151/151/151 153/153/153 6/6/6
f 153/153/153 156/156/156 154/154/154
f 156/156/156 151/151/151 148/148/148
f 151/151/151 156/156/156 153/153/153
f 117/117/117 155/155/155 118/118/118
f 155/155/155 157/157/157 154/154/154
f 157/157/157 117/117/117 120/120/120
f 117/117/117 157/157/157 155/155/155
f 152/152/152 69/69/69 14/14/14
f 69/69/69 158/158/158 68/68/68
f 158/158/158 152/152/152 154/154/154
f 152/152/152 158/158/158 69/69/69
f 65/65/65 122/122/122 66/66/66
f 122/122/122 159/159/159 120/120/120
f 159/159/159 65/65/65 68/68/68
f 65/65/65 159/159/159 122/122/122
f 157/157/157 158/158/158 154/154/154
f 158/158/158 159/159/159 68/68/68
f 159/159/159 157/157/157 120/120/120
f 157/157/157 159/159/159 158/158/158
f 160/160/160 19/19/19 21/21/21
f 19/19/19 161/161/161 18/18/18
f 161/161/161 160/160/160 162/162/162
f 160/160/160 161/161/161 19/19/19
f 16/16/16 145/145/145 3/3/3
f 145/145/145 163/163/163 144/144/144
f 163/163/163 16/16/16 18/18/18
f 16/16/16 163/163/163 145/145/145
f 141/141/141 164/164/164 142/142/142
f 164/164/164 165/165/165 162/162/162
f 165/165/165 141/141/141 144/144/144
f 141/141/141 165/165/165 164/164/164
f 161/161/161 163/163/163 18/18/18
f 163/163/163 165/165/165 144/144/144
f 165/165/165 161/161/161 162/162/162
f 161/161/161 165/165/165 163/163/163
f 166/166/166 167/167/167 28/28/28
f 167/167/167 168/168/168 169/169/169
f 168/168/168 166/166/166 170/170/170
f 166/166/166 168/168/168 167/167/167
f 171/171/171 172/172/172 131/131/131
f 172/172/172 173/173/173 174/174/174
f 173/173/173 171/171/171 169/169/169
f 171/171/171 173/173/173 172/172/172
f 175/175/175 176/176/176 92/92/92
f 176/176/176 177/177/177 170/170/170
f 177/177/177 175/175/175 174/174/174
f 175/175/175 177/177/177 176/176/176
f 168/168/168 173/173/173 169/169/169
f 173/173/173 177/177/177 174/174/174
f 177/177/177 168/168/168 170/170/170
f 168/168/168 177/177/177 173/173/173
f 27/27/27 166/166/166 28/28/28
f 166/166/166 178/178/178 170/170/170
f 178/178/178 27/27/27 30/30/30
f 27/27/27 178/178/178 166/166/166
f 176/176/176 90/90/90 92/92/92
f 90/90/90 179/179/179 89/89/89
f 179/179/179 176/176/176 170/170/170
f 176/176/176 179/179/179 90/90/90
f 87/87/87 32/32/32 34/34/34
f 32/32/32 180/180/180 30/30/30
f 180/180/180 87/87/87 89/89/89
f 87/87/87 180/180/180 32/32/32
f 178/178/178 179/179/179 170/170/170
f 179/179/179 180/180/180 89/89/89
f 180/180/180 178/178/178 30/30/30
f 178/178/178 180/180/180 179/179/179
f 125/125/125 100/100/100 102/102/102
f 100/100/100 181/181/181 99/99/99
f 181/181/181 125/125/125 127/127/127
f 125/125/125 181/181/181 100/100/100
f 97/97/97 175/175/175 92/92/92
f 175/175/175 182/182/182 174/174/174
f 182/182/182 97/97/97 99/99/99
f 97/97/97 182/182/182 175/175/175
f 172/172/172 129/129/129 131/131/131
f 129/129/129 183/183/183 127/127/127
f 183/183/183 172/172/172 174/174/174
f 172/172/172 183/183/183 129/129/129
f 181/181/181 182/182/182 99/99/99
f 182/182/182 183/183/183 174/174/174
f 183/183/183 181/181/181 127/127/127
f 181/181/181 183/183/183 182/182/182
