g object
v -44.85946 -2.113646E-05 145.1683
v -68.33961 49.21563 133.3557
v -79.01011 -2.395347E-05 127.841
v -26.08 56.24454 152.675
v -54.14476 116.8199 141.7528
v 0 -2.593871E-05 162.7417
v -19.59001 126.6884 90.46733
v 18.86404 122.4286 87.11475
v 0 130.7453 60.61008
v 0 115.6309 140.0427
v 52.51414 113.4877 137.4838
v 81.98129 59.09459 159.9756
v 54.73982 -2.583429E-05 177.1418
v 96.97243 -2.941968E-05 156.9047
v 29.81606 64.57106 174.5463
v -108.6555 31.39389 114.2098
v -103.1815 99.70715 120.807
v -133.6247 68.11036 82.58463
v -134.3862 91.89352 37.14342
v -93.76317 118.9368 19.31627
v -126.1805 103.9068 0
v -106.1024 120.8928 65.57487
v -65.54585 141.4477 40.50956
v -29.03712 140.4642 53.83777
v -63.43567 136.9815 87.66595
v -93.76317 118.9368 19.31627
v -93.60305 119.0632 -19.28329
v -126.1805 103.9068 0
v -65.61333 141.8063 0
v -68.97511 148.704 -42.62896
v -65.61333 141.8063 0
v -39.46405 190.9035 -73.17038
v 0 198.43 -45.8617
v 0 204.6162 -94.79063
v -36.01894 174.238 -22.26093
v 0 172.5003 0
v 0 147.4273 34.12675
v -33.55038 161.6553 20.73527
v 0 172.5003 0
v -33.55038 161.6553 20.73527
v 0 172.5003 0
v 28.3341 136.4551 52.53431
v 32.93406 159.0576 20.35437
v 0 172.5003 0
v 68.36906 147.5069 42.25439
v 42.0155 202.8297 -77.90102
v 39.22636 190.3509 -24.24322
v 90.94049 196.201 -56.20431
v 0 172.5003 0
v 121.7692 155.168 -25.08582
v 121.2934 154.33 24.98781
v 121.7504 100.6056 0
v 82.55827 178.4451 0
v 0 172.5003 0
v 60.52592 130.6454 83.64478
v 136.037 93.03028 37.59972
v 118.1169 134.6983 73.00029
v 147.3283 75.11226 91.05393
v 126.0973 36.50801 132.5432
v 107.1881 103.4968 125.498
v 116.8684 48.16085 0
v 150.2032 34.23989 41.51516
v 150.4284 -2.393386E-05 0
v 146.9947 -60.55125 0
v 122.2458 -83.4502 33.78791
v 110.0974 -90.76436 0
v 150.4915 -34.37092 41.59481
v 125.0615 -63.86867 77.29224
v 126.5221 -36.55119 132.9897
v 149.3917 -2.796021E-05 92.32916
v 109.9714 75.34941 -30.39534
v 119.934 27.32564 -33.14894
v 110.9743 56.67437 -68.58591
v 116.2197 33.63167 -122.1607
v 121.9984 -35.32128 -128.2348
v 91.72507 -2.784365E-05 -148.4143
v 141.2984 -2.647496E-05 -87.3272
v 121.3777 -61.9874 -75.01557
v 118.0494 -80.83486 -32.62805
v 148.0389 -33.75966 -40.91695
v 23.09783 149.5463 -106.6666
v 67.41463 145.631 -93.16474
v 42.37844 91.53028 -110.9482
v 64.68641 46.67327 -126.2269
v 88.14899 85.15702 -103.2066
v 113.7148 129.5534 -70.27964
v -25.4535 164.8766 -117.5451
v 0 100.37 -121.4652
v -53.23832 115.0814 -139.3797
v -78.42975 56.52413 -153.0452
v -49.34213 -2.334949E-05 -159.6745
v -76.80617 -2.324942E-05 -124.275
v -26.42649 57.0849 -154.7034
v 0 -2.813899E-05 -176.4582
v 50.27488 -2.37482E-05 -162.693
v 23.41449 50.61887 -137.0708
v -52.00107 -37.48308 -101.4732
v -23.38571 -50.59154 -136.9023
v -34.58973 -74.50504 -90.55708
v -21.89908 -141.6213 -101.1307
v 26.08808 -169.3131 -120.4757
v 0 -201.987 -93.53685
v 0 -99.88895 -121.2983
v 55.78535 -120.9919 -146.0479
v 81.47054 -58.7498 -158.979
v 29.69839 -64.15836 -173.8574
v 42.42994 -205.2506 -78.66943
v 75.55713 -162.9758 -104.4174
v 71.91307 -155.5732 -44.44472
v 89.1662 -113.7547 -18.36925
v 99.31977 -113.2243 -61.38298
v 100.3253 -96.80428 -117.4629
v 0 -208.9234 -48.40145
v 38.5467 -186.4658 -23.82317
v 0 -176.6239 0
v 0 -126.7347 29.26464
v 26.66396 -128.736 49.43769
v 0 -110.3286 50.90504
v 33.13448 -160.6126 20.47823
v 61.14336 -131.7369 37.78867
v 0 -176.6239 0
v 86.72588 -110.029 17.86651
v 66.07346 -142.8789 0
v 0 -176.6239 0
v -37.81899 -182.5573 -70.12027
v -37.83554 -183.0257 -23.38366
v -77.91145 -168.2498 -48.15192
v 0 -176.6239 0
v -119.4754 -151.5835 -24.61328
v -111.3229 -141.7705 22.93377
v -148.7667 -123.0009 0
v -111.3229 -141.7705 22.93377
v -74.75203 -162.1604 0
v -64.47649 -139.0734 39.84866
v -74.75203 -162.1604 0
v -23.84873 -114.7959 44.21799
v -29.19385 -140.826 18.04279
v 0 -176.6239 0
v -29.19385 -140.826 18.04279
v 0 -176.6239 0
v -157.9019 -107.985 43.64301
v -148.7667 -123.0009 0
v -107.1139 -122.0571 66.2
v -135.9198 -69.41401 84.00306
v -116.6007 -33.69643 122.5612
v -79.69645 -57.54336 155.517
v -99.20977 -95.91087 116.1568
v -42.27954 -91.46553 110.6893
v -16.38638 -105.9567 75.67287
v -54.10617 -116.7452 74.77289
v -27.68812 -59.89917 162.0891
v 78.50027 -56.5611 153.1829
v 27.30142 -59.0626 159.8253
v 40.11763 -86.49786 105.0293
v 15.89026 -102.7181 73.38178
v 0 -86.25998 104.4507
v 49.89295 -107.7745 68.95035
v 90.91282 -87.81045 106.4426
v 90.74622 -103.2557 56.08424
v -172.5687 71.29907 0
v -176.2326 40.21386 48.70951
v -180.4448 -2.870271E-05 0
v -156.1224 -2.93112E-05 96.48896
v -163.082 -67.51102 0
v -177.2195 -40.38878 48.98228
v -144.7925 99.08848 -40.01966
v -172.5687 71.29907 0
v -166.2339 37.96632 -45.94592
v -180.4448 -2.870271E-05 0
v -145.9626 74.40688 -90.20985
v -163.082 -67.51102 0
v -124.1471 -84.93394 -34.31342
v -137.3844 -31.29685 -37.97212
v -101.913 -51.98067 -62.98571
v -88.29775 -25.48833 -92.81142
v -110.0908 31.82564 -115.7184
v -122.5019 -2.288153E-05 -75.71031
v -108.6417 124.064 -67.14429
v -107.5029 103.9808 -125.8666
v -72.15803 156.3808 -99.71995
v -54.65321 -118.2341 -75.52888
v -62.32413 -60.26451 -72.97037
v -94.3736 -108.0566 -58.32608

vn -0.3770327 0.236259 0.8955601
vn -0.3645493 -0.1237296 0.9229273
vn -0.4380643 0.1377055 0.8883338
vn -0.3652706 -0.04103566 0.9299964
vn -0.1768809 0.6531091 0.7363163
vn -0.3361492 0.0637801 0.9396467
vn 0.1895538 0.9631953 0.190589
vn 0.01878393 0.9827139 0.184175
vn 0.03739225 0.8857458 0.462662
vn -0.005424989 0.8924012 0.4512102
vn 0.1458866 0.8369436 0.5274869
vn 0.5080639 0.1851344 0.8411875
vn 0.234567 -0.06423036 0.9699757
vn 0.5745907 -0.08927293 0.8135574
vn -0.01955275 0.2313785 0.9726673
vn -0.387798 0.08635165 0.9176906
vn -0.7939586 0.1409691 0.591403
vn -0.7461406 0.5259601 0.4082158
vn -0.5384943 0.6916088 0.4813535
vn -0.5074503 0.8575764 -0.08400529
vn -0.5591301 0.8252138 0.07997262
vn -0.7070274 0.7070488 0.01393803
vn -0.3965288 0.904697 0.1558471
vn 0.2091106 0.8679745 0.4504366
vn -0.05476949 0.9807596 0.1873788
vn -0.5074503 0.8575764 -0.08400529
vn -0.4895262 0.860252 0.1425858
vn -0.5591301 0.8252138 0.07997262
vn -0.7040154 0.7064902 0.07234652
vn -0.6998584 0.6962857 0.1593252
vn -0.7040154 0.7064902 0.07234652
vn -0.600814 0.7894641 0.1255751
vn -0.1456294 0.9282454 0.3422756
vn 0.005140348 0.8397566 -0.5429387
vn -0.5690788 0.796348 0.204888
vn -0.007074778 0.8627756 0.5055376
vn 0.04815573 0.7811644 0.6224654
vn -0.233601 0.8764375 0.4210556
vn -0.007074778 0.8627756 0.5055376
vn -0.233601 0.8764375 0.4210556
vn -0.007074778 0.8627756 0.5055376
vn -0.09166965 0.867798 0.4883887
vn 0.01018942 0.7650569 0.643882
vn -0.007074778 0.8627756 0.5055376
vn -0.05074795 0.8777219 0.4764755
vn 0.2370678 0.856241 -0.4589663
vn -0.09839586 0.8952 0.4346668
vn 0.5261319 0.8005396 -0.2869174
vn -0.007074778 0.8627756 0.5055376
vn 0.9571018 0.2691824 -0.1072237
vn 0.6582091 0.6830405 0.31657
vn 0.9687697 0.01876004 -0.2472513
vn 0.09732605 0.8132603 0.5737032
vn -0.007074778 0.8627756 0.5055376
vn -0.1179588 0.9485814 0.2937329
vn 0.9218642 0.04528244 -0.3848583
vn 0.4529794 0.806788 0.3793453
vn 0.8948448 0.2938319 0.3360291
vn 0.7460145 0.03667163 0.6649191
vn 0.47797 0.5672309 0.6706666
vn 0.9198123 0.1395141 -0.3667168
vn 0.862388 0.286484 -0.4173895
vn 0.8548155 0.4254495 -0.297125
vn 0.741606 -0.6279726 -0.2359469
vn 0.5796829 -0.8133267 -0.04967288
vn 0.7514066 -0.6596516 0.01574112
vn 0.8967555 -0.2484309 0.3662125
vn 0.8936468 -0.3467834 0.2848449
vn 0.8248816 -0.2358236 0.5137679
vn 0.8672935 -0.3939191 0.3043513
vn 0.9967567 -0.05901722 -0.05470862
vn 0.876945 0.4805907 -5.641195E-05
vn 0.9627499 0.2357543 -0.1324113
vn 0.4617169 0.4687582 -0.7530494
vn 0.8195513 -0.2078523 -0.5339787
vn 0.4809213 0.2274422 -0.8467495
vn 0.9690508 0.2394306 -0.06011278
vn 0.8626313 -0.4706995 -0.1852276
vn 0.834559 -0.5332193 -0.1385226
vn 0.9205513 -0.2931316 -0.2581844
vn 0.2922547 0.158653 -0.9430888
vn 0.2714422 0.2412318 -0.931733
vn 0.2997516 0.2853943 -0.910329
vn 0.1729865 0.5100243 -0.8425858
vn 0.3364751 0.3658445 -0.8677225
vn 0.8374214 0.155307 -0.5240277
vn 0.1003496 0.356543 -0.928874
vn 0.3905726 0.2908225 -0.8734273
vn 0.02766727 0.3761419 -0.9261489
vn -0.4768821 -0.05918067 -0.8769727
vn -0.6415039 -0.2354515 -0.7300927
vn -0.6503233 -0.3436272 -0.6774954
vn 0.2081444 0.4289576 -0.8790172
vn 0.04434911 0.1912628 -0.9805364
vn 0.2851434 0.387802 -0.8765288
vn 0.3189909 0.5023388 -0.8036793
vn -0.6251773 -0.7172462 -0.307752
vn -0.6227238 -0.6651016 -0.4121346
vn -0.6233751 -0.3108141 -0.7174942
vn -0.6169912 -0.04661034 -0.7855885
vn -0.2063063 -0.4445499 -0.8716726
vn -0.3354129 -0.7349553 -0.5893546
vn -0.7421358 -0.2574782 -0.618821
vn 0.2521472 -0.4514365 -0.8559363
vn 0.4823036 -0.1761223 -0.8581166
vn -0.01305996 -0.2773832 -0.9606706
vn 0.5182811 -0.8499743 -0.09448974
vn 0.8028527 -0.5054203 -0.3161928
vn 0.8029891 -0.5532202 0.2217116
vn 0.7796295 -0.6080449 0.1498644
vn 0.9061981 -0.4227329 0.01009379
vn 0.892904 -0.3560597 -0.2755794
vn -0.2352665 -0.9272617 0.2912655
vn 0.560503 -0.7341177 0.3832853
vn -0.2031152 -0.654353 0.7283999
vn -0.2227754 -0.6046332 0.7647156
vn -0.1457369 -0.6478811 0.7476702
vn -0.2575414 -0.9308556 0.2591917
vn 0.1650401 -0.7567743 0.6324985
vn 0.4829644 -0.6610515 0.5742441
vn -0.2031152 -0.654353 0.7283999
vn 0.7073808 -0.6752819 0.2088224
vn 0.785392 -0.5589654 0.2659269
vn -0.2031152 -0.654353 0.7283999
vn -0.6322477 -0.6117806 -0.4753811
vn -0.3133653 -0.889647 0.3321602
vn -0.4624097 -0.7550019 -0.4649186
vn -0.2031152 -0.654353 0.7283999
vn -0.6843472 -0.5834794 -0.4372878
vn -0.180364 -0.8639007 0.4702601
vn -0.8537894 -0.4653671 -0.2334031
vn -0.180364 -0.8639007 0.4702601
vn -0.1887283 -0.8370878 0.5134838
vn 0.04401469 -0.8485767 0.5272384
vn -0.1887283 -0.8370878 0.5134838
vn 0.3264748 -0.8811528 0.3420291
vn 0.04659852 -0.6826341 0.729273
vn -0.2031152 -0.654353 0.7283999
vn 0.04659852 -0.6826341 0.729273
vn -0.2031152 -0.654353 0.7283999
vn -0.7771956 -0.5598555 0.2872783
vn -0.8537894 -0.4653671 -0.2334031
vn -0.1527419 -0.8897744 0.4300831
vn -0.7045217 -0.2204065 0.674589
vn -0.6388078 0.05327554 0.7675195
vn -0.3480008 -0.0646609 0.9352617
vn -0.3695214 -0.6838839 0.6290919
vn 0.1658505 -0.8498456 0.5002559
vn 0.1720142 -0.795886 0.5804968
vn 0.1304446 -0.8378088 0.5301514
vn -0.0777767 -0.5753211 0.8142213
vn 0.2856456 -0.5844759 0.7594699
vn 0.04000764 -0.7078125 0.7052665
vn -0.08580563 -0.8855496 0.4565516
vn -0.04477677 -0.7893817 0.6122676
vn 0.0912903 -0.931807 0.351286
vn 0.01056304 -0.8018008 0.5974979
vn 0.1866693 -0.8845053 0.4275571
vn 0.4701928 -0.8655306 0.1725558
vn -0.8681 0.496385 0.002075939
vn -0.9272704 0.2308489 0.2947516
vn -0.9628114 -0.1083672 -0.2474889
vn -0.7761002 -0.01596398 0.6304074
vn -0.830952 -0.2054396 -0.5170236
vn -0.9634577 -0.1440324 0.2258404
vn -0.5688527 0.8214555 -0.04021589
vn -0.8681 0.496385 0.002075939
vn -0.8846807 -0.151682 -0.4408318
vn -0.9628114 -0.1083672 -0.2474889
vn -0.8313519 0.1273426 -0.5409601
vn -0.830952 -0.2054396 -0.5170236
vn -0.6972047 -0.1269712 -0.705538
vn -0.6489587 -0.3401211 -0.6805661
vn -0.6337607 -0.2808201 -0.7207548
vn -0.6071699 -0.510314 -0.6090357
vn -0.6852345 -0.4148914 -0.5985973
vn -0.6222605 -0.47601 -0.6214551
vn -0.5909648 0.8023065 0.08405269
vn -0.634902 0.3783398 -0.6736159
vn -0.6371267 0.7288384 -0.2507271
vn -0.4378292 0.03349645 -0.898434
vn -0.4046037 -0.2110953 -0.8897947
vn -0.622457 -0.1195866 -0.7734638

vt 0.7977001 0.5
vt 0.8253705 0.4232277
vt 0.8381041 0.5
vt 0.776927 0.4153324
vt 0.8080699 0.3333333
vt 0.75 0.5
vt 0.7839398 0.2457124
vt 0.7160602 0.2457124
vt 0.75 0.1762082
vt 0.75 0.3237918
vt 0.6919301 0.3333333
vt 0.6746295 0.4232277
vt 0.7022999 0.5
vt 0.6618959 0.5
vt 0.723073 0.4153324
vt 0.8710343 0.4528384
vt 0.862502 0.3601596
vt 0.9118959 0.4
vt 0.9570821 0.3539629
vt 0.9676646 0.2612329
vt 1 0.3237918
vt 0.9118959 0.3
vt 0.9118959 0.2
vt 0.8287221 0.1678328
vt 0.8496938 0.2584051
vt -0.0323354 0.2612329
vt 0.03233537 0.2612329
vt 0 0.3237918
vt 0 0.1762082
vt 0.08810409 0.2
vt 1 0.1762082
vt 0.1712779 0.1678328
vt 0.25 0.09540019
vt 0.25 0.1762082
vt 0.08810409 0.09999997
vt 0.169052 0
vt 0.75 0.09540019
vt 0.9118959 0.09999997
vt 0.830948 0
vt -0.08810407 0.09999997
vt 1.117587E-08 0
vt 0.6712779 0.1678328
vt 0.5881041 0.09999997
vt 0.669052 0
vt 0.5881041 0.2
vt 0.3287221 0.1678328
vt 0.4118959 0.09999997
vt 0.4118959 0.2
vt 0.3309479 0
vt 0.4676647 0.2612329
vt 0.5323353 0.2612329
vt 0.5 0.3237918
vt 0.5 0.1762082
vt 0.5 0
vt 0.6503062 0.2584051
vt 0.5429179 0.3539629
vt 0.5881041 0.3
vt 0.5881041 0.4
vt 0.6289657 0.4528384
vt 0.637498 0.3601596
vt 0.5 0.4045998
vt 0.5429179 0.4480572
vt 0.5 0.5
vt 0.5 0.5954002
vt 0.5429179 0.646037
vt 0.5 0.6762082
vt 0.5429179 0.5519428
vt 0.5881041 0.6
vt 0.6289657 0.5471615
vt 0.5881041 0.5
vt 0.4570821 0.3539629
vt 0.4570821 0.4480572
vt 0.4118959 0.4
vt 0.3710343 0.4528384
vt 0.3710343 0.5471615
vt 0.3381041 0.5
vt 0.4118959 0.5
vt 0.4118959 0.6
vt 0.4570821 0.646037
vt 0.4570821 0.5519428
vt 0.2839398 0.2457124
vt 0.3496938 0.2584051
vt 0.3080699 0.3333333
vt 0.3253705 0.4232277
vt 0.362502 0.3601596
vt 0.4118959 0.3
vt 0.2160602 0.2457124
vt 0.25 0.3237918
vt 0.1919301 0.3333333
vt 0.1746295 0.4232277
vt 0.2022999 0.5
vt 0.1618959 0.5
vt 0.223073 0.4153324
vt 0.25 0.5
vt 0.2977001 0.5
vt 0.276927 0.4153324
vt 0.1746295 0.5767723
vt 0.223073 0.5846676
vt 0.1919301 0.6666667
vt 0.2160602 0.7542875
vt 0.2839398 0.7542875
vt 0.25 0.8237918
vt 0.25 0.6762082
vt 0.3080699 0.6666667
vt 0.3253705 0.5767723
vt 0.276927 0.5846676
vt 0.3287221 0.8321671
vt 0.3496938 0.7415949
vt 0.4118959 0.8
vt 0.4676647 0.738767
vt 0.4118959 0.7
vt 0.362502 0.6398403
vt 0.25 0.9045998
vt 0.4118959 0.9
vt 0.3309479 1
vt 0.75 0.9045998
vt 0.6712779 0.8321671
vt 0.75 0.8237918
vt 0.5881041 0.9
vt 0.5881041 0.8
vt 0.669052 1
vt 0.5323353 0.738767
vt 0.5 0.8237918
vt 0.5 1
vt 0.1712779 0.8321671
vt 0.08810409 0.9
vt 0.08810409 0.8
vt 0.169052 1
vt 0.03233537 0.738767
vt -0.0323354 0.738767
vt 0 0.6762082
vt 0.9676646 0.738767
vt 1 0.8237918
vt 0.9118959 0.8
vt 0 0.8237918
vt 0.8287221 0.8321671
vt 0.9118959 0.9
vt 0.830948 1
vt -0.08810407 0.9
vt 1.117587E-08 1
vt 0.9570821 0.646037
vt 1 0.6762082
vt 0.9118959 0.7
vt 0.9118959 0.6
vt 0.8710343 0.5471615
vt 0.8253705 0.5767723
vt 0.862502 0.6398403
vt 0.8080699 0.6666667
vt 0.7839398 0.7542875
vt 0.8496938 0.7415949
vt 0.776927 0.5846676
vt 0.6746295 0.5767723
vt 0.723073 0.5846676
vt 0.6919301 0.6666667
vt 0.7160602 0.7542875
vt 0.75 0.6762082
vt 0.6503062 0.7415949
vt 0.637498 0.6398403
vt 0.5881041 0.7
vt 1 0.4045998
vt 0.9570821 0.4480572
vt 1 0.5
vt 0.9118959 0.5
vt 1 0.5954002
vt 0.9570821 0.5519428
vt 0.04291791 0.3539629
vt 0 0.4045998
vt 0.04291791 0.4480572
vt 0 0.5
vt 0.08810409 0.4
vt 0 0.5954002
vt 0.04291791 0.646037
vt 0.04291791 0.5519428
vt 0.08810409 0.6
vt 0.1289657 0.5471615
vt 0.1289657 0.4528384
vt 0.08810409 0.5
vt 0.08810413 0.3
vt 0.1374981 0.3601596
vt 0.1503062 0.2584051
vt 0.1503062 0.7415949
vt 0.1374981 0.6398403
vt 0.08810413 0.7

usemtl ground (Instance)
usemap ground (Instance)
f 1/1/1 2/2/2 3/3/3
f 2/2/2 4/4/4 5/5/5
f 4/4/4 1/1/1 6/6/6
f 1/1/1 4/4/4 2/2/2
f 7/7/7 8/8/8 9/9/9
f 8/8/8 10/10/10 11/11/11
f 10/10/10 7/7/7 5/5/5
f 7/7/7 10/10/10 8/8/8
f 12/12/12 13/13/13 14/14/14
f 13/13/13 15/15/15 6/6/6
f 15/15/15 12/12/12 11/11/11
f 12/12/12 15/15/15 13/13/13
f 4/4/4 10/10/10 5/5/5
f 10/10/10 15/15/15 11/11/11
f 15/15/15 4/4/4 6/6/6
f 4/4/4 15/15/15 10/10/10
f 2/2/2 16/16/16 3/3/3
f 16/16/16 17/17/17 18/18/18
f 17/17/17 2/2/2 5/5/5
f 2/2/2 17/17/17 16/16/16
f 19/19/19 20/20/20 21/21/21
f 20/20/20 22/22/22 23/23/23
f 22/22/22 19/19/19 18/18/18
f 19/19/19 22/22/22 20/20/20
f 24/24/24 7/7/7 9/9/9
f 7/7/7 25/25/25 5/5/5
f 25/25/25 24/24/24 23/23/23
f 24/24/24 25/25/25 7/7/7
f 17/17/17 22/22/22 18/18/18
f 22/22/22 25/25/25 23/23/23
f 25/25/25 17/17/17 5/5/5
f 17/17/17 25/25/25 22/22/22
f 26/26/26 27/27/27 28/28/28
f 27/27/27 29/29/29 30/30/30
f 31/31/31 20/20/20 23/23/23
f 26/26/26 29/29/29 27/27/27
f 32/32/32 33/33/33 34/34/34
f 33/33/33 35/35/35 36/36/36
f 35/35/35 32/32/32 30/30/30
f 32/32/32 35/35/35 33/33/33
f 37/37/37 24/24/24 9/9/9
f 24/24/24 38/38/38 23/23/23
f 38/38/38 37/37/37 39/39/39
f 37/37/37 38/38/38 24/24/24
f 29/29/29 35/35/35 30/30/30
f 35/35/35 40/40/40 41/41/41
f 38/38/38 31/31/31 23/23/23
f 29/29/29 40/40/40 35/35/35
f 42/42/42 37/37/37 9/9/9
f 37/37/37 43/43/43 44/44/44
f 43/43/43 42/42/42 45/45/45
f 42/42/42 43/43/43 37/37/37
f 33/33/33 46/46/46 34/34/34
f 46/46/46 47/47/47 48/48/48
f 47/47/47 33/33/33 49/49/49
f 33/33/33 47/47/47 46/46/46
f 50/50/50 51/51/51 52/52/52
f 51/51/51 53/53/53 45/45/45
f 53/53/53 50/50/50 48/48/48
f 50/50/50 53/53/53 51/51/51
f 43/43/43 47/47/47 54/54/54
f 47/47/47 53/53/53 48/48/48
f 53/53/53 43/43/43 45/45/45
f 43/43/43 53/53/53 47/47/47
f 8/8/8 42/42/42 9/9/9
f 42/42/42 55/55/55 45/45/45
f 55/55/55 8/8/8 11/11/11
f 8/8/8 55/55/55 42/42/42
f 51/51/51 56/56/56 52/52/52
f 56/56/56 57/57/57 58/58/58
f 57/57/57 51/51/51 45/45/45
f 51/51/51 57/57/57 56/56/56
f 59/59/59 12/12/12 14/14/14
f 12/12/12 60/60/60 11/11/11
f 60/60/60 59/59/59 58/58/58
f 59/59/59 60/60/60 12/12/12
f 55/55/55 57/57/57 45/45/45
f 57/57/57 60/60/60 58/58/58
f 60/60/60 55/55/55 11/11/11
f 55/55/55 60/60/60 57/57/57
f 56/56/56 61/61/61 52/52/52
f 61/61/61 62/62/62 63/63/63
f 62/62/62 56/56/56 58/58/58
f 56/56/56 62/62/62 61/61/61
f 64/64/64 65/65/65 66/66/66
f 65/65/65 67/67/67 68/68/68
f 67/67/67 64/64/64 63/63/63
f 64/64/64 67/67/67 65/65/65
f 69/69/69 59/59/59 14/14/14
f 59/59/59 70/70/70 58/58/58
f 70/70/70 69/69/69 68/68/68
f 69/69/69 70/70/70 59/59/59
f 62/62/62 67/67/67 63/63/63
f 67/67/67 70/70/70 68/68/68
f 70/70/70 62/62/62 58/58/58
f 62/62/62 70/70/70 67/67/67
f 61/61/61 71/71/71 52/52/52
f 71/71/71 72/72/72 73/73/73
f 72/72/72 61/61/61 63/63/63
f 61/61/61 72/72/72 71/71/71
f 74/74/74 75/75/75 76/76/76
f 75/75/75 77/77/77 78/78/78
f 77/77/77 74/74/74 73/73/73
f 74/74/74 77/77/77 75/75/75
f 79/79/79 64/64/64 66/66/66
f 64/64/64 80/80/80 63/63/63
f 80/80/80 79/79/79 78/78/78
f 79/79/79 80/80/80 64/64/64
f 72/72/72 77/77/77 73/73/73
f 77/77/77 80/80/80 78/78/78
f 80/80/80 72/72/72 63/63/63
f 72/72/72 80/80/80 77/77/77
f 46/46/46 81/81/81 34/34/34
f 81/81/81 82/82/82 83/83/83
f 82/82/82 46/46/46 48/48/48
f 46/46/46 82/82/82 81/81/81
f 84/84/84 74/74/74 76/76/76
f 74/74/74 85/85/85 73/73/73
f 85/85/85 84/84/84 83/83/83
f 84/84/84 85/85/85 74/74/74
f 71/71/71 50/50/50 52/52/52
f 50/50/50 86/86/86 48/48/48
f 86/86/86 71/71/71 73/73/73
f 71/71/71 86/86/86 50/50/50
f 82/82/82 85/85/85 83/83/83
f 85/85/85 86/86/86 73/73/73
f 86/86/86 82/82/82 48/48/48
f 82/82/82 86/86/86 85/85/85
f 81/81/81 87/87/87 34/34/34
f 87/87/87 88/88/88 89/89/89
f 88/88/88 81/81/81 83/83/83
f 81/81/81 88/88/88 87/87/87
f 90/90/90 91/91/91 92/92/92
f 91/91/91 93/93/93 94/94/94
f 93/93/93 90/90/90 89/89/89
f 90/90/90 93/93/93 91/91/91
f 95/95/95 84/84/84 76/76/76
f 84/84/84 96/96/96 83/83/83
f 96/96/96 95/95/95 94/94/94
f 95/95/95 96/96/96 84/84/84
f 88/88/88 93/93/93 89/89/89
f 93/93/93 96/96/96 94/94/94
f 96/96/96 88/88/88 83/83/83
f 88/88/88 96/96/96 93/93/93
f 91/91/91 97/97/97 92/92/92
f 97/97/97 98/98/98 99/99/99
f 98/98/98 91/91/91 94/94/94
f 91/91/91 98/98/98 97/97/97
f 100/100/100 101/101/101 102/102/102
f 101/101/101 103/103/103 104/104/104
f 103/103/103 100/100/100 99/99/99
f 100/100/100 103/103/103 101/101/101
f 105/105/105 95/95/95 76/76/76
f 95/95/95 106/106/106 94/94/94
f 106/106/106 105/105/105 104/104/104
f 105/105/105 106/106/106 95/95/95
f 98/98/98 103/103/103 99/99/99
f 103/103/103 106/106/106 104/104/104
f 106/106/106 98/98/98 94/94/94
f 98/98/98 106/106/106 103/103/103
f 101/101/101 107/107/107 102/102/102
f 107/107/107 108/108/108 109/109/109
f 108/108/108 101/101/101 104/104/104
f 101/101/101 108/108/108 107/107/107
f 110/110/110 79/79/79 66/66/66
f 79/79/79 111/111/111 78/78/78
f 111/111/111 110/110/110 109/109/109
f 110/110/110 111/111/111 79/79/79
f 75/75/75 105/105/105 76/76/76
f 105/105/105 112/112/112 104/104/104
f 112/112/112 75/75/75 78/78/78
f 75/75/75 112/112/112 105/105/105
f 108/108/108 111/111/111 109/109/109
f 111/111/111 112/112/112 78/78/78
f 112/112/112 108/108/108 104/104/104
f 108/108/108 112/112/112 111/111/111
f 107/107/107 113/113/113 102/102/102
f 113/113/113 114/114/114 115/115/115
f 114/114/114 107/107/107 109/109/109
f 107/107/107 114/114/114 113/113/113
f 116/116/116 117/117/117 118/118/118
f 117/117/117 119/119/119 120/120/120
f 119/119/119 116/116/116 121/121/121
f 116/116/116 119/119/119 117/117/117
f 122/122/122 110/110/110 66/66/66
f 110/110/110 123/123/123 109/109/109
f 123/123/123 122/122/122 120/120/120
f 122/122/122 123/123/123 110/110/110
f 114/114/114 119/119/119 124/124/124
f 119/119/119 123/123/123 120/120/120
f 123/123/123 114/114/114 109/109/109
f 114/114/114 123/123/123 119/119/119
f 113/113/113 125/125/125 102/102/102
f 125/125/125 126/126/126 127/127/127
f 126/126/126 113/113/113 128/128/128
f 113/113/113 126/126/126 125/125/125
f 129/129/129 130/130/130 131/131/131
f 132/132/132 133/133/133 134/134/134
f 135/135/135 129/129/129 127/127/127
f 129/129/129 135/135/135 130/130/130
f 136/136/136 116/116/116 118/118/118
f 116/116/116 137/137/137 138/138/138
f 137/137/137 136/136/136 134/134/134
f 136/136/136 137/137/137 116/116/116
f 126/126/126 135/135/135 127/127/127
f 133/133/133 137/137/137 134/134/134
f 139/139/139 126/126/126 140/140/140
f 126/126/126 139/139/139 135/135/135
f 132/132/132 141/141/141 142/142/142
f 141/141/141 143/143/143 144/144/144
f 143/143/143 132/132/132 134/134/134
f 132/132/132 143/143/143 141/141/141
f 145/145/145 146/146/146 3/3/3
f 146/146/146 147/147/147 148/148/148
f 147/147/147 145/145/145 144/144/144
f 145/145/145 147/147/147 146/146/146
f 149/149/149 136/136/136 118/118/118
f 136/136/136 150/150/150 134/134/134
f 150/150/150 149/149/149 148/148/148
f 149/149/149 150/150/150 136/136/136
f 143/143/143 147/147/147 144/144/144
f 147/147/147 150/150/150 148/148/148
f 150/150/150 143/143/143 134/134/134
f 143/143/143 150/150/150 147/147/147
f 146/146/146 1/1/1 3/3/3
f 1/1/1 151/151/151 6/6/6
f 151/151/151 146/146/146 148/148/148
f 146/146/146 151/151/151 1/1/1
f 13/13/13 152/152/152 14/14/14
f 152/152/152 153/153/153 154/154/154
f 153/153/153 13/13/13 6/6/6
f 13/13/13 153/153/153 152/152/152
f 155/155/155 149/149/149 118/118/118
f 149/149/149 156/156/156 148/148/148
f 156/156/156 155/155/155 154/154/154
f 155/155/155 156/156/156 149/149/149
f 151/151/151 153/153/153 6/6/6
f 153/153/153 156/156/156 154/154/154
f 156/156/156 151/151/151 148/148/148
f 151/151/151 156/156/156 153/153/153
f 117/117/117 155/155/155 118/118/118
f 155/155/155 157/157/157 154/154/154
f 157/157/157 117/117/117 120/120/120
f 117/117/117 157/157/157 155/155/155
f 152/152/152 69/69/69 14/14/14
f 69/69/69 158/158/158 68/68/68
f 158/158/158 152/152/152 154/154/154
f 152/152/152 158/158/158 69/69/69
f 65/65/65 122/122/122 66/66/66
f 122/122/122 159/159/159 120/120/120
f 159/159/159 65/65/65 68/68/68
f 65/65/65 159/159/159 122/122/122
f 157/157/157 158/158/158 154/154/154
f 158/158/158 159/159/159 68/68/68
f 159/159/159 157/157/157 120/120/120
f 157/157/157 159/159/159 158/158/158
f 160/160/160 19/19/19 21/21/21
f 19/19/19 161/161/161 18/18/18
f 161/161/161 160/160/160 162/162/162
f 160/160/160 161/161/161 19/19/19
f 16/16/16 145/145/145 3/3/3
f 145/145/145 163/163/163 144/144/144
f 163/163/163 16/16/16 18/18/18
f 16/16/16 163/163/163 145/145/145
f 141/141/141 164/164/164 142/142/142
f 164/164/164 165/165/165 162/162/162
f 165/165/165 141/141/141 144/144/144
f 141/141/141 165/165/165 164/164/164
f 161/161/161 163/163/163 18/18/18
f 163/163/163 165/165/165 144/144/144
f 165/165/165 161/161/161 162/162/162
f 161/161/161 165/165/165 163/163/163
f 166/166/166 167/167/167 28/28/28
f 167/167/167 168/168/168 169/169/169
f 168/168/168 166/166/166 170/170/170
f 166/166/166 168/168/168 167/167/167
f 171/171/171 172/172/172 131/131/131
f 172/172/172 173/173/173 174/174/174
f 173/173/173 171/171/171 169/169/169
f 171/171/171 173/173/173 172/172/172
f 175/175/175 176/176/176 92/92/92
f 176/176/176 177/177/177 170/170/170
f 177/177/177 175/175/175 174/174/174
f 175/175/175 177/177/177 176/176/176
f 168/168/168 173/173/173 169/169/169
f 173/173/173 177/177/177 174/174/174
f 177/177/177 168/168/168 170/170/170
f 168/168/168 177/177/177 173/173/173
f 27/27/27 166/166/166 28/28/28
f 166/166/166 178/178/178 170/170/170
f 178/178/178 27/27/27 30/30/30
f 27/27/27 178/178/178 166/166/166
f 176/176/176 90/90/90 92/92/92
f 90/90/90 179/179/179 89/89/89
f 179/179/179 176/176/176 170/170/170
f 176/176/176 179/179/179 90/90/90
f 87/87/87 32/32/32 34/34/34
f 32/32/32 180/180/180 30/30/30
f 180/180/180 87/87/87 89/89/89
f 87/87/87 180/180/180 32/32/32
f 178/178/178 179/179/179 170/170/170
f 179/179/179 180/180/180 89/89/89
f 180/180/180 178/178/178 30/30/30
f 178/178/178 180/180/180 179/179/179
f 125/125/125 100/100/100 102/102/102
f 100/100/100 181/181/181 99/99/99
f 181/181/181 125/125/125 127/127/127
f 125/125/125 181/181/181 100/100/100
f 97/97/97 175/175/175 92/92/92
f 175/175/175 182/182/182 174/174/174
f 182/182/182 97/97/97 99/99/99
f 97/97/97 182/182/182 175/175/175
f 172/172/172 129/129/129 131/131/131
f 129/129/129 183/183/183 127/127/127
f 183/183/183 172/172/172 174/174/174
f 172/172/172 183/183/183 129/129/129
f 181/181/181 182/182/182 99/99/99
f 182/182/182 183/183/183 174/174/174
f 183/183/183 181/181/181 127/127/127
f 181/181/181 183/183/183 182/182/182
