g object
v -58.03086 -2.391351E-05 187.7918
v -75.23177 47.35204 146.8048
v -98.66139 -2.61248E-05 159.6375
v -28.82262 54.40948 168.7306
v -51.5692 97.52795 135.0099
v 0 -2.523472E-05 181.2713
v -27.03421 153.0391 124.8449
v 25.90225 146.8269 119.6175
v 0 179.1649 94.89709
v 0 109.9581 152.5406
v 42.56155 80.51543 111.4276
v 63.12319 39.7352 123.1765
v 49.36002 -2.035978E-05 159.7324
v 85.69807 -2.268893E-05 138.6624
v 27.45131 51.90183 160.7028
v -118.5318 29.92497 124.591
v -95.71168 80.79179 112.0612
v -137.4128 61.23842 84.9258
v -156.8931 93.87968 43.3642
v -119.6628 132.7833 24.65189
v -161.1849 116.1779 0
v -111.2325 110.8539 68.74547
v -70.10883 132.3067 43.32964
v -35.80037 151.2584 66.37755
v -62.84197 118.5893 86.84547
v -119.6628 132.7833 24.65189
v -106.6532 118.4899 -21.97176
v -161.1849 116.1779 0
v -76.30915 143.9765 0
v -65.5005 123.6793 -40.48154
v -76.30915 143.9765 0
v -33.37933 141.0294 -61.88868
v 0 186.4364 -49.33485
v 0 176.3473 -93.43076
v -37.14336 156.9326 -22.95586
v 0 191.4043 0
v 0 187.4001 49.60819
v -38.11945 161.3543 23.55911
v 0 191.4043 0
v -38.11945 161.3543 23.55911
v 0 191.4043 0
v 40.75119 171.9874 75.55688
v 43.41777 183.3561 26.83366
v 0 191.4043 0
v 81.76086 154.4252 50.53099
v 44.38309 187.2362 -82.29077
v 44.80716 189.0827 -27.69235
v 93.85965 177.2137 -58.00845
v 0 191.4043 0
v 119.5525 132.7666 -24.62916
v 112.5229 124.97 23.181
v 144.1577 104.0422 0
v 81.53622 154.1555 0
v 0 191.4043 0
v 60.83524 114.7294 84.07224
v 156.9647 93.83795 43.38398
v 98.3854 98.15356 60.80552
v 120.1907 53.52821 74.28194
v 108.8982 27.5374 114.4649
v 76.65466 64.71008 89.74884
v 180.0901 64.99538 0
v 175.1909 34.93376 48.42158
v 205.33 -2.85421E-05 0
v 193.9294 -69.9557 0
v 154.6805 -92.54008 42.75264
v 171.3693 -123.5373 0
v 178.0045 -35.50832 49.19923
v 136.09 -60.70304 84.10825
v 111.8618 -28.33094 117.5801
v 146.431 -2.393436E-05 90.49935
v 173.5017 103.8302 -47.95468
v 166.2335 33.1323 -45.9458
v 151.1569 67.42361 -93.4201
v 102.8267 25.99801 -108.083
v 97.03563 -24.53768 -101.996
v 86.33073 -2.284439E-05 -139.6861
v 120.4128 -1.970565E-05 -74.41921
v 134.5585 -60.01991 -83.16171
v 162.5246 -97.11642 -44.92069
v 160.4815 -31.98735 -44.35599
v 27.84984 157.824 -128.6115
v 87.83948 166.0561 -121.3912
v 58.99009 111.2968 -154.4381
v 76.34712 48.16392 -148.9813
v 114.2146 96.46894 -133.7248
v 144.0226 143.6156 -89.01086
v -23.75046 134.4228 -109.6804
v 0 104.8614 -145.2927
v -49.87122 94.35876 -130.5646
v -71.00687 44.76333 -138.5605
v -49.95513 -2.059789E-05 -161.6582
v -87.35431 -2.312716E-05 -141.3422
v -26.84172 50.6852 -157.1342
v 0 -2.41313E-05 -173.5147
v 49.5334 -2.043609E-05 -160.2935
v 28.13153 53.10952 -164.6848
v -73.86567 -46.48887 -144.1391
v -28.25561 -53.38901 -165.4112
v -52.92727 -99.93031 -138.5654
v -28.09926 -159.1067 -129.7634
v 27.79042 -157.5301 -128.3371
v 0 -206.2675 -109.0705
v 0 -109.2988 -151.4664
v 52.87243 -99.74821 -138.4218
v 63.8649 -40.22424 -124.6239
v 25.28288 -47.7536 -148.0085
v 48.86834 -206.4712 -90.60689
v 76.55544 -144.4551 -105.797
v 100.7774 -190.4189 -62.28384
v 141.9973 -157.8198 -29.25305
v 122.2205 -121.8444 -75.53645
v 96.65683 -81.70167 -113.1678
v 0 -237.7961 -63.01291
v 55.56005 -234.7441 -34.33801
v 0 -226.0663 0
v 0 -230.1487 60.85656
v 43.00871 -181.6804 79.74253
v 0 -198.0543 104.797
v 53.28745 -224.9727 32.93345
v 87.714 -165.7084 54.21023
v 0 -226.0663 0
v 129.9224 -144.3071 26.76548
v 106.2575 -200.6851 0
v 0 -226.0663 0
v -47.27406 -199.4712 -87.65092
v -54.96495 -232.2297 -33.97021
v -92.56904 -174.9305 -57.21081
v 0 -226.0663 0
v -133.6359 -148.2446 -27.5305
v -149.1472 -165.6132 30.72601
v -159.4225 -114.9242 0
v -149.1472 -165.6132 30.72601
v -110.1449 -207.9104 0
v -93.71778 -177.0235 57.92077
v -110.1449 -207.9104 0
v -46.05365 -194.8656 85.38816
v -55.55667 -234.7965 34.33591
v 0 -226.0663 0
v -55.55667 -234.7965 34.33591
v 0 -226.0663 0
v -177.5292 -106.1279 49.06787
v -159.4225 -114.9242 0
v -140.1653 -139.7597 86.62691
v -170.8393 -76.203 105.5845
v -139.873 -35.3224 147.0231
v -93.27858 -58.72594 182.0208
v -124.752 -105.3812 146.0622
v -64.1567 -121.2241 167.9644
v -29.92154 -169.4782 138.1787
v -78.37366 -147.983 108.3097
v -32.72955 -61.84252 191.6021
v 73.85748 -46.49549 144.1231
v 28.4846 -53.82169 166.7518
v 51.03767 -96.4083 133.6184
v 26.12314 -147.8634 120.6376
v 0 -110.3522 152.7694
v 70.61892 -133.2236 97.59293
v 94.76354 -80.09046 110.9511
v 114.0833 -113.7039 70.50736
v -197.0062 71.09212 0
v -185.7948 37.04358 51.35241
v -200.4159 -2.788672E-05 0
v -165.9893 -2.713813E-05 102.587
v -174.6923 -63.05332 0
v -196.9566 -39.24263 54.43746
v -164.4197 98.29529 -45.4445
v -197.0062 71.09212 0
v -181.5244 36.21045 -50.17212
v -200.4159 -2.788672E-05 0
v -139.0499 62.05554 -85.93759
v -174.6923 -63.05332 0
v -149.2928 -89.24011 -41.26351
v -166.1761 -33.14174 -45.92993
v -132.4604 -59.04084 -81.86505
v -111.4527 -28.17816 -117.15
v -113.8461 28.74951 -119.6658
v -143.7431 -2.354136E-05 -88.83813
v -98.87486 98.61771 -61.10803
v -95.28465 80.59721 -111.5612
v -57.42551 108.6169 -79.36011
v -73.1274 -138.1742 -101.0596
v -94.0771 -79.62726 -110.1474
v -115.5226 -115.1852 -71.3969

vn -0.2696623 0.3699267 0.8890649
vn -0.5485908 0.4366528 0.7130094
vn -0.5797194 0.2999028 0.7576172
vn -0.1692501 0.3403069 0.9249571
vn -0.4995045 0.450156 0.7401721
vn 0.2887516 0.1716633 0.9418886
vn -0.5149541 0.6040527 0.6082292
vn 0.7575873 0.3041194 0.5775577
vn -0.002963139 0.8893215 0.4572729
vn 0.2175906 0.4066625 0.887288
vn 0.6545709 0.3242086 0.6829536
vn 0.5678729 0.6906546 0.4477907
vn 0.4516616 0.1022903 0.8863061
vn 0.5470679 0.1136468 0.8293377
vn 0.4708866 0.3321052 0.8172955
vn -0.5465894 0.4851324 0.6825588
vn -0.5802941 0.4458781 0.6815068
vn -0.6362622 0.4466696 0.6290125
vn -0.6379544 0.487636 0.5960079
vn -0.1238836 0.9078711 0.4005284
vn -0.6258657 0.7791414 0.03508256
vn -0.2101472 0.8554015 0.4734199
vn -0.4835419 0.8095813 0.3328142
vn -0.6701375 0.7283442 0.1429355
vn -0.5656343 0.7683034 0.2996127
vn -0.1238836 0.9078711 0.4005284
vn -0.1869452 0.8154262 -0.5478427
vn -0.6258657 0.7791414 0.03508256
vn -0.5150041 0.8084387 -0.2849519
vn -0.4874896 0.7847711 -0.3827376
vn -0.5150041 0.8084387 -0.2849519
vn -0.7332921 0.6418914 -0.2241836
vn -0.2948977 0.9490844 -0.1107882
vn -0.3358854 0.8417998 -0.4225567
vn -0.6189638 0.5927631 -0.5152822
vn -0.1055476 0.9943713 -0.009246332
vn -0.1471448 0.9747004 0.1682483
vn -0.6419613 0.6860052 0.3424655
vn -0.1055476 0.9943713 -0.009246332
vn -0.6419613 0.6860052 0.3424655
vn -0.1055476 0.9943713 -0.009246332
vn 0.4921673 0.767796 0.4101958
vn 0.3068668 0.9407722 0.1441545
vn -0.1055476 0.9943713 -0.009246332
vn 0.5952666 0.4579607 0.6602497
vn -0.03323221 0.9890115 -0.1440549
vn 0.160824 0.9869732 0.004410534
vn 0.5358985 0.807139 0.2476679
vn -0.1055476 0.9943713 -0.009246332
vn 0.5462561 0.7447888 0.3832675
vn 0.5929377 0.8051682 0.01136027
vn 0.5926455 0.7971961 0.1151067
vn 0.8052171 0.591158 0.04644956
vn -0.1055476 0.9943713 -0.009246332
vn 0.6297643 0.4042376 0.6633165
vn 0.6268011 0.445141 0.6395075
vn 0.5113741 0.3785601 0.7714848
vn 0.4152602 0.5299158 0.7394243
vn 0.4484082 0.6438655 0.6199736
vn 0.5550077 0.3920099 0.7336857
vn 0.9083536 0.3832704 0.1673248
vn 0.8044227 0.2218225 0.5510887
vn 0.9980944 0.0614844 -0.005218514
vn 0.9462448 -0.3234231 -0.004261473
vn 0.669148 -0.4369666 0.6010833
vn 0.8555938 -0.5039459 0.1183121
vn 0.7754049 -0.1687072 0.6085107
vn 0.7000076 -0.3356544 0.6303375
vn 0.6418121 -0.1413493 0.7537225
vn 0.7317306 0.05403189 0.6794489
vn 0.9154133 0.402418 0.008847583
vn 0.7084926 -0.265832 -0.6537367
vn 0.747333 -0.2565419 -0.6129271
vn 0.7891557 -0.3537524 -0.5020882
vn 0.8476084 0.08399154 -0.5239326
vn 0.5635915 -0.1104565 -0.8186353
vn 0.7052183 -0.1468135 -0.693623
vn 0.723336 0.1400556 -0.6761431
vn 0.725487 -0.2836139 -0.6270819
vn 0.6366465 0.1532469 -0.7557755
vn -0.278237 0.5755548 -0.7689738
vn 0.3209548 0.7145423 -0.6216248
vn 0.0797229 0.2574223 -0.9630046
vn 0.4321131 -0.07003985 -0.8990955
vn 0.5859196 0.02884422 -0.8098558
vn 0.7460505 0.6275398 -0.2227161
vn -0.783803 0.5623232 -0.2635251
vn -0.2425461 0.3510861 -0.9043837
vn -0.4725102 0.5015197 -0.7247152
vn -0.4517939 0.3056937 -0.8381131
vn -0.3637539 0.07632134 -0.9283631
vn -0.529503 0.03687067 -0.8475063
vn -0.2546514 0.2663735 -0.9296224
vn 0.0133213 0.05705702 -0.998282
vn 0.375796 -0.2360849 -0.8961257
vn 0.02829573 0.1549338 -0.9875196
vn -0.5613231 -0.2444248 -0.7906787
vn -0.1590901 -0.2066696 -0.9653901
vn -0.4991575 -0.3277861 -0.8021209
vn -0.4332405 -0.3758278 -0.8191801
vn 0.3489639 -0.3392644 -0.8735697
vn -0.0421566 -0.7219988 -0.6906089
vn 0.02898294 -0.3019233 -0.9528915
vn 0.4215845 -0.2259461 -0.8781884
vn 0.3011509 -0.190965 -0.9342594
vn 0.5985393 -0.06566877 -0.7983974
vn 0.4280381 -0.621978 -0.655688
vn 0.5610342 -0.3528166 -0.7488398
vn 0.6255144 -0.5489284 -0.5544451
vn 0.8142511 -0.5244173 -0.2489613
vn 0.6711351 -0.2800541 -0.6864018
vn 0.5888009 -0.1790668 -0.7881932
vn -0.03106718 -0.9277344 -0.3719456
vn 0.3874094 -0.9015631 -0.1926084
vn 0.04797896 -0.9988259 -0.006698111
vn 0.2567324 -0.869054 0.4228873
vn 0.5738553 -0.5306913 0.6237442
vn 0.2777764 -0.7075956 0.6497297
vn 0.4973881 -0.7011856 0.5108266
vn 0.6002019 -0.5297974 0.5992266
vn 0.04797896 -0.9988259 -0.006698111
vn 0.6350097 -0.51851 0.5726343
vn 0.6995813 -0.6280853 0.3407268
vn 0.04797896 -0.9988259 -0.006698111
vn -0.5660816 -0.5648195 -0.600442
vn -0.4013903 -0.8698646 -0.2867426
vn -0.6602775 -0.4926095 -0.5668945
vn 0.04797896 -0.9988259 -0.006698111
vn -0.7858099 -0.3587072 -0.5038174
vn -0.8136647 -0.5810096 -0.01942896
vn -0.9025917 -0.3265453 -0.2805289
vn -0.8136647 -0.5810096 -0.01942896
vn -0.658676 -0.7381359 -0.1459495
vn -0.4868363 -0.6490891 0.5845288
vn -0.658676 -0.7381359 -0.1459495
vn -0.6439732 -0.5639727 0.5169462
vn -0.3511212 -0.8962329 0.2710727
vn 0.04797896 -0.9988259 -0.006698111
vn -0.3511212 -0.8962329 0.2710727
vn 0.04797896 -0.9988259 -0.006698111
vn -0.9405572 -0.3325011 -0.06924651
vn -0.9025917 -0.3265453 -0.2805289
vn -0.3225776 -0.8354272 0.4449776
vn -0.8393731 -0.2237625 0.4953618
vn -0.6477597 0.203123 0.7342672
vn -0.4771657 -0.09428629 0.8737408
vn -0.5761428 -0.4412027 0.6880403
vn -0.1300119 -0.4822138 0.8663526
vn -0.04495102 -0.638997 0.7678947
vn -0.445497 -0.8220688 0.3545919
vn 0.1833066 -0.2513161 0.9503888
vn 0.5370948 -0.2377224 0.8093313
vn 0.4271113 -0.243579 0.8707727
vn 0.4831915 -0.4249945 0.7654448
vn 0.4954698 -0.4517853 0.7418893
vn 0.3647275 -0.4505123 0.8148697
vn 0.6160207 -0.4748766 0.6284987
vn 0.6036131 -0.4340848 0.6687464
vn 0.6412634 -0.4836956 0.5956675
vn -0.9321026 0.3439733 0.1134326
vn -0.7941685 0.3550572 0.4931842
vn -0.9650613 -0.1749432 -0.1950682
vn -0.7047191 0.3444305 0.620273
vn -0.8716844 -0.3314832 -0.3609506
vn -0.9866738 -0.1274996 0.1010873
vn -0.552611 0.6150566 -0.562429
vn -0.9321026 0.3439733 0.1134326
vn -0.7898788 -0.01165584 -0.6131521
vn -0.9650613 -0.1749432 -0.1950682
vn -0.6257867 0.3332229 -0.705233
vn -0.8716844 -0.3314832 -0.3609506
vn -0.8319787 -0.3219732 -0.4518238
vn -0.8379118 -0.2796762 -0.4687056
vn -0.7359765 -0.3019074 -0.6059625
vn -0.6753625 -0.2219595 -0.7032919
vn -0.5971001 0.1414031 -0.7896053
vn -0.7436464 -0.1310781 -0.6555978
vn -0.2479325 0.839349 -0.4837589
vn -0.4891037 0.6295485 -0.6036938
vn -0.5292699 0.7454609 -0.4051684
vn -0.6503487 -0.4271563 -0.6281592
vn -0.6296343 -0.3207741 -0.7075766
vn -0.7386211 -0.3630367 -0.5680171

vt 0.7977001 0.5
vt 0.8253705 0.4232277
vt 0.8381041 0.5
vt 0.776927 0.4153324
vt 0.8080699 0.3333333
vt 0.75 0.5
vt 0.7839398 0.2457124
vt 0.7160602 0.2457124
vt 0.75 0.1762082
vt 0.75 0.3237918
vt 0.6919301 0.3333333
vt 0.6746295 0.4232277
vt 0.7022999 0.5
vt 0.6618959 0.5
vt 0.723073 0.4153324
vt 0.8710343 0.4528384
vt 0.862502 0.3601596
vt 0.9118959 0.4
vt 0.9570821 0.3539629
vt 0.9676646 0.2612329
vt 1 0.3237918
vt 0.9118959 0.3
vt 0.9118959 0.2
vt 0.8287221 0.1678328
vt 0.8496938 0.2584051
vt -0.0323354 0.2612329
vt 0.03233537 0.2612329
vt 0 0.3237918
vt 0 0.1762082
vt 0.08810409 0.2
vt 1 0.1762082
vt 0.1712779 0.1678328
vt 0.25 0.09540019
vt 0.25 0.1762082
vt 0.08810409 0.09999997
vt 0.169052 0
vt 0.75 0.09540019
vt 0.9118959 0.09999997
vt 0.830948 0
vt -0.08810407 0.09999997
vt 1.117587E-08 0
vt 0.6712779 0.1678328
vt 0.5881041 0.09999997
vt 0.669052 0
vt 0.5881041 0.2
vt 0.3287221 0.1678328
vt 0.4118959 0.09999997
vt 0.4118959 0.2
vt 0.3309479 0
vt 0.4676647 0.2612329
vt 0.5323353 0.2612329
vt 0.5 0.3237918
vt 0.5 0.1762082
vt 0.5 0
vt 0.6503062 0.2584051
vt 0.5429179 0.3539629
vt 0.5881041 0.3
vt 0.5881041 0.4
vt 0.6289657 0.4528384
vt 0.637498 0.3601596
vt 0.5 0.4045998
vt 0.5429179 0.4480572
vt 0.5 0.5
vt 0.5 0.5954002
vt 0.5429179 0.646037
vt 0.5 0.6762082
vt 0.5429179 0.5519428
vt 0.5881041 0.6
vt 0.6289657 0.5471615
vt 0.5881041 0.5
vt 0.4570821 0.3539629
vt 0.4570821 0.4480572
vt 0.4118959 0.4
vt 0.3710343 0.4528384
vt 0.3710343 0.5471615
vt 0.3381041 0.5
vt 0.4118959 0.5
vt 0.4118959 0.6
vt 0.4570821 0.646037
vt 0.4570821 0.5519428
vt 0.2839398 0.2457124
vt 0.3496938 0.2584051
vt 0.3080699 0.3333333
vt 0.3253705 0.4232277
vt 0.362502 0.3601596
vt 0.4118959 0.3
vt 0.2160602 0.2457124
vt 0.25 0.3237918
vt 0.1919301 0.3333333
vt 0.1746295 0.4232277
vt 0.2022999 0.5
vt 0.1618959 0.5
vt 0.223073 0.4153324
vt 0.25 0.5
vt 0.2977001 0.5
vt 0.276927 0.4153324
vt 0.1746295 0.5767723
vt 0.223073 0.5846676
vt 0.1919301 0.6666667
vt 0.2160602 0.7542875
vt 0.2839398 0.7542875
vt 0.25 0.8237918
vt 0.25 0.6762082
vt 0.3080699 0.6666667
vt 0.3253705 0.5767723
vt 0.276927 0.5846676
vt 0.3287221 0.8321671
vt 0.3496938 0.7415949
vt 0.4118959 0.8
vt 0.4676647 0.738767
vt 0.4118959 0.7
vt 0.362502 0.6398403
vt 0.25 0.9045998
vt 0.4118959 0.9
vt 0.3309479 1
vt 0.75 0.9045998
vt 0.6712779 0.8321671
vt 0.75 0.8237918
vt 0.5881041 0.9
vt 0.5881041 0.8
vt 0.669052 1
vt 0.5323353 0.738767
vt 0.5 0.8237918
vt 0.5 1
vt 0.1712779 0.8321671
vt 0.08810409 0.9
vt 0.08810409 0.8
vt 0.169052 1
vt 0.03233537 0.738767
vt -0.0323354 0.738767
vt 0 0.6762082
vt 0.9676646 0.738767
vt 1 0.8237918
vt 0.9118959 0.8
vt 0 0.8237918
vt 0.8287221 0.8321671
vt 0.9118959 0.9
vt 0.830948 1
vt -0.08810407 0.9
vt 1.117587E-08 1
vt 0.9570821 0.646037
vt 1 0.6762082
vt 0.9118959 0.7
vt 0.9118959 0.6
vt 0.8710343 0.5471615
vt 0.8253705 0.5767723
vt 0.862502 0.6398403
vt 0.8080699 0.6666667
vt 0.7839398 0.7542875
vt 0.8496938 0.7415949
vt 0.776927 0.5846676
vt 0.6746295 0.5767723
vt 0.723073 0.5846676
vt 0.6919301 0.6666667
vt 0.7160602 0.7542875
vt 0.75 0.6762082
vt 0.6503062 0.7415949
vt 0.637498 0.6398403
vt 0.5881041 0.7
vt 1 0.4045998
vt 0.9570821 0.4480572
vt 1 0.5
vt 0.9118959 0.5
vt 1 0.5954002
vt 0.9570821 0.5519428
vt 0.04291791 0.3539629
vt 0 0.4045998
vt 0.04291791 0.4480572
vt 0 0.5
vt 0.08810409 0.4
vt 0 0.5954002
vt 0.04291791 0.646037
vt 0.04291791 0.5519428
vt 0.08810409 0.6
vt 0.1289657 0.5471615
vt 0.1289657 0.4528384
vt 0.08810409 0.5
vt 0.08810413 0.3
vt 0.1374981 0.3601596
vt 0.1503062 0.2584051
vt 0.1503062 0.7415949
vt 0.1374981 0.6398403
vt 0.08810413 0.7

usemtl ground (Instance)
usemap ground (Instance)
f 1/1/1 2/2/2 3/3/3
f 2/2/2 4/4/4 5/5/5
f 4/4/4 1/1/1 6/6/6
f 1/1/1 4/4/4 2/2/2
f 7/7/7 8/8/8 9/9/9
f 8/8/8 10/10/10 11/11/11
f 10/10/10 7/7/7 5/5/5
f 7/7/7 10/10/10 8/8/8
f 12/12/12 13/13/13 14/14/14
f 13/13/13 15/15/15 6/6/6
f 15/15/15 12/12/12 11/11/11
f 12/12/12 15/15/15 13/13/13
f 4/4/4 10/10/10 5/5/5
f 10/10/10 15/15/15 11/11/11
f 15/15/15 4/4/4 6/6/6
f 4/4/4 15/15/15 10/10/10
f 2/2/2 16/16/16 3/3/3
f 16/16/16 17/17/17 18/18/18
f 17/17/17 2/2/2 5/5/5
f 2/2/2 17/17/17 16/16/16
f 19/19/19 20/20/20 21/21/21
f 20/20/20 22/22/22 23/23/23
f 22/22/22 19/19/19 18/18/18
f 19/19/19 22/22/22 20/20/20
f 24/24/24 7/7/7 9/9/9
f 7/7/7 25/25/25 5/5/5
f 25/25/25 24/24/24 23/23/23
f 24/24/24 25/25/25 7/7/7
f 17/17/17 22/22/22 18/18/18
f 22/22/22 25/25/25 23/23/23
f 25/25/25 17/17/17 5/5/5
f 17/17/17 25/25/25 22/22/22
f 26/26/26 27/27/27 28/28/28
f 27/27/27 29/29/29 30/30/30
f 31/31/31 20/20/20 23/23/23
f 26/26/26 29/29/29 27/27/27
f 32/32/32 33/33/33 34/34/34
f 33/33/33 35/35/35 36/36/36
f 35/35/35 32/32/32 30/30/30
f 32/32/32 35/35/35 33/33/33
f 37/37/37 24/24/24 9/9/9
f 24/24/24 38/38/38 23/23/23
f 38/38/38 37/37/37 39/39/39
f 37/37/37 38/38/38 24/24/24
f 29/29/29 35/35/35 30/30/30
f 35/35/35 40/40/40 41/41/41
f 38/38/38 31/31/31 23/23/23
f 29/29/29 40/40/40 35/35/35
f 42/42/42 37/37/37 9/9/9
f 37/37/37 43/43/43 44/44/44
f 43/43/43 42/42/42 45/45/45
f 42/42/42 43/43/43 37/37/37
f 33/33/33 46/46/46 34/34/34
f 46/46/46 47/47/47 48/48/48
f 47/47/47 33/33/33 49/49/49
f 33/33/33 47/47/47 46/46/46
f 50/50/50 51/51/51 52/52/52
f 51/51/51 53/53/53 45/45/45
f 53/53/53 50/50/50 48/48/48
f 50/50/50 53/53/53 51/51/51
f 43/43/43 47/47/47 54/54/54
f 47/47/47 53/53/53 48/48/48
f 53/53/53 43/43/43 45/45/45
f 43/43/43 53/53/53 47/47/47
f 8/8/8 42/42/42 9/9/9
f 42/42/42 55/55/55 45/45/45
f 55/55/55 8/8/8 11/11/11
f 8/8/8 55/55/55 42/42/42
f 51/51/51 56/56/56 52/52/52
f 56/56/56 57/57/57 58/58/58
f 57/57/57 51/51/51 45/45/45
f 51/51/51 57/57/57 56/56/56
f 59/59/59 12/12/12 14/14/14
f 12/12/12 60/60/60 11/11/11
f 60/60/60 59/59/59 58/58/58
f 59/59/59 60/60/60 12/12/12
f 55/55/55 57/57/57 45/45/45
f 57/57/57 60/60/60 58/58/58
f 60/60/60 55/55/55 11/11/11
f 55/55/55 60/60/60 57/57/57
f 56/56/56 61/61/61 52/52/52
f 61/61/61 62/62/62 63/63/63
f 62/62/62 56/56/56 58/58/58
f 56/56/56 62/62/62 61/61/61
f 64/64/64 65/65/65 66/66/66
f 65/65/65 67/67/67 68/68/68
f 67/67/67 64/64/64 63/63/63
f 64/64/64 67/67/67 65/65/65
f 69/69/69 59/59/59 14/14/14
f 59/59/59 70/70/70 58/58/58
f 70/70/70 69/69/69 68/68/68
f 69/69/69 70/70/70 59/59/59
f 62/62/62 67/67/67 63/63/63
f 67/67/67 70/70/70 68/68/68
f 70/70/70 62/62/62 58/58/58
f 62/62/62 70/70/70 67/67/67
f 61/61/61 71/71/71 52/52/52
f 71/71/71 72/72/72 73/73/73
f 72/72/72 61/61/61 63/63/63
f 61/61/61 72/72/72 71/71/71
f 74/74/74 75/75/75 76/76/76
f 75/75/75 77/77/77 78/78/78
f 77/77/77 74/74/74 73/73/73
f 74/74/74 77/77/77 75/75/75
f 79/79/79 64/64/64 66/66/66
f 64/64/64 80/80/80 63/63/63
f 80/80/80 79/79/79 78/78/78
f 79/79/79 80/80/80 64/64/64
f 72/72/72 77/77/77 73/73/73
f 77/77/77 80/80/80 78/78/78
f 80/80/80 72/72/72 63/63/63
f 72/72/72 80/80/80 77/77/77
f 46/46/46 81/81/81 34/34/34
f 81/81/81 82/82/82 83/83/83
f 82/82/82 46/46/46 48/48/48
f 46/46/46 82/82/82 81/81/81
f 84/84/84 74/74/74 76/76/76
f 74/74/74 85/85/85 73/73/73
f 85/85/85 84/84/84 83/83/83
f 84/84/84 85/85/85 74/74/74
f 71/71/71 50/50/50 52/52/52
f 50/50/50 86/86/86 48/48/48
f 86/86/86 71/71/71 73/73/73
f 71/71/71 86/86/86 50/50/50
f 82/82/82 85/85/85 83/83/83
f 85/85/85 86/86/86 73/73/73
f 86/86/86 82/82/82 48/48/48
f 82/82/82 86/86/86 85/85/85
f 81/81/81 87/87/87 34/34/34
f 87/87/87 88/88/88 89/89/89
f 88/88/88 81/81/81 83/83/83
f 81/81/81 88/88/88 87/87/87
f 90/90/90 91/91/91 92/92/92
f 91/91/91 93/93/93 94/94/94
f 93/93/93 90/90/90 89/89/89
f 90/90/90 93/93/93 91/91/91
f 95/95/95 84/84/84 76/76/76
f 84/84/84 96/96/96 83/83/83
f 96/96/96 95/95/95 94/94/94
f 95/95/95 96/96/96 84/84/84
f 88/88/88 93/93/93 89/89/89
f 93/93/93 96/96/96 94/94/94
f 96/96/96 88/88/88 83/83/83
f 88/88/88 96/96/96 93/93/93
f 91/91/91 97/97/97 92/92/92
f 97/97/97 98/98/98 99/99/99
f 98/98/98 91/91/91 94/94/94
f 91/91/91 98/98/98 97/97/97
f 100/100/100 101/101/101 102/102/102
f 101/101/101 103/103/103 104/104/104
f 103/103/103 100/100/100 99/99/99
f 100/100/100 103/103/103 101/101/101
f 105/105/105 95/95/95 76/76/76
f 95/95/95 106/106/106 94/94/94
f 106/106/106 105/105/105 104/104/104
f 105/105/105 106/106/106 95/95/95
f 98/98/98 103/103/103 99/99/99
f 103/103/103 106/106/106 104/104/104
f 106/106/106 98/98/98 94/94/94
f 98/98/98 106/106/106 103/103/103
f 101/101/101 107/107/107 102/102/102
f 107/107/107 108/108/108 109/109/109
f 108/108/108 101/101/101 104/104/104
f 101/101/101 108/108/108 107/107/107
f 110/110/110 79/79/79 66/66/66
f 79/79/79 111/111/111 78/78/78
f 111/111/111 110/110/110 109/109/109
f 110/110/110 111/111/111 79/79/79
f 75/75/75 105/105/105 76/76/76
f 105/105/105 112/112/112 104/104/104
f 112/112/112 75/75/75 78/78/78
f 75/75/75 112/112/112 105/105/105
f 108/108/108 111/111/111 109/109/109
f 111/111/111 112/112/112 78/78/78
f 112/112/112 108/108/108 104/104/104
f 108/108/108 112/112/112 111/111/111
f 107/107/107 113/113/113 102/102/102
f 113/113/113 114/114/114 115/115/115
f 114/114/114 107/107/107 109/109/109
f 107/107/107 114/114/114 113/113/113
f 116/116/116 117/117/117 118/118/118
f 117/117/117 119/119/119 120/120/120
f 119/119/119 116/116/116 121/121/121
f 116/116/116 119/119/119 117/117/117
f 122/122/122 110/110/110 66/66/66
f 110/110/110 123/123/123 109/109/109
f 123/123/123 122/122/122 120/120/120
f 122/122/122 123/123/123 110/110/110
f 114/114/114 119/119/119 124/124/124
f 119/119/119 123/123/123 120/120/120
f 123/123/123 114/114/114 109/109/109
f 114/114/114 123/123/123 119/119/119
f 113/113/113 125/125/125 102/102/102
f 125/125/125 126/126/126 127/127/127
f 126/126/126 113/113/113 128/128/128
f 113/113/113 126/126/126 125/125/125
f 129/129/129 130/130/130 131/131/131
f 132/132/132 133/133/133 134/134/134
f 135/135/135 129/129/129 127/127/127
f 129/129/129 135/135/135 130/130/130
f 136/136/136 116/116/116 118/118/118
f 116/116/116 137/137/137 138/138/138
f 137/137/137 136/136/136 134/134/134
f 136/136/136 137/137/137 116/116/116
f 126/126/126 135/135/135 127/127/127
f 133/133/133 137/137/137 134/134/134
f 139/139/139 126/126/126 140/140/140
f 126/126/126 139/139/139 135/135/135
f 132/132/132 141/141/141 142/142/142
f 141/141/141 143/143/143 144/144/144
f 143/143/143 132/132/132 134/134/134
f 132/132/132 143/143/143 141/141/141
f 145/145/145 146/146/146 3/3/3
f 146/146/146 147/147/147 148/148/148
f 147/147/147 145/145/145 144/144/144
f 145/145/145 147/147/147 146/146/146
f 149/149/149 136/136/136 118/118/118
f 136/136/136 150/150/150 134/134/134
f 150/150/150 149/149/149 148/148/148
f 149/149/149 150/150/150 136/136/136
f 143/143/143 147/147/147 144/144/144
f 147/147/147 150/150/150 148/148/148
f 150/150/150 143/143/143 134/134/134
f 143/143/143 150/150/150 147/147/147
f 146/146/146 1/1/1 3/3/3
f 1/1/1 151/151/151 6/6/6
f 151/151/151 146/146/146 148/148/148
f 146/146/146 151/151/151 1/1/1
f 13/13/13 152/152/152 14/14/14
f 152/152/152 153/153/153 154/154/154
f 153/153/153 13/13/13 6/6/6
f 13/13/13 153/153/153 152/152/152
f 155/155/155 149/149/149 118/118/118
f 149/149/149 156/156/156 148/148/148
f 156/156/156 155/155/155 154/154/154
f 155/155/155 156/156/156 149/149/149
f 151/151/151 153/153/153 6/6/6
f 153/153/153 156/156/156 154/154/154
f 156/156/156 151/151/151 148/148/148
f 151/151/151 156/156/156 153/153/153
f 117/117/117 155/155/155 118/118/118
f 155/155/155 157/157/157 154/154/154
f 157/157/157 117/117/117 120/120/120
f 117/117/117 157/157/157 155/155/155
f 152/152/152 69/69/69 14/14/14
f 69/69/69 158/158/158 68/68/68
f 158/158/158 152/152/152 154/154/154
f 152/152/152 158/158/158 69/69/69
f 65/65/65 122/122/122 66/66/66
f 122/122/122 159/159/159 120/120/120
f 159/159/159 65/65/65 68/68/68
f 65/65/65 159/159/159 122/122/122
f 157/157/157 158/158/158 154/154/154
f 158/158/158 159/159/159 68/68/68
f 159/159/159 157/157/157 120/120/120
f 157/157/157 159/159/159 158/158/158
f 160/160/160 19/19/19 21/21/21
f 19/19/19 161/161/161 18/18/18
f 161/161/161 160/160/160 162/162/162
f 160/160/160 161/161/161 19/19/19
f 16/16/16 145/145/145 3/3/3
f 145/145/145 163/163/163 144/144/144
f 163/163/163 16/16/16 18/18/18
f 16/16/16 163/163/163 145/145/145
f 141/141/141 164/164/164 142/142/142
f 164/164/164 165/165/165 162/162/162
f 165/165/165 141/141/141 144/144/144
f 141/141/141 165/165/165 164/164/164
f 161/161/161 163/163/163 18/18/18
f 163/163/163 165/165/165 144/144/144
f 165/165/165 161/161/161 162/162/162
f 161/161/161 165/165/165 163/163/163
f 166/166/166 167/167/167 28/28/28
f 167/167/167 168/168/168 169/169/169
f 168/168/168 166/166/166 170/170/170
f 166/166/166 168/168/168 167/167/167
f 171/171/171 172/172/172 131/131/131
f 172/172/172 173/173/173 174/174/174
f 173/173/173 171/171/171 169/169/169
f 171/171/171 173/173/173 172/172/172
f 175/175/175 176/176/176 92/92/92
f 176/176/176 177/177/177 170/170/170
f 177/177/177 175/175/175 174/174/174
f 175/175/175 177/177/177 176/176/176
f 168/168/168 173/173/173 169/169/169
f 173/173/173 177/177/177 174/174/174
f 177/177/177 168/168/168 170/170/170
f 168/168/168 177/177/177 173/173/173
f 27/27/27 166/166/166 28/28/28
f 166/166/166 178/178/178 170/170/170
f 178/178/178 27/27/27 30/30/30
f 27/27/27 178/178/178 166/166/166
f 176/176/176 90/90/90 92/92/92
f 90/90/90 179/179/179 89/89/89
f 179/179/179 176/176/176 170/170/170
f 176/176/176 179/179/179 90/90/90
f 87/87/87 32/32/32 34/34/34
f 32/32/32 180/180/180 30/30/30
f 180/180/180 87/87/87 89/89/89
f 87/87/87 180/180/180 32/32/32
f 178/178/178 179/179/179 170/170/170
f 179/179/179 180/180/180 89/89/89
f 180/180/180 178/178/178 30/30/30
f 178/178/178 180/180/180 179/179/179
f 125/125/125 100/100/100 102/102/102
f 100/100/100 181/181/181 99/99/99
f 181/181/181 125/125/125 127/127/127
f 125/125/125 181/181/181 100/100/100
f 97/97/97 175/175/175 92/92/92
f 175/175/175 182/182/182 174/174/174
f 182/182/182 97/97/97 99/99/99
f 97/97/97 182/182/182 175/175/175
f 172/172/172 129/129/129 131/131/131
f 129/129/129 183/183/183 127/127/127
f 183/183/183 172/172/172 174/174/174
f 172/172/172 183/183/183 129/129/129
f 181/181/181 182/182/182 99/99/99
f 182/182/182 183/183/183 174/174/174
f 183/183/183 181/181/181 127/127/127
f 181/181/181 183/183/183 182/182/182
